EESchema Schematic File Version 4
LIBS:poncho_grande-cache
EELAYER 26 0
EELAYER END
$Descr A4 11693 8268
encoding utf-8
Sheet 1 3
Title "Poncho RFID para la EDU-CIAA"
Date "2018-11-19"
Rev "1.0"
Comp "Proyecto CIAA - COMPUTADORA INDUSTRIAL ABIERTA ARGENTINA"
Comment1 "https://gitlab.com/envido32/educiaa-poncho-rfid"
Comment2 "Autores y Licencia del template (Diego Brengi - UNLaM)"
Comment3 "Autor del poncho (Manuel Cajide Maidana - UTN FRA)."
Comment4 "CÓDIGO PONCHO: Prototipo"
$EndDescr
$Comp
L Graphic:Logo_Open_Hardware_Small #G2
U 1 1 560A0A28
P 10800 6050
F 0 "#G2" H 10770 6450 60  0001 C CNN
F 1 "OSHWA" H 10800 6353 60  0001 C CNN
F 2 "" H 10800 6050 60  0001 C CNN
F 3 "" H 10800 6050 60  0000 C CNN
	1    10800 6050
	1    0    0    -1  
$EndComp
$Sheet
S 5250 1200 1350 5600
U 560A0C1A
F0 "Circuito Principal" 50
F1 "principal.sch" 50
F2 "RESET" B L 5250 1250 60 
F3 "ISP" B L 5250 1350 60 
F4 "ADC1" B L 5250 1550 60 
F5 "ADC2" B L 5250 1650 60 
F6 "ADC3" B L 5250 1750 60 
F7 "DAC" B L 5250 1850 60 
F8 "I2C_SDA" B L 5250 2050 60 
F9 "I2C_SCL" B L 5250 2150 60 
F10 "RS_RXD" B L 5250 2350 60 
F11 "RS_TXD" B L 5250 2450 60 
F12 "CAN_RD" B L 5250 2650 60 
F13 "CAN_TD" B L 5250 2750 60 
F14 "KB_C0" B L 5250 2950 60 
F15 "KB_C1" B L 5250 3050 60 
F16 "KB_F0" B L 5250 3250 60 
F17 "KB_F1" B L 5250 3350 60 
F18 "KB_F2" B L 5250 3450 60 
F19 "KB_F3" B L 5250 3550 60 
F20 "RCLK" B L 5250 3750 60 
F21 "TXD0" B L 5250 3850 60 
F22 "TXD1" B L 5250 3950 60 
F23 "TXEN" B L 5250 4050 60 
F24 "RXD0" B L 5250 4150 60 
F25 "RXD1" B L 5250 4250 60 
F26 "MDC" B L 5250 4350 60 
F27 "CRS" B L 5250 4450 60 
F28 "MDIO" B L 5250 4550 60 
F29 "SPI_SCK" B L 5250 4750 60 
F30 "SPI_MOSI" B L 5250 4850 60 
F31 "SPI_MISO" B L 5250 4950 60 
F32 "LCD_D1" B L 5250 5100 60 
F33 "LCD_D2" B L 5250 5200 60 
F34 "LCD_D3" B L 5250 5300 60 
F35 "LCD_D4" B L 5250 5400 60 
F36 "LCD_EN" B L 5250 5500 60 
F37 "LCD_RS" B L 5250 5600 60 
F38 "GPIO_2" B L 5250 5950 60 
F39 "GPIO_3" B L 5250 6050 60 
F40 "GPIO_4" B L 5250 6150 60 
F41 "GPIO_5" B L 5250 6250 60 
F42 "GPIO_6" B L 5250 6350 60 
F43 "GPIO_7" B L 5250 6450 60 
F44 "GPIO_8" B L 5250 6550 60 
F45 "KB_C2" B L 5250 3150 60 
F46 "WAKEUP" B L 5250 1450 60 
F47 "GPIO_1" B L 5250 5850 60 
F48 "GPIO_0" B L 5250 5750 60 
$EndSheet
$Sheet
S 1400 1200 1350 5600
U 560A0C15
F0 "Conector del Poncho" 50
F1 "conector_poncho.sch" 50
F2 "RESET" I R 2750 1250 60 
F3 "ISP" B R 2750 1350 60 
F4 "ADC3" B R 2750 1750 60 
F5 "ADC2" B R 2750 1650 60 
F6 "ADC1" B R 2750 1550 60 
F7 "DAC" B R 2750 1850 60 
F8 "I2C_SDA" B R 2750 2050 60 
F9 "I2C_SCL" B R 2750 2150 60 
F10 "RS_RXD" B R 2750 2350 60 
F11 "RS_TXD" B R 2750 2450 60 
F12 "CAN_RD" B R 2750 2650 60 
F13 "CAN_TD" B R 2750 2750 60 
F14 "KB_C1" B R 2750 3050 60 
F15 "KB_F0" B R 2750 3250 60 
F16 "KB_F3" B R 2750 3550 60 
F17 "KB_F2" B R 2750 3450 60 
F18 "KB_C0" B R 2750 2950 60 
F19 "KB_F1" B R 2750 3350 60 
F20 "RXD0" B R 2750 4150 60 
F21 "RCLK" B R 2750 3750 60 
F22 "SPI_MOSI" B R 2750 4850 60 
F23 "LCD_EN" I R 2750 5500 60 
F24 "GPIO_0" B R 2750 5750 60 
F25 "GPIO_2" B R 2750 5950 60 
F26 "GPIO_4" B R 2750 6150 60 
F27 "GPIO_6" B R 2750 6350 60 
F28 "RXD1" B R 2750 4250 60 
F29 "TXEN" B R 2750 4050 60 
F30 "MDC" B R 2750 4350 60 
F31 "CRS" B R 2750 4450 60 
F32 "MDIO" B R 2750 4550 60 
F33 "TXD0" I R 2750 3850 60 
F34 "TXD1" B R 2750 3950 60 
F35 "SPI_MISO" B R 2750 4950 60 
F36 "SPI_SCK" B R 2750 4750 60 
F37 "LCD_D4" B R 2750 5400 60 
F38 "LCD_RS" B R 2750 5600 60 
F39 "LCD_D3" B R 2750 5300 60 
F40 "LCD_D2" B R 2750 5200 60 
F41 "LCD_D1" B R 2750 5100 60 
F42 "GPIO_1" B R 2750 5850 60 
F43 "GPIO_3" B R 2750 6050 60 
F44 "GPIO_5" B R 2750 6250 60 
F45 "GPIO_7" B R 2750 6450 60 
F46 "GPIO_8" B R 2750 6550 60 
F47 "KB_C2" B R 2750 3150 60 
F48 "WAKEUP" B R 2750 1450 60 
$EndSheet
Text Notes 3800 2000 0    60   Italic 12
I2C
Text Notes 3800 2600 0    60   Italic 12
CAN
Text Notes 3750 2900 0    60   Italic 12
TECLADO
Text Notes 3850 4700 0    60   Italic 12
SPI
Text Notes 3800 5050 0    60   Italic 12
DSIPLAY
Text Notes 3300 5700 0    60   Italic 12
E/S PROPÓSITOS GENERALES
Wire Wire Line
	5250 6550 2750 6550
Wire Wire Line
	2750 6450 5250 6450
Wire Wire Line
	5250 6350 2750 6350
Wire Wire Line
	2750 6250 5250 6250
Wire Wire Line
	5250 6150 2750 6150
Wire Wire Line
	2750 6050 5250 6050
Wire Wire Line
	5250 5950 2750 5950
Wire Wire Line
	5250 5850 2750 5850
Wire Wire Line
	2750 5750 5250 5750
Wire Wire Line
	5250 5600 2750 5600
Wire Wire Line
	2750 5500 5250 5500
Wire Wire Line
	5250 5400 2750 5400
Wire Wire Line
	2750 5300 5250 5300
Wire Wire Line
	5250 5200 2750 5200
Wire Wire Line
	2750 5100 5250 5100
Wire Wire Line
	5250 4950 2750 4950
Wire Wire Line
	2750 4850 5250 4850
Wire Wire Line
	5250 4750 2750 4750
Wire Wire Line
	2750 3550 5250 3550
Wire Wire Line
	5250 3450 2750 3450
Wire Wire Line
	2750 3350 5250 3350
Wire Wire Line
	5250 3250 2750 3250
Wire Wire Line
	2750 3150 5250 3150
Wire Wire Line
	5250 3050 2750 3050
Wire Wire Line
	2750 2950 5250 2950
Wire Wire Line
	5250 2750 2750 2750
Wire Wire Line
	2750 2650 5250 2650
Wire Wire Line
	2750 2150 5250 2150
Wire Wire Line
	5250 2050 2750 2050
$Comp
L Poncho_Esqueleto:Logo_Poncho #G1
U 1 1 560CFFC0
P 10150 6000
F 0 "#G1" H 10100 5600 60  0001 C CNN
F 1 "Logo_Poncho" H 10350 5600 60  0001 C CNN
F 2 "" H 10150 6000 60  0000 C CNN
F 3 "" H 10150 6000 60  0000 C CNN
	1    10150 6000
	1    0    0    -1  
$EndComp
Text Notes 7300 950  0    118  ~ 24
http://www.proyecto-ciaa.com.ar/
Wire Wire Line
	2750 1250 5250 1250
Wire Wire Line
	5250 1350 2750 1350
Wire Wire Line
	2750 1450 5250 1450
Wire Wire Line
	5250 1550 2750 1550
Wire Wire Line
	2750 1650 5250 1650
Wire Wire Line
	5250 1750 2750 1750
Wire Wire Line
	2750 1850 5250 1850
Wire Wire Line
	2750 2350 5250 2350
Wire Wire Line
	5250 2450 2750 2450
Wire Wire Line
	2750 3750 5250 3750
Wire Wire Line
	2750 3850 5250 3850
Wire Wire Line
	5250 3950 2750 3950
Wire Wire Line
	2750 4050 5250 4050
Wire Wire Line
	5250 4150 2750 4150
Wire Wire Line
	2750 4250 5250 4250
Wire Wire Line
	2750 4350 5250 4350
Wire Wire Line
	5250 4450 2750 4450
Wire Wire Line
	2750 4550 5250 4550
$EndSCHEMATC
