EESchema Schematic File Version 4
LIBS:poncho_grande-cache
EELAYER 26 0
EELAYER END
$Descr A4 11693 8268
encoding utf-8
Sheet 2 3
Title "Poncho RFID para la Edu-CIAA"
Date "2018-11-19"
Rev "1.0"
Comp "Proyecto CIAA - COMPUTADORA INDUSTRIAL ABIERTA ARGENTINA"
Comment1 "https://gitlab.com/envido32/educiaa-poncho-rfid"
Comment2 "Autores y Licencia del template (Diego Brengi - UNLaM)"
Comment3 "Autor del poncho (Manuel Cajide Maidana - UTN FRA)"
Comment4 "CÓDIGO PONCHO: Prototipo"
$EndDescr
Text HLabel 2650 3600 1    60   BiDi ~ 0
KB_F2
Text HLabel 1050 2150 0    60   BiDi ~ 0
GPIO_5
Text HLabel 1050 2250 0    60   BiDi ~ 0
GPIO_3
Text HLabel 1050 2650 0    60   BiDi ~ 0
LCD_D4
Text HLabel 1050 2550 0    60   BiDi ~ 0
LCD_RS
Text HLabel 1050 2450 0    60   BiDi ~ 0
LCD_D3
Text HLabel 1050 2350 0    60   BiDi ~ 0
LCD_D2
Text HLabel 1300 5300 0    60   BiDi ~ 0
KB_C1
Text HLabel 1300 4950 0    60   BiDi ~ 0
CAN_TD
Text HLabel 1300 4600 0    60   BiDi ~ 0
CAN_RD
Text HLabel 1300 4250 0    60   BiDi ~ 0
RS_TXD
Text HLabel 2350 3600 1    60   BiDi ~ 0
KB_F3
Text HLabel 2050 3600 1    60   BiDi ~ 0
KB_F0
Text HLabel 5500 7050 0    60   BiDi ~ 0
I2C_SCL
Text HLabel 5500 6950 0    60   BiDi ~ 0
I2C_SDA
$Comp
L power:+5V #PWR?
U 1 1 560DBF3B
P 1050 1050
AR Path="/560DBF3B" Ref="#PWR?"  Part="1" 
AR Path="/560A0C1A/560DBF3B" Ref="#PWR03"  Part="1" 
F 0 "#PWR03" H 1050 1140 20  0001 C CNN
F 1 "+5V" H 1050 1140 30  0000 C CNN
F 2 "" H 1050 1050 60  0000 C CNN
F 3 "" H 1050 1050 60  0000 C CNN
	1    1050 1050
	1    0    0    -1  
$EndComp
$Comp
L power:GND #PWR?
U 1 1 560DE525
P 3100 1700
AR Path="/560DE525" Ref="#PWR?"  Part="1" 
AR Path="/560A0C1A/560DE525" Ref="#PWR04"  Part="1" 
F 0 "#PWR04" H 3100 1700 30  0001 C CNN
F 1 "GND" H 3100 1630 30  0001 C CNN
F 2 "" H 3100 1700 60  0000 C CNN
F 3 "" H 3100 1700 60  0000 C CNN
	1    3100 1700
	1    0    0    -1  
$EndComp
$Comp
L Custom:LCD16X2 DS?
U 1 1 56F31510
P 2350 1100
AR Path="/56F31510" Ref="DS?"  Part="1" 
AR Path="/560A0C1A/56F31510" Ref="DS1"  Part="1" 
F 0 "DS1" H 1550 1500 40  0000 C CNN
F 1 "LCD16X2" H 3050 1500 40  0000 C CNN
F 2 "Display:WC1602A" H 2350 1050 35  0000 C CIN
F 3 "" H 2350 1100 60  0000 C CNN
	1    2350 1100
	1    0    0    -1  
$EndComp
$Comp
L power:+5V #PWR?
U 1 1 56F319A7
P 3650 1000
AR Path="/56F319A7" Ref="#PWR?"  Part="1" 
AR Path="/560A0C1A/56F319A7" Ref="#PWR010"  Part="1" 
F 0 "#PWR010" H 3650 1090 20  0001 C CNN
F 1 "+5V" H 3650 1090 30  0000 C CNN
F 2 "" H 3650 1000 60  0000 C CNN
F 3 "" H 3650 1000 60  0000 C CNN
	1    3650 1000
	1    0    0    -1  
$EndComp
$Comp
L power:GND #PWR?
U 1 1 56F33F91
P 1050 1950
AR Path="/56F33F91" Ref="#PWR?"  Part="1" 
AR Path="/560A0C1A/56F33F91" Ref="#PWR011"  Part="1" 
F 0 "#PWR011" H 1050 1950 30  0001 C CNN
F 1 "GND" H 1050 1880 30  0001 C CNN
F 2 "" H 1050 1950 60  0000 C CNN
F 3 "" H 1050 1950 60  0000 C CNN
	1    1050 1950
	1    0    0    -1  
$EndComp
Wire Wire Line
	3650 1850 3000 1850
Wire Wire Line
	3000 1850 3000 1600
Wire Wire Line
	1050 1150 1400 1150
Wire Wire Line
	1400 1150 1400 1700
Wire Wire Line
	1400 1700 1700 1700
Wire Wire Line
	1700 1700 1700 1600
Wire Wire Line
	1200 1500 1300 1500
Wire Wire Line
	1300 1500 1300 1800
Wire Wire Line
	1300 1800 1800 1800
Wire Wire Line
	1800 1800 1800 1600
Wire Wire Line
	1600 1600 1600 1900
Wire Wire Line
	1050 1900 1600 1900
Connection ~ 1050 1900
Wire Wire Line
	2000 1900 2000 1600
Connection ~ 1600 1900
Wire Wire Line
	2200 1900 2200 1600
Connection ~ 2000 1900
Wire Wire Line
	2300 1900 2300 1600
Connection ~ 2200 1900
Wire Wire Line
	2400 1900 2400 1600
Connection ~ 2300 1900
Wire Wire Line
	2500 1900 2500 1600
Connection ~ 2400 1900
$Comp
L power:+3.3V #PWR?
U 1 1 56F4CFF1
P 5450 6450
AR Path="/56F4CFF1" Ref="#PWR?"  Part="1" 
AR Path="/560A0C1A/56F4CFF1" Ref="#PWR019"  Part="1" 
F 0 "#PWR019" H 5500 6480 20  0001 C CNN
F 1 "+3.3V" H 5450 6540 30  0000 C CNN
F 2 "" H 5450 6450 60  0000 C CNN
F 3 "" H 5450 6450 60  0000 C CNN
	1    5450 6450
	1    0    0    -1  
$EndComp
$Comp
L power:+5V #PWR?
U 1 1 56F4CFF9
P 5600 6450
AR Path="/56F4CFF9" Ref="#PWR?"  Part="1" 
AR Path="/560A0C1A/56F4CFF9" Ref="#PWR020"  Part="1" 
F 0 "#PWR020" H 5600 6540 20  0001 C CNN
F 1 "+5V" H 5600 6540 30  0000 C CNN
F 2 "" H 5600 6450 60  0000 C CNN
F 3 "" H 5600 6450 60  0000 C CNN
	1    5600 6450
	1    0    0    -1  
$EndComp
Wire Wire Line
	5500 6950 5700 6950
Wire Wire Line
	5500 7050 5700 7050
$Comp
L power:GND #PWR?
U 1 1 56F4D988
P 5450 7300
AR Path="/56F4D988" Ref="#PWR?"  Part="1" 
AR Path="/560A0C1A/56F4D988" Ref="#PWR021"  Part="1" 
F 0 "#PWR021" H 5450 7300 30  0001 C CNN
F 1 "GND" H 5450 7230 30  0001 C CNN
F 2 "" H 5450 7300 60  0000 C CNN
F 3 "" H 5450 7300 60  0000 C CNN
	1    5450 7300
	1    0    0    -1  
$EndComp
Wire Wire Line
	1300 4250 1400 4250
Wire Wire Line
	1300 4600 1400 4600
Wire Wire Line
	1300 4950 1400 4950
Wire Wire Line
	1300 5300 1400 5300
Wire Wire Line
	2050 3600 2050 3650
Wire Wire Line
	1050 1900 1050 1950
Wire Wire Line
	1600 1900 2000 1900
Wire Wire Line
	2000 1900 2200 1900
Wire Wire Line
	2200 1900 2300 1900
Wire Wire Line
	2300 1900 2400 1900
Wire Wire Line
	2400 1900 2500 1900
$Comp
L Connector_Generic:Conn_01x05 I2C1
U 1 1 5BE6322E
P 5900 6950
F 0 "I2C1" H 5800 7300 50  0000 L CNN
F 1 "Conn_01x05" H 5650 6650 50  0000 L CNN
F 2 "Connector_PinHeader_2.54mm:PinHeader_1x05_P2.54mm_Vertical" H 5900 6950 50  0001 C CNN
F 3 "~" H 5900 6950 50  0001 C CNN
	1    5900 6950
	1    0    0    -1  
$EndComp
$Comp
L Device:R_POT Con1
U 1 1 5BE52E25
P 1050 1500
F 0 "Con1" H 980 1546 50  0000 R CNN
F 1 "10K" H 980 1455 50  0000 R CNN
F 2 "Potentiometer_THT:Potentiometer_Bourns_3296W_Vertical" H 1050 1500 50  0001 C CNN
F 3 "" H 1050 1500 50  0001 C CNN
	1    1050 1500
	1    0    0    -1  
$EndComp
Wire Wire Line
	1050 1050 1050 1150
Wire Wire Line
	1050 1650 1050 1900
Text HLabel 1350 7000 0    60   BiDi ~ 0
SPI_SCK
Text HLabel 1350 7200 0    60   BiDi ~ 0
SPI_MISO
Text HLabel 1350 6800 0    60   BiDi ~ 0
SPI_MOSI
NoConn ~ 1550 6600
NoConn ~ 1550 7300
Wire Wire Line
	1550 7100 800  7100
Wire Wire Line
	1550 6900 800  6900
Text HLabel 1350 6700 0    60   BiDi ~ 0
GPIO_0
$Comp
L power:GND #PWR0101
U 1 1 5BE87487
P 800 7400
F 0 "#PWR0101" H 800 7150 50  0001 C CNN
F 1 "GND" H 805 7227 50  0000 C CNN
F 2 "" H 800 7400 50  0001 C CNN
F 3 "" H 800 7400 50  0001 C CNN
	1    800  7400
	1    0    0    -1  
$EndComp
$Comp
L power:+3.3V #PWR0102
U 1 1 5BE87685
P 800 6400
F 0 "#PWR0102" H 800 6250 50  0001 C CNN
F 1 "+3.3V" H 815 6573 50  0000 C CNN
F 2 "" H 800 6400 50  0001 C CNN
F 3 "" H 800 6400 50  0001 C CNN
	1    800  6400
	1    0    0    -1  
$EndComp
$Comp
L power:GND #PWR0103
U 1 1 5BE878E8
P 3250 7550
F 0 "#PWR0103" H 3250 7300 50  0001 C CNN
F 1 "GND" H 3255 7377 50  0000 C CNN
F 2 "" H 3250 7550 50  0001 C CNN
F 3 "" H 3250 7550 50  0001 C CNN
	1    3250 7550
	1    0    0    -1  
$EndComp
$Comp
L Connector_Generic:Conn_02x07_Odd_Even SPI1
U 1 1 5BE87D04
P 4550 7050
F 0 "SPI1" H 4600 7567 50  0000 C CNN
F 1 "Conn_02x07" H 4600 7476 50  0000 C CNN
F 2 "Connector_PinHeader_2.54mm:PinHeader_2x07_P2.54mm_Horizontal" H 4550 7050 50  0001 C CNN
F 3 "~" H 4550 7050 50  0001 C CNN
	1    4550 7050
	1    0    0    1   
$EndComp
Text HLabel 4200 6750 0    60   BiDi ~ 0
GPIO_0
Text HLabel 4200 6850 0    60   BiDi ~ 0
SPI_MOSI
Text HLabel 4200 7150 0    60   BiDi ~ 0
SPI_SCK
Text HLabel 4200 7350 0    60   BiDi ~ 0
SPI_MISO
$Comp
L power:+3.3V #PWR0104
U 1 1 5BEABA61
P 3550 6550
F 0 "#PWR0104" H 3550 6400 50  0001 C CNN
F 1 "+3.3V" H 3565 6723 50  0000 C CNN
F 2 "" H 3550 6550 50  0001 C CNN
F 3 "" H 3550 6550 50  0001 C CNN
	1    3550 6550
	1    0    0    -1  
$EndComp
$Comp
L power:GND #PWR0105
U 1 1 5BEABA7C
P 3650 7550
F 0 "#PWR0105" H 3650 7300 50  0001 C CNN
F 1 "GND" H 3655 7377 50  0000 C CNN
F 2 "" H 3650 7550 50  0001 C CNN
F 3 "" H 3650 7550 50  0001 C CNN
	1    3650 7550
	1    0    0    -1  
$EndComp
Connection ~ 1050 1150
Wire Wire Line
	1050 1150 1050 1350
Wire Wire Line
	800  7100 800  7400
Wire Wire Line
	1550 7000 1350 7000
Wire Wire Line
	1350 7200 1550 7200
Wire Wire Line
	3650 6950 3650 7550
Wire Wire Line
	3550 7050 3550 6550
Wire Wire Line
	3550 7250 3550 7050
Connection ~ 3550 7050
$Comp
L Device:Antenna_Loop AE1
U 1 1 5BE5C11A
P 10750 5550
F 0 "AE1" H 10750 5850 50  0000 L CNN
F 1 "Antenna_NFC" H 10600 5750 50  0000 L CNN
F 2 "TinkerForge:NFC_ANTENNA_40_40" H 10750 5550 50  0001 C CNN
F 3 "~" H 10750 5550 50  0001 C CNN
	1    10750 5550
	0    1    1    0   
$EndComp
$Comp
L Custom:Keypad_-_4x4 KP-P1
U 1 1 5BE6E38D
P 2350 4750
F 0 "KP-P1" H 2250 3650 60  0000 L CNN
F 1 "Keypad_-_4x4" H 2100 3800 60  0000 L CNN
F 2 "Connector_PinHeader_2.54mm:PinHeader_1x08_P2.54mm_Vertical" H 750 3950 60  0000 L CNN
F 3 "" H 2600 4750 60  0000 C CNN
	1    2350 4750
	1    0    0    -1  
$EndComp
Wire Wire Line
	2650 3650 2650 3600
Wire Wire Line
	2350 3650 2350 3600
Wire Wire Line
	2950 3650 2950 3600
Text HLabel 2950 3600 1    60   BiDi ~ 0
KB_C0
Wire Wire Line
	4950 1500 5150 1500
Wire Wire Line
	1050 2150 1900 2150
Wire Wire Line
	1900 1600 1900 2150
Wire Wire Line
	1050 2250 2100 2250
Wire Wire Line
	2100 1600 2100 2250
Wire Wire Line
	1050 2350 2600 2350
Wire Wire Line
	2600 1600 2600 2350
Wire Wire Line
	1050 2450 2700 2450
Wire Wire Line
	2700 1600 2700 2450
Wire Wire Line
	1050 2550 2800 2550
Wire Wire Line
	2800 1600 2800 2550
Wire Wire Line
	1050 2650 2900 2650
Wire Wire Line
	2900 1600 2900 2650
Wire Wire Line
	3100 1700 3100 1600
$Comp
L power:GND #PWR0109
U 1 1 5BE827D0
P 10050 5600
F 0 "#PWR0109" H 10050 5350 50  0001 C CNN
F 1 "GND" H 10055 5427 50  0000 C CNN
F 2 "" H 10050 5600 50  0001 C CNN
F 3 "" H 10050 5600 50  0001 C CNN
	1    10050 5600
	0    -1   -1   0   
$EndComp
$Comp
L TinkerForge:PN7150 U1
U 1 1 5BE94369
P 8700 2350
F 0 "U1" H 8700 2300 60  0000 C CNN
F 1 "PN7150" H 8700 2450 60  0000 C CNN
F 2 "TinkerForge:HVQFN40-6x6" H 8700 2300 60  0001 C CNN
F 3 "" H 8700 2300 60  0001 C CNN
	1    8700 2350
	1    0    0    -1  
$EndComp
$Comp
L power:+3.3V #PWR?
U 1 1 5BEA1284
P 7500 3250
AR Path="/5BEA1284" Ref="#PWR?"  Part="1" 
AR Path="/560A0C1A/5BEA1284" Ref="#PWR0110"  Part="1" 
F 0 "#PWR0110" H 7550 3280 20  0001 C CNN
F 1 "+3.3V" H 7500 3340 30  0000 C CNN
F 2 "" H 7500 3250 60  0000 C CNN
F 3 "" H 7500 3250 60  0000 C CNN
	1    7500 3250
	1    0    0    -1  
$EndComp
$Comp
L power:+5V #PWR?
U 1 1 5BEA12B7
P 7300 3250
AR Path="/5BEA12B7" Ref="#PWR?"  Part="1" 
AR Path="/560A0C1A/5BEA12B7" Ref="#PWR0111"  Part="1" 
F 0 "#PWR0111" H 7300 3340 20  0001 C CNN
F 1 "+5V" H 7300 3340 30  0000 C CNN
F 2 "" H 7300 3250 60  0000 C CNN
F 3 "" H 7300 3250 60  0000 C CNN
	1    7300 3250
	1    0    0    -1  
$EndComp
$Comp
L power:GND #PWR?
U 1 1 5BEA268B
P 6550 2800
AR Path="/5BEA268B" Ref="#PWR?"  Part="1" 
AR Path="/560A0C1A/5BEA268B" Ref="#PWR0112"  Part="1" 
F 0 "#PWR0112" H 6550 2800 30  0001 C CNN
F 1 "GND" H 6550 2730 30  0001 C CNN
F 2 "" H 6550 2800 60  0000 C CNN
F 3 "" H 6550 2800 60  0000 C CNN
	1    6550 2800
	1    0    0    -1  
$EndComp
Text HLabel 7550 2650 0    60   BiDi ~ 0
I2C_SDA
Text HLabel 7550 2550 0    60   BiDi ~ 0
I2C_SCL
Text HLabel 7550 2750 0    60   BiDi ~ 0
LCD_EN
$Comp
L power:GND #PWR?
U 1 1 5BEC452D
P 8750 3900
AR Path="/5BEC452D" Ref="#PWR?"  Part="1" 
AR Path="/560A0C1A/5BEC452D" Ref="#PWR0113"  Part="1" 
F 0 "#PWR0113" H 8750 3900 30  0001 C CNN
F 1 "GND" H 8750 3830 30  0001 C CNN
F 2 "" H 8750 3900 60  0000 C CNN
F 3 "" H 8750 3900 60  0000 C CNN
	1    8750 3900
	1    0    0    -1  
$EndComp
NoConn ~ 9150 1600
NoConn ~ 9050 1600
NoConn ~ 8450 1600
NoConn ~ 8250 1600
NoConn ~ 9650 2650
NoConn ~ 9650 2150
Wire Wire Line
	6400 2750 6550 2750
Connection ~ 6550 2750
Wire Wire Line
	6550 2750 6700 2750
Wire Wire Line
	7750 2050 6700 2050
Wire Wire Line
	6400 1950 7750 1950
Wire Wire Line
	8650 3200 8650 3350
Wire Wire Line
	8650 3350 8750 3350
Wire Wire Line
	8850 3350 8850 3200
Wire Wire Line
	8750 3200 8750 3350
Connection ~ 8750 3350
Wire Wire Line
	8750 3350 8850 3350
Wire Wire Line
	9650 2750 9850 2750
Wire Wire Line
	10550 5550 10450 5550
Wire Wire Line
	10450 5550 10450 5500
Wire Wire Line
	10450 5700 10450 5650
Wire Wire Line
	10450 5650 10550 5650
$Comp
L Device:C_Small C1
U 1 1 5BF5D898
P 6400 2600
F 0 "C1" H 6492 2646 50  0000 L CNN
F 1 "10pF" H 6492 2555 50  0000 L CNN
F 2 "Capacitor_THT:C_Disc_D4.3mm_W1.9mm_P5.00mm" H 6400 2600 50  0001 C CNN
F 3 "~" H 6400 2600 50  0001 C CNN
	1    6400 2600
	1    0    0    -1  
$EndComp
$Comp
L Device:C_Small C2
U 1 1 5BF5D90E
P 6700 2600
F 0 "C2" H 6792 2646 50  0000 L CNN
F 1 "10pF" H 6792 2555 50  0000 L CNN
F 2 "Capacitor_THT:C_Disc_D4.3mm_W1.9mm_P5.00mm" H 6700 2600 50  0001 C CNN
F 3 "~" H 6700 2600 50  0001 C CNN
	1    6700 2600
	1    0    0    -1  
$EndComp
$Comp
L Device:Crystal_Small XTAL1
U 1 1 5BF5DA77
P 6550 2350
F 0 "XTAL1" H 6550 2575 50  0000 C CNN
F 1 "27.12Mhz" H 6550 2484 50  0000 C CNN
F 2 "Crystal:Crystal_HC49-4H_Vertical" H 6550 2350 50  0001 C CNN
F 3 "~" H 6550 2350 50  0001 C CNN
	1    6550 2350
	1    0    0    -1  
$EndComp
Wire Wire Line
	7550 2550 7750 2550
Wire Wire Line
	7750 2650 7550 2650
Wire Wire Line
	7550 2750 7750 2750
Wire Wire Line
	6700 2050 6700 2350
Wire Wire Line
	6400 1950 6400 2350
Wire Wire Line
	6450 2350 6400 2350
Connection ~ 6400 2350
Wire Wire Line
	6400 2350 6400 2500
Wire Wire Line
	6650 2350 6700 2350
Connection ~ 6700 2350
Wire Wire Line
	6700 2350 6700 2500
Wire Wire Line
	6700 2700 6700 2750
Wire Wire Line
	6400 2700 6400 2750
$Comp
L Device:C_Small C7
U 1 1 5BF8F81F
P 9850 3150
F 0 "C7" H 9942 3196 50  0000 L CNN
F 1 "100nF" H 9942 3105 50  0000 L CNN
F 2 "Capacitor_THT:C_Disc_D4.3mm_W1.9mm_P5.00mm" H 9850 3150 50  0001 C CNN
F 3 "~" H 9850 3150 50  0001 C CNN
	1    9850 3150
	1    0    0    -1  
$EndComp
$Comp
L Device:C_Small C8
U 1 1 5BF8F8A9
P 10250 3150
F 0 "C8" H 10342 3196 50  0000 L CNN
F 1 "1uF" H 10342 3105 50  0000 L CNN
F 2 "Capacitor_THT:C_Disc_D4.3mm_W1.9mm_P5.00mm" H 10250 3150 50  0001 C CNN
F 3 "~" H 10250 3150 50  0001 C CNN
	1    10250 3150
	1    0    0    -1  
$EndComp
$Comp
L Device:C_Small C6
U 1 1 5BFA78DE
P 8750 3500
F 0 "C6" H 8842 3546 50  0000 L CNN
F 1 "1uF" H 8842 3455 50  0000 L CNN
F 2 "Capacitor_THT:C_Disc_D4.3mm_W1.9mm_P5.00mm" H 8750 3500 50  0001 C CNN
F 3 "~" H 8750 3500 50  0001 C CNN
	1    8750 3500
	1    0    0    -1  
$EndComp
$Comp
L Device:C_Small C3
U 1 1 5BFA7C44
P 8250 3650
F 0 "C3" H 8342 3696 50  0000 L CNN
F 1 "1uF" H 8342 3605 50  0000 L CNN
F 2 "Capacitor_THT:C_Disc_D4.3mm_W1.9mm_P5.00mm" H 8250 3650 50  0001 C CNN
F 3 "~" H 8250 3650 50  0001 C CNN
	1    8250 3650
	1    0    0    -1  
$EndComp
Wire Wire Line
	8750 3400 8750 3350
Text HLabel 9800 2250 2    60   BiDi ~ 0
RXP
Text HLabel 9800 2350 2    60   BiDi ~ 0
TX1
Text HLabel 9800 2450 2    60   BiDi ~ 0
TX2
Text HLabel 9800 2550 2    60   BiDi ~ 0
RXN
Wire Wire Line
	9850 3050 9850 2750
$Comp
L Device:C_Small C5
U 1 1 5C00FFAB
P 8550 3650
F 0 "C5" H 8642 3696 50  0000 L CNN
F 1 "100nF" H 8642 3605 50  0000 L CNN
F 2 "Capacitor_THT:C_Disc_D4.3mm_W1.9mm_P5.00mm" H 8550 3650 50  0001 C CNN
F 3 "~" H 8550 3650 50  0001 C CNN
	1    8550 3650
	1    0    0    -1  
$EndComp
Wire Wire Line
	8750 3900 8750 3850
Wire Wire Line
	8750 3850 8950 3850
Wire Wire Line
	9850 3250 9850 3850
Connection ~ 9850 3850
Wire Wire Line
	8250 3850 8350 3850
Connection ~ 8750 3850
Wire Wire Line
	8750 3600 8750 3850
Wire Wire Line
	8550 3750 8550 3850
Connection ~ 8550 3850
Wire Wire Line
	8550 3850 8750 3850
$Comp
L Device:C_Small C4
U 1 1 5C0371BB
P 8350 3500
F 0 "C4" H 8442 3546 50  0000 L CNN
F 1 "4.7uF" H 8442 3455 50  0000 L CNN
F 2 "Capacitor_THT:C_Disc_D4.3mm_W1.9mm_P5.00mm" H 8350 3500 50  0001 C CNN
F 3 "~" H 8350 3500 50  0001 C CNN
	1    8350 3500
	1    0    0    -1  
$EndComp
Wire Wire Line
	8250 3750 8250 3850
Wire Wire Line
	8350 3600 8350 3850
Connection ~ 8350 3850
Wire Wire Line
	8350 3850 8550 3850
Wire Wire Line
	8950 3200 8950 3850
Connection ~ 8950 3850
Wire Wire Line
	8950 3850 9050 3850
Wire Wire Line
	9050 3200 9050 3850
Connection ~ 9050 3850
Wire Wire Line
	9050 3850 9150 3850
Wire Wire Line
	9150 3200 9150 3850
Connection ~ 9150 3850
NoConn ~ 7750 2250
Wire Wire Line
	9650 2850 9700 2850
Wire Wire Line
	9700 2850 9700 3850
Connection ~ 9700 3850
Wire Wire Line
	9700 3850 9850 3850
Connection ~ 6700 2750
Wire Wire Line
	7750 2150 7000 2150
Wire Wire Line
	7000 2750 7000 2450
Wire Wire Line
	6700 2750 7000 2750
Wire Wire Line
	7750 2350 7000 2350
Connection ~ 7000 2350
Wire Wire Line
	7000 2350 7000 2150
Connection ~ 7000 2450
Wire Wire Line
	7000 2450 7000 2350
Wire Wire Line
	7000 2450 7750 2450
Wire Wire Line
	8450 3200 8450 3350
Wire Wire Line
	6400 2750 6250 2750
Wire Wire Line
	6250 2750 6250 1850
Wire Wire Line
	6250 1850 7750 1850
Connection ~ 6400 2750
Wire Wire Line
	6550 2800 6550 2750
Wire Wire Line
	8550 3350 8550 3200
Wire Wire Line
	8550 3550 8550 3350
Connection ~ 8550 3350
Wire Wire Line
	8550 3350 8450 3350
Wire Wire Line
	8350 3350 8350 3400
Wire Wire Line
	8350 3200 8350 3350
Connection ~ 8350 3350
Connection ~ 8450 3350
Wire Wire Line
	8450 3350 8350 3350
Text HLabel 5450 5450 0    60   BiDi ~ 0
RXP
Text HLabel 5450 5550 0    60   BiDi ~ 0
TX1
Text HLabel 5450 5650 0    60   BiDi ~ 0
TX2
Text HLabel 5450 5750 0    60   BiDi ~ 0
RXN
$Comp
L Device:C_Small C9
U 1 1 5C179A2F
P 7600 5000
F 0 "C9" V 7371 5000 50  0000 C CNN
F 1 "1nF" V 7462 5000 50  0000 C CNN
F 2 "Capacitor_THT:C_Disc_D4.3mm_W1.9mm_P5.00mm" H 7600 5000 50  0001 C CNN
F 3 "~" H 7600 5000 50  0001 C CNN
	1    7600 5000
	0    1    1    0   
$EndComp
$Comp
L Device:C_Small C11
U 1 1 5C179B69
P 8000 5450
F 0 "C11" H 8092 5496 50  0000 L CNN
F 1 "680pF" H 8092 5405 50  0000 L CNN
F 2 "Capacitor_THT:C_Disc_D4.3mm_W1.9mm_P5.00mm" H 8000 5450 50  0001 C CNN
F 3 "~" H 8000 5450 50  0001 C CNN
	1    8000 5450
	1    0    0    -1  
$EndComp
$Comp
L Device:C_Small C15
U 1 1 5C179C8F
P 8750 5450
F 0 "C15" H 8842 5496 50  0000 L CNN
F 1 "120pF" H 8842 5405 50  0000 L CNN
F 2 "Capacitor_THT:C_Disc_D4.3mm_W1.9mm_P5.00mm" H 8750 5450 50  0001 C CNN
F 3 "~" H 8750 5450 50  0001 C CNN
	1    8750 5450
	1    0    0    -1  
$EndComp
$Comp
L Device:L_Small L1
U 1 1 5C17A2E3
P 7600 5300
F 0 "L1" V 7785 5300 50  0000 C CNN
F 1 "160mH" V 7694 5300 50  0000 C CNN
F 2 "Inductor_THT:L_Axial_L5.3mm_D2.2mm_P7.62mm_Horizontal_Vishay_IM-1" H 7600 5300 50  0001 C CNN
F 3 "~" H 7600 5300 50  0001 C CNN
	1    7600 5300
	0    -1   -1   0   
$EndComp
$Comp
L Device:L_Small L2
U 1 1 5C17A4A8
P 7600 5900
F 0 "L2" V 7785 5900 50  0000 C CNN
F 1 "160mH" V 7694 5900 50  0000 C CNN
F 2 "Inductor_THT:L_Axial_L5.3mm_D2.2mm_P7.62mm_Horizontal_Vishay_IM-1" H 7600 5900 50  0001 C CNN
F 3 "~" H 7600 5900 50  0001 C CNN
	1    7600 5900
	0    -1   -1   0   
$EndComp
$Comp
L Device:C_Small C10
U 1 1 5C17A520
P 7600 6200
F 0 "C10" V 7371 6200 50  0000 C CNN
F 1 "1nF" V 7462 6200 50  0000 C CNN
F 2 "Capacitor_THT:C_Disc_D4.3mm_W1.9mm_P5.00mm" H 7600 6200 50  0001 C CNN
F 3 "~" H 7600 6200 50  0001 C CNN
	1    7600 6200
	0    1    1    0   
$EndComp
$Comp
L Device:R_Small_US R1
U 1 1 5C194090
P 8000 5150
F 0 "R1" H 8068 5196 50  0000 L CNN
F 1 "2.2K" H 8068 5105 50  0000 L CNN
F 2 "Resistor_THT:R_Axial_DIN0204_L3.6mm_D1.6mm_P7.62mm_Horizontal" H 8000 5150 50  0001 C CNN
F 3 "~" H 8000 5150 50  0001 C CNN
	1    8000 5150
	1    0    0    -1  
$EndComp
$Comp
L Device:R_Small_US R3
U 1 1 5C194255
P 8000 6050
F 0 "R3" H 8068 6096 50  0000 L CNN
F 1 "2.2K" H 8068 6005 50  0000 L CNN
F 2 "Resistor_THT:R_Axial_DIN0204_L3.6mm_D1.6mm_P7.62mm_Horizontal" H 8000 6050 50  0001 C CNN
F 3 "~" H 8000 6050 50  0001 C CNN
	1    8000 6050
	1    0    0    -1  
$EndComp
Wire Wire Line
	7700 5000 8000 5000
Wire Wire Line
	8000 5000 8000 5050
Wire Wire Line
	8000 5250 8000 5300
Wire Wire Line
	7700 6200 8000 6200
Wire Wire Line
	8000 6200 8000 6150
Wire Wire Line
	7700 5900 8000 5900
Wire Wire Line
	8000 5900 8000 5950
Wire Wire Line
	7700 5300 8000 5300
$Comp
L Device:C_Small C12
U 1 1 5C1EEBC7
P 8000 5750
F 0 "C12" H 8092 5796 50  0000 L CNN
F 1 "680pF" H 8092 5705 50  0000 L CNN
F 2 "Capacitor_THT:C_Disc_D4.3mm_W1.9mm_P5.00mm" H 8000 5750 50  0001 C CNN
F 3 "~" H 8000 5750 50  0001 C CNN
	1    8000 5750
	1    0    0    -1  
$EndComp
Wire Wire Line
	8000 5650 8000 5600
Wire Wire Line
	8000 5350 8000 5300
Connection ~ 8000 5300
Wire Wire Line
	8000 5850 8000 5900
Connection ~ 8000 5900
$Comp
L Device:C_Small C16
U 1 1 5C2162E6
P 8750 5750
F 0 "C16" H 8842 5796 50  0000 L CNN
F 1 "120pF" H 8842 5705 50  0000 L CNN
F 2 "Capacitor_THT:C_Disc_D4.3mm_W1.9mm_P5.00mm" H 8750 5750 50  0001 C CNN
F 3 "~" H 8750 5750 50  0001 C CNN
	1    8750 5750
	1    0    0    -1  
$EndComp
$Comp
L Device:C_Small C13
U 1 1 5C216386
P 8500 5300
F 0 "C13" V 8271 5300 50  0000 C CNN
F 1 "82pF" V 8362 5300 50  0000 C CNN
F 2 "Capacitor_THT:C_Disc_D4.3mm_W1.9mm_P5.00mm" H 8500 5300 50  0001 C CNN
F 3 "~" H 8500 5300 50  0001 C CNN
	1    8500 5300
	0    1    1    0   
$EndComp
$Comp
L Device:C_Small C14
U 1 1 5C2165B3
P 8500 5900
F 0 "C14" V 8271 5900 50  0000 C CNN
F 1 "82pF" V 8362 5900 50  0000 C CNN
F 2 "Capacitor_THT:C_Disc_D4.3mm_W1.9mm_P5.00mm" H 8500 5900 50  0001 C CNN
F 3 "~" H 8500 5900 50  0001 C CNN
	1    8500 5900
	0    1    1    0   
$EndComp
Wire Wire Line
	8000 5300 8400 5300
Wire Wire Line
	8600 5300 8750 5300
Wire Wire Line
	8750 5300 8750 5350
Wire Wire Line
	8750 5550 8750 5600
Wire Wire Line
	8750 5900 8750 5850
Wire Wire Line
	8600 5900 8750 5900
Wire Wire Line
	8400 5900 8000 5900
$Comp
L Device:R_Small_US R5
U 1 1 5C25E85F
P 8500 6200
F 0 "R5" V 8295 6200 50  0000 C CNN
F 1 "NC" V 8386 6200 50  0000 C CNN
F 2 "Resistor_THT:R_Axial_DIN0204_L3.6mm_D1.6mm_P7.62mm_Horizontal" H 8500 6200 50  0001 C CNN
F 3 "~" H 8500 6200 50  0001 C CNN
	1    8500 6200
	0    1    1    0   
$EndComp
$Comp
L Device:R_Small_US R4
U 1 1 5C25EA08
P 8500 5000
F 0 "R4" V 8295 5000 50  0000 C CNN
F 1 "NC" V 8386 5000 50  0000 C CNN
F 2 "Resistor_THT:R_Axial_DIN0204_L3.6mm_D1.6mm_P7.62mm_Horizontal" H 8500 5000 50  0001 C CNN
F 3 "~" H 8500 5000 50  0001 C CNN
	1    8500 5000
	0    1    1    0   
$EndComp
Wire Wire Line
	8750 5300 8750 5000
Wire Wire Line
	8750 5000 8600 5000
Connection ~ 8750 5300
Wire Wire Line
	8400 5000 8000 5000
Connection ~ 8000 5000
Wire Wire Line
	8000 5600 8750 5600
Connection ~ 8000 5600
Wire Wire Line
	8000 5600 8000 5550
Connection ~ 8750 5600
Wire Wire Line
	8750 5600 8750 5650
Wire Wire Line
	8000 6200 8400 6200
Connection ~ 8000 6200
Wire Wire Line
	8600 6200 8750 6200
Wire Wire Line
	8750 6200 8750 5900
Connection ~ 8750 5900
$Comp
L power:GND #PWR0114
U 1 1 5C2D3425
P 9150 5700
F 0 "#PWR0114" H 9150 5450 50  0001 C CNN
F 1 "GND" H 9155 5527 50  0000 C CNN
F 2 "" H 9150 5700 50  0001 C CNN
F 3 "" H 9150 5700 50  0001 C CNN
	1    9150 5700
	1    0    0    -1  
$EndComp
Wire Wire Line
	8750 5600 9150 5600
Wire Wire Line
	9150 5600 9150 5700
Wire Wire Line
	5150 1200 4950 1200
$Comp
L Connector_Generic:Conn_02x03_Odd_Even ANT_EXT1
U 1 1 5BEF6B48
P 9550 5600
F 0 "ANT_EXT1" H 9450 5800 50  0000 L CNN
F 1 "Conn_02x03" H 9400 5400 50  0000 L CNN
F 2 "Connector_PinHeader_2.54mm:PinHeader_2x03_P2.54mm_Vertical" H 9550 5600 50  0001 C CNN
F 3 "~" H 9550 5600 50  0001 C CNN
	1    9550 5600
	1    0    0    -1  
$EndComp
Wire Wire Line
	9350 5600 9150 5600
Connection ~ 9150 5600
Wire Wire Line
	9350 5500 9350 5000
Wire Wire Line
	9350 5000 8750 5000
Connection ~ 8750 5000
Wire Wire Line
	8750 6200 9350 6200
Wire Wire Line
	9350 6200 9350 5700
Connection ~ 8750 6200
Wire Wire Line
	8250 3200 8250 3250
Connection ~ 8250 3250
Wire Wire Line
	8250 3250 8250 3550
Wire Wire Line
	7300 3250 7300 3350
Wire Wire Line
	7300 3350 8350 3350
$Comp
L Connector_Generic:Conn_01x06 GPIO1
U 1 1 5BF5AE0A
P 5350 1400
F 0 "GPIO1" H 5250 1700 50  0000 L CNN
F 1 "Conn_01x06" H 5150 1000 50  0000 L CNN
F 2 "Connector_PinHeader_2.54mm:PinHeader_1x06_P2.54mm_Vertical" H 5350 1400 50  0001 C CNN
F 3 "~" H 5350 1400 50  0001 C CNN
	1    5350 1400
	1    0    0    -1  
$EndComp
Text HLabel 4950 1400 0    60   BiDi ~ 0
GPIO_4
Text HLabel 4950 1500 0    60   BiDi ~ 0
GPIO_6
Text HLabel 4950 1600 0    60   BiDi ~ 0
GPIO_8
Text HLabel 4950 1300 0    60   BiDi ~ 0
GPIO_2
Wire Wire Line
	4950 1400 5150 1400
Wire Wire Line
	4950 1300 5150 1300
Wire Wire Line
	4950 1600 5150 1600
Wire Wire Line
	4950 1700 5150 1700
$Comp
L Connector_Generic:Conn_02x04_Odd_Even ANT_EXT2
U 1 1 5C00B456
P 6200 5650
F 0 "ANT_EXT2" H 6100 5850 50  0000 L CNN
F 1 "Conn_02x04" H 6050 5350 50  0000 L CNN
F 2 "Connector_PinHeader_2.54mm:PinHeader_2x04_P2.54mm_Vertical" H 6200 5650 50  0001 C CNN
F 3 "~" H 6200 5650 50  0001 C CNN
	1    6200 5650
	1    0    0    1   
$EndComp
Wire Wire Line
	10250 1950 10250 2050
Wire Wire Line
	10250 2050 10250 3050
Connection ~ 10250 2050
Wire Wire Line
	10250 3850 10250 3250
Wire Wire Line
	7100 5300 7500 5300
Wire Wire Line
	9650 2250 9800 2250
Wire Wire Line
	9650 2450 9800 2450
Wire Wire Line
	9650 2350 9800 2350
Wire Wire Line
	9650 2550 9800 2550
Wire Wire Line
	9650 1950 10250 1950
Wire Wire Line
	9650 2050 10250 2050
Wire Wire Line
	9850 3850 10250 3850
Wire Wire Line
	7500 3250 8250 3250
Text HLabel 7550 2850 0    60   BiDi ~ 0
GPIO_2
Wire Wire Line
	7550 2850 7750 2850
$Comp
L Transistor_BJT:BC547 Q1
U 1 1 5BEA994B
P 4600 4150
F 0 "Q1" H 4791 4196 50  0000 L CNN
F 1 "BC547" H 4791 4105 50  0000 L CNN
F 2 "Package_TO_SOT_THT:TO-92_Inline" H 4800 4075 50  0001 L CIN
F 3 "http://www.fairchildsemi.com/ds/BC/BC547.pdf" H 4600 4150 50  0001 L CNN
	1    4600 4150
	1    0    0    -1  
$EndComp
Text HLabel 3950 4150 0    60   BiDi ~ 0
GPIO_7
$Comp
L Device:R_Small_US R6
U 1 1 5BEAAEA5
P 4150 4150
F 0 "R6" V 3945 4150 50  0000 C CNN
F 1 "1K" V 4036 4150 50  0000 C CNN
F 2 "Resistor_THT:R_Axial_DIN0204_L3.6mm_D1.6mm_P7.62mm_Horizontal" H 4150 4150 50  0001 C CNN
F 3 "~" H 4150 4150 50  0001 C CNN
	1    4150 4150
	0    1    1    0   
$EndComp
$Comp
L Device:R_Small_US R7
U 1 1 5BEAAFC5
P 4700 2800
F 0 "R7" V 4495 2800 50  0000 C CNN
F 1 "220" V 4586 2800 50  0000 C CNN
F 2 "Resistor_THT:R_Axial_DIN0204_L3.6mm_D1.6mm_P7.62mm_Horizontal" H 4700 2800 50  0001 C CNN
F 3 "~" H 4700 2800 50  0001 C CNN
	1    4700 2800
	-1   0    0    1   
$EndComp
$Comp
L Diode:1N4001 D1
U 1 1 5BEAB349
P 4200 3450
F 0 "D1" V 4154 3529 50  0000 L CNN
F 1 "1N4001" V 4245 3529 50  0000 L CNN
F 2 "Diode_THT:D_DO-41_SOD81_P10.16mm_Horizontal" H 4200 3275 50  0001 C CNN
F 3 "http://www.vishay.com/docs/88503/1n4001.pdf" H 4200 3450 50  0001 C CNN
	1    4200 3450
	0    1    1    0   
$EndComp
Wire Wire Line
	5200 3150 5200 3100
Wire Wire Line
	5200 3100 5550 3100
Wire Wire Line
	5550 3800 5100 3800
Wire Wire Line
	5100 3800 5100 3750
NoConn ~ 5000 3150
Wire Wire Line
	4700 3750 4700 3800
Wire Wire Line
	4700 3800 4200 3800
Wire Wire Line
	4700 4500 4700 4350
Wire Wire Line
	3950 4150 4050 4150
Wire Wire Line
	4250 4150 4400 4150
Wire Wire Line
	4700 3100 4700 3150
Wire Wire Line
	4700 3100 4700 2900
Wire Wire Line
	4700 3800 4700 3950
Connection ~ 4700 3100
Connection ~ 4700 3800
Wire Wire Line
	4200 3300 4200 3100
Wire Wire Line
	4200 3100 4700 3100
Wire Wire Line
	4200 3600 4200 3800
$Comp
L power:+5V #PWR?
U 1 1 5C00A676
P 4700 2550
AR Path="/5C00A676" Ref="#PWR?"  Part="1" 
AR Path="/560A0C1A/5C00A676" Ref="#PWR01"  Part="1" 
F 0 "#PWR01" H 4700 2640 20  0001 C CNN
F 1 "+5V" H 4700 2640 30  0000 C CNN
F 2 "" H 4700 2550 60  0000 C CNN
F 3 "" H 4700 2550 60  0000 C CNN
	1    4700 2550
	1    0    0    -1  
$EndComp
Wire Wire Line
	4700 2700 4700 2550
$Comp
L power:GND #PWR?
U 1 1 5C01AFB8
P 4700 4500
AR Path="/5C01AFB8" Ref="#PWR?"  Part="1" 
AR Path="/560A0C1A/5C01AFB8" Ref="#PWR02"  Part="1" 
F 0 "#PWR02" H 4700 4500 30  0001 C CNN
F 1 "GND" H 4700 4430 30  0001 C CNN
F 2 "" H 4700 4500 60  0000 C CNN
F 3 "" H 4700 4500 60  0000 C CNN
	1    4700 4500
	1    0    0    -1  
$EndComp
$Comp
L Relay:G5LE-1 K1
U 1 1 5C07FCB0
P 4900 3450
F 0 "K1" H 4850 3600 50  0000 L CNN
F 1 "Relay" H 4800 3300 50  0000 L CNN
F 2 "Relay_THT:Relay_SPDT_Omron-G5LE-1" H 5350 3400 50  0001 L CNN
F 3 "http://www.omron.com/ecb/products/pdf/en-g5le.pdf" H 4900 3050 50  0001 C CNN
	1    4900 3450
	1    0    0    -1  
$EndComp
$Comp
L Connector_Generic:Conn_01x02 J1
U 1 1 5C083CF1
P 5750 3500
F 0 "J1" H 5700 3650 50  0000 L CNN
F 1 "Conn_01x02" H 5600 3300 50  0000 L CNN
F 2 "TerminalBlock:TerminalBlock_bornier-2_P5.08mm" H 5750 3500 50  0001 C CNN
F 3 "~" H 5750 3500 50  0001 C CNN
	1    5750 3500
	1    0    0    1   
$EndComp
$Comp
L Connector:Micro_SD_Card J2
U 1 1 5C08505D
P 2450 6900
F 0 "J2" H 2400 7617 50  0000 C CNN
F 1 "Micro_SD_Card" H 2400 7526 50  0000 C CNN
F 2 "Connector_Card:microSD_HC_Hirose_DM3AT-SF-PEJM5" H 3600 7200 50  0001 C CNN
F 3 "http://katalog.we-online.de/em/datasheet/693072010801.pdf" H 2450 6900 50  0001 C CNN
	1    2450 6900
	1    0    0    -1  
$EndComp
Wire Wire Line
	3250 7550 3250 7500
Wire Wire Line
	1350 6700 1550 6700
Wire Wire Line
	1550 6800 1350 6800
Wire Wire Line
	800  6400 800  6900
$Comp
L Device:R_Small_US R2
U 1 1 5C137BCF
P 3650 1350
F 0 "R2" H 3550 1350 50  0000 C CNN
F 1 "100" H 3550 1450 50  0000 C CNN
F 2 "Resistor_THT:R_Axial_DIN0204_L3.6mm_D1.6mm_P7.62mm_Horizontal" H 3650 1350 50  0001 C CNN
F 3 "~" H 3650 1350 50  0001 C CNN
	1    3650 1350
	-1   0    0    1   
$EndComp
Wire Wire Line
	3650 1000 3650 1250
Wire Wire Line
	3650 1450 3650 1850
Wire Wire Line
	5450 5750 6000 5750
Wire Wire Line
	5450 5450 5850 5450
Wire Wire Line
	5850 5450 5850 5650
Wire Wire Line
	5850 5650 6000 5650
Wire Wire Line
	5750 5650 5750 5550
Wire Wire Line
	5750 5550 6000 5550
Wire Wire Line
	5450 5650 5750 5650
Wire Wire Line
	6000 5450 5950 5450
Wire Wire Line
	5950 5450 5950 5350
Wire Wire Line
	6500 5450 6900 5450
Wire Wire Line
	6500 5550 7000 5550
Wire Wire Line
	5650 5550 5650 5350
Wire Wire Line
	5650 5550 5450 5550
Wire Wire Line
	5650 5350 5950 5350
Wire Wire Line
	7000 5000 7500 5000
Wire Wire Line
	9850 5700 10450 5700
Wire Wire Line
	9850 5500 10450 5500
Wire Wire Line
	9850 5600 10050 5600
Text HLabel 4950 1200 0    60   BiDi ~ 0
GPIO_0
Text HLabel 4950 1700 0    60   BiDi ~ 0
GPIO_7
Wire Wire Line
	5550 3500 5550 3800
Wire Wire Line
	4200 7350 4350 7350
Wire Wire Line
	3550 7250 4350 7250
Wire Wire Line
	3550 7050 4350 7050
Wire Wire Line
	3650 6950 4350 6950
Wire Wire Line
	4350 7150 4200 7150
Wire Wire Line
	4350 6850 4200 6850
Wire Wire Line
	4200 6750 4350 6750
Connection ~ 4350 6750
Wire Wire Line
	4350 6750 4850 6750
Wire Wire Line
	4850 6850 4350 6850
Connection ~ 4350 6850
Wire Wire Line
	4850 6950 4350 6950
Connection ~ 4350 6950
Wire Wire Line
	4850 7050 4350 7050
Connection ~ 4350 7050
Wire Wire Line
	4850 7150 4350 7150
Connection ~ 4350 7150
Wire Wire Line
	4850 7250 4350 7250
Connection ~ 4350 7250
Wire Wire Line
	4850 7350 4350 7350
Connection ~ 4350 7350
Wire Wire Line
	5550 3100 5550 3400
Wire Wire Line
	5450 6450 5450 6850
Wire Wire Line
	5450 6850 5700 6850
Wire Wire Line
	5600 6450 5600 6750
Wire Wire Line
	5600 6750 5700 6750
Wire Wire Line
	5450 7300 5450 7150
Wire Wire Line
	5450 7150 5700 7150
Wire Wire Line
	6900 6200 6900 5450
Wire Wire Line
	6900 6200 7500 6200
Wire Wire Line
	7000 5000 7000 5550
Wire Wire Line
	7100 5300 7100 5750
Wire Wire Line
	6500 5750 7100 5750
Wire Wire Line
	7000 5650 7000 5900
Wire Wire Line
	7000 5900 7500 5900
Wire Wire Line
	6500 5650 7000 5650
Connection ~ 9350 3850
Wire Wire Line
	9350 3850 9700 3850
Wire Wire Line
	9150 3850 9700 3850
$EndSCHEMATC
