Drill report for /home/envido32/ciaa-ide/gitlab/educiaa-poncho-rfid/hardware/rfid/poncho_grande.kicad_pcb
Created on Wed 21 Nov 2018 08:30:59 PM -03

Copper Layer Stackup:
    =============================================================
    L1 :  F.Cu                      front
    L2 :  B.Cu                      back


Drill file 'poncho_grande-PTH.drl' contains
    plated through holes:
    =============================================================
    T1  0.35mm  0.014"  (6 holes)
    T2  0.70mm  0.028"  (52 holes)
    T3  0.75mm  0.030"  (3 holes)
    T4  0.80mm  0.031"  (41 holes)
    T5  1.00mm  0.039"  (47 holes)
    T6  1.02mm  0.040"  (80 holes)
    T7  1.10mm  0.043"  (2 holes)
    T8  1.20mm  0.047"  (16 holes)
    T9  1.30mm  0.051"  (5 holes)
    T10  1.52mm  0.060"  (2 holes)

    Total plated holes count 254


Drill file 'poncho_grande-NPTH.drl' contains
    unplated through holes:
    =============================================================

    Total unplated holes count 0
