%!PS-Adobe-3.0
%%Creator: PCBNEW
%%CreationDate: Wed Nov 21 20:30:57 2018
%%Title: /home/envido32/ciaa-ide/gitlab/educiaa-poncho-rfid/hardware/rfid/pdf/poncho_grande-NPTH-drl_map.ps
%%Pages: 1
%%PageOrder: Ascend
%%BoundingBox: 0 0 596 842
%%DocumentMedia: A4 595 842 0 () ()
%%Orientation: Landscape
%%EndComments
%%BeginProlog
/line { newpath moveto lineto stroke } bind def
/cir0 { newpath 0 360 arc stroke } bind def
/cir1 { newpath 0 360 arc gsave fill grestore stroke } bind def
/cir2 { newpath 0 360 arc gsave fill grestore stroke } bind def
/arc0 { newpath arc stroke } bind def
/arc1 { newpath 4 index 4 index moveto arc closepath gsave fill
    grestore stroke } bind def
/arc2 { newpath 4 index 4 index moveto arc closepath gsave fill
    grestore stroke } bind def
/poly0 { stroke } bind def
/poly1 { closepath gsave fill grestore stroke } bind def
/poly2 { closepath gsave fill grestore stroke } bind def
/rect0 { rectstroke } bind def
/rect1 { rectfill } bind def
/rect2 { rectfill } bind def
/linemode0 { 0 setlinecap 0 setlinejoin 0 setlinewidth } bind def
/linemode1 { 1 setlinecap 1 setlinejoin } bind def
/dashedline { [200] 100 setdash } bind def
/solidline { [] 0 setdash } bind def
/phantomshow { moveto
    /KicadFont findfont 0.000001 scalefont setfont
    show } bind def
/textshow { gsave
    findfont exch scalefont setfont concat 1 scale 0 0 moveto show
    } bind def
/reencodefont {
  findfont dup length dict begin
  { 1 index /FID ne
    { def }
    { pop pop } ifelse
  } forall
  /Encoding ISOLatin1Encoding def
  currentdict
  end } bind def
/KicadFont /Helvetica reencodefont definefont pop
/KicadFont-Bold /Helvetica-Bold reencodefont definefont pop
/KicadFont-Oblique /Helvetica-Oblique reencodefont definefont pop
/KicadFont-BoldOblique /Helvetica-BoldOblique reencodefont definefont pop
%%EndProlog
%%Page: 1 1
%%BeginPageSetup
gsave
0.0072 0.0072 scale
linemode1
82680 0 translate 90 rotate
61.629 setlinewidth
%%EndPageSetup
0 0 0 setrgbcolor
72.7901 setlinewidth
newpath
64227.3 78706.6 moveto
34214 78706.6 lineto
stroke
0 0 0 setrgbcolor
newpath
64227.3 78706.6 moveto
82716 78706.6 lineto
stroke
0 0 0 setrgbcolor
newpath
64227.3 37045.4 moveto
82716 37045.4 lineto
stroke
0 0 0 setrgbcolor
newpath
34214 37045.4 moveto
64227.3 37045.4 lineto
stroke
0 0 0 setrgbcolor
newpath
82716 78706.6 moveto
82716 37045.4 lineto
stroke
0 0 0 setrgbcolor
newpath
34214 37045.4 moveto
34214 78706.6 lineto
stroke
78.74 setlinewidth
118.11 setlinewidth
0 0 0 setrgbcolor
0 0 0 setrgbcolor
newpath
35305.3 35175.5 moveto
35305.3 36356.6 lineto
35586.5 36356.6 lineto
35755.2 36300.3 lineto
35867.7 36187.9 lineto
35923.9 36075.4 lineto
35980.2 35850.4 lineto
35980.2 35681.7 lineto
35923.9 35456.7 lineto
35867.7 35344.2 lineto
35755.2 35231.7 lineto
35586.5 35175.5 lineto
35305.3 35175.5 lineto
stroke
newpath
36486.4 35175.5 moveto
36486.4 35962.9 lineto
stroke
newpath
36486.4 35737.9 moveto
36542.6 35850.4 lineto
36598.9 35906.6 lineto
36711.3 35962.9 lineto
36823.8 35962.9 lineto
stroke
newpath
37217.5 35175.5 moveto
37217.5 35962.9 lineto
stroke
newpath
37217.5 36356.6 moveto
37161.3 36300.3 lineto
37217.5 36244.1 lineto
37273.8 36300.3 lineto
37217.5 36356.6 lineto
37217.5 36244.1 lineto
stroke
newpath
37948.7 35175.5 moveto
37836.2 35231.7 lineto
37780 35344.2 lineto
37780 36356.6 lineto
stroke
newpath
38567.4 35175.5 moveto
38454.9 35231.7 lineto
38398.6 35344.2 lineto
38398.6 36356.6 lineto
stroke
newpath
39917.2 35175.5 moveto
39917.2 36356.6 lineto
40310.9 35512.9 lineto
40704.6 36356.6 lineto
40704.6 35175.5 lineto
stroke
newpath
41773.2 35175.5 moveto
41773.2 35794.2 lineto
41717 35906.6 lineto
41604.5 35962.9 lineto
41379.5 35962.9 lineto
41267 35906.6 lineto
stroke
newpath
41773.2 35231.7 moveto
41660.7 35175.5 lineto
41379.5 35175.5 lineto
41267 35231.7 lineto
41210.8 35344.2 lineto
41210.8 35456.7 lineto
41267 35569.2 lineto
41379.5 35625.4 lineto
41660.7 35625.4 lineto
41773.2 35681.7 lineto
stroke
newpath
42335.6 35962.9 moveto
42335.6 34781.8 lineto
stroke
newpath
42335.6 35906.6 moveto
42448.1 35962.9 lineto
42673.1 35962.9 lineto
42785.6 35906.6 lineto
42841.8 35850.4 lineto
42898.1 35737.9 lineto
42898.1 35400.5 lineto
42841.8 35288 lineto
42785.6 35231.7 lineto
42673.1 35175.5 lineto
42448.1 35175.5 lineto
42335.6 35231.7 lineto
stroke
newpath
43404.3 35288 moveto
43460.5 35231.7 lineto
43404.3 35175.5 lineto
43348 35231.7 lineto
43404.3 35288 lineto
43404.3 35175.5 lineto
stroke
newpath
43404.3 35906.6 moveto
43460.5 35850.4 lineto
43404.3 35794.2 lineto
43348 35850.4 lineto
43404.3 35906.6 lineto
43404.3 35794.2 lineto
stroke
showpage
grestore
%%EOF
