<?xml version="1.0" standalone="no"?>
 <!DOCTYPE svg PUBLIC "-//W3C//DTD SVG 1.1//EN" 
 "http://www.w3.org/Graphics/SVG/1.1/DTD/svg11.dtd"> 
<svg xmlns="http://www.w3.org/2000/svg" version="1.1" 
    width="29.7002cm" height="21.0007cm" viewBox="0 0 116930 82680 ">
<title>SVG Picture created as poncho_grande-F.Mask.svg date 2018/11/22 20:51:28 </title>
  <desc>Picture generated by PCBNEW </desc>
<g style="fill:#000000; fill-opacity:1;stroke:#000000; stroke-opacity:1;
stroke-linecap:round; stroke-linejoin:round; "
 transform="translate(0 0) scale(1 1)">
</g>
<g style="fill:#000000; fill-opacity:0.0; 
stroke:#000000; stroke-width:-0.000393701; stroke-opacity:1; 
stroke-linecap:round; stroke-linejoin:round;">
</g>
<g style="fill:#000000; fill-opacity:0.0; 
stroke:#000000; stroke-width:59.0551; stroke-opacity:1; 
stroke-linecap:round; stroke-linejoin:round;">
<path d="M32500 6850
L47500 6850
" />
<path d="M47500 6850
L47500 40650
" />
<path d="M32500 6850
L8150 6850
" />
<path d="M32500 40650
L47500 40650
" />
<path d="M8150 40650
L32500 40650
" />
<path d="M8150 40650
L8150 6850
" />
</g>
<g style="fill:#000000; fill-opacity:1.0; 
stroke:#000000; stroke-width:0; stroke-opacity:1; 
stroke-linecap:round; stroke-linejoin:round;">
<polyline style="fill-rule:evenodd;"
points="9402,38847
9445,38856
9567,38906
9676,38980
9769,39073
9843,39182
9893,39304
9919,39434
9919,39565
9893,39695
9843,39817
9769,39926
9676,40019
9567,40093
9445,40143
9402,40152
9315,40169
9184,40169
9097,40152
9054,40143
8932,40093
8823,40019
8730,39926
8656,39817
8606,39695
8580,39565
8580,39434
8606,39304
8656,39182
8730,39073
8823,38980
8932,38906
9054,38856
9097,38847
9184,38830
9315,38830
9402,38847
" /> 
<polyline style="fill-rule:evenodd;"
points="20574,37033
20645,37054
20711,37089
20769,37137
20816,37194
20851,37260
20873,37332
20878,37387
20878,37612
20873,37667
20851,37739
20816,37805
20769,37862
20711,37910
20645,37945
20620,37952
20611,37956
20603,37961
20596,37968
20591,37976
20587,37985
20585,37995
20585,38004
20587,38014
20591,38023
20596,38031
20603,38038
20611,38043
20620,38047
20645,38054
20711,38089
20769,38137
20816,38194
20851,38260
20873,38332
20878,38387
20878,38612
20873,38667
20851,38739
20816,38805
20769,38862
20711,38910
20645,38945
20574,38966
20500,38974
20425,38966
20354,38945
20288,38910
20230,38862
20183,38805
20148,38739
20126,38667
20121,38612
20121,38387
20126,38332
20148,38260
20183,38194
20230,38137
20288,38089
20354,38054
20379,38047
20388,38043
20396,38038
20403,38031
20408,38023
20412,38014
20414,38004
20414,37995
20412,37985
20408,37976
20403,37968
20396,37961
20388,37956
20379,37952
20354,37945
20288,37910
20230,37862
20183,37805
20148,37739
20126,37667
20121,37612
20121,37387
20126,37332
20148,37260
20183,37194
20230,37137
20288,37089
20354,37054
20425,37033
20500,37025
20574,37033
" /> 
<polyline style="fill-rule:evenodd;"
points="29574,37033
29645,37054
29711,37089
29769,37137
29816,37194
29851,37260
29873,37332
29878,37387
29878,37612
29873,37667
29851,37739
29816,37805
29769,37862
29711,37910
29645,37945
29620,37952
29611,37956
29603,37961
29596,37968
29591,37976
29587,37985
29585,37995
29585,38004
29587,38014
29591,38023
29596,38031
29603,38038
29611,38043
29620,38047
29645,38054
29711,38089
29769,38137
29816,38194
29851,38260
29873,38332
29878,38387
29878,38612
29873,38667
29851,38739
29816,38805
29769,38862
29711,38910
29645,38945
29574,38966
29500,38974
29425,38966
29354,38945
29288,38910
29230,38862
29183,38805
29148,38739
29126,38667
29121,38612
29121,38387
29126,38332
29148,38260
29183,38194
29230,38137
29288,38089
29354,38054
29379,38047
29388,38043
29396,38038
29403,38031
29408,38023
29412,38014
29414,38004
29414,37995
29412,37985
29408,37976
29403,37968
29396,37961
29388,37956
29379,37952
29354,37945
29288,37910
29230,37862
29183,37805
29148,37739
29126,37667
29121,37612
29121,37387
29126,37332
29148,37260
29183,37194
29230,37137
29288,37089
29354,37054
29425,37033
29500,37025
29574,37033
" /> 
<polyline style="fill-rule:evenodd;"
points="28574,37033
28645,37054
28711,37089
28769,37137
28816,37194
28851,37260
28873,37332
28878,37387
28878,37612
28873,37667
28851,37739
28816,37805
28769,37862
28711,37910
28645,37945
28620,37952
28611,37956
28603,37961
28596,37968
28591,37976
28587,37985
28585,37995
28585,38004
28587,38014
28591,38023
28596,38031
28603,38038
28611,38043
28620,38047
28645,38054
28711,38089
28769,38137
28816,38194
28851,38260
28873,38332
28878,38387
28878,38612
28873,38667
28851,38739
28816,38805
28769,38862
28711,38910
28645,38945
28574,38966
28500,38974
28425,38966
28354,38945
28288,38910
28230,38862
28183,38805
28148,38739
28126,38667
28121,38612
28121,38387
28126,38332
28148,38260
28183,38194
28230,38137
28288,38089
28354,38054
28379,38047
28388,38043
28396,38038
28403,38031
28408,38023
28412,38014
28414,38004
28414,37995
28412,37985
28408,37976
28403,37968
28396,37961
28388,37956
28379,37952
28354,37945
28288,37910
28230,37862
28183,37805
28148,37739
28126,37667
28121,37612
28121,37387
28126,37332
28148,37260
28183,37194
28230,37137
28288,37089
28354,37054
28425,37033
28500,37025
28574,37033
" /> 
<polyline style="fill-rule:evenodd;"
points="27574,37033
27645,37054
27711,37089
27769,37137
27816,37194
27851,37260
27873,37332
27878,37387
27878,37612
27873,37667
27851,37739
27816,37805
27769,37862
27711,37910
27645,37945
27620,37952
27611,37956
27603,37961
27596,37968
27591,37976
27587,37985
27585,37995
27585,38004
27587,38014
27591,38023
27596,38031
27603,38038
27611,38043
27620,38047
27645,38054
27711,38089
27769,38137
27816,38194
27851,38260
27873,38332
27878,38387
27878,38612
27873,38667
27851,38739
27816,38805
27769,38862
27711,38910
27645,38945
27574,38966
27500,38974
27425,38966
27354,38945
27288,38910
27230,38862
27183,38805
27148,38739
27126,38667
27121,38612
27121,38387
27126,38332
27148,38260
27183,38194
27230,38137
27288,38089
27354,38054
27379,38047
27388,38043
27396,38038
27403,38031
27408,38023
27412,38014
27414,38004
27414,37995
27412,37985
27408,37976
27403,37968
27396,37961
27388,37956
27379,37952
27354,37945
27288,37910
27230,37862
27183,37805
27148,37739
27126,37667
27121,37612
27121,37387
27126,37332
27148,37260
27183,37194
27230,37137
27288,37089
27354,37054
27425,37033
27500,37025
27574,37033
" /> 
<polyline style="fill-rule:evenodd;"
points="26574,37033
26645,37054
26711,37089
26769,37137
26816,37194
26851,37260
26873,37332
26878,37387
26878,37612
26873,37667
26851,37739
26816,37805
26769,37862
26711,37910
26645,37945
26620,37952
26611,37956
26603,37961
26596,37968
26591,37976
26587,37985
26585,37995
26585,38004
26587,38014
26591,38023
26596,38031
26603,38038
26611,38043
26620,38047
26645,38054
26711,38089
26769,38137
26816,38194
26851,38260
26873,38332
26878,38387
26878,38612
26873,38667
26851,38739
26816,38805
26769,38862
26711,38910
26645,38945
26574,38966
26500,38974
26425,38966
26354,38945
26288,38910
26230,38862
26183,38805
26148,38739
26126,38667
26121,38612
26121,38387
26126,38332
26148,38260
26183,38194
26230,38137
26288,38089
26354,38054
26379,38047
26388,38043
26396,38038
26403,38031
26408,38023
26412,38014
26414,38004
26414,37995
26412,37985
26408,37976
26403,37968
26396,37961
26388,37956
26379,37952
26354,37945
26288,37910
26230,37862
26183,37805
26148,37739
26126,37667
26121,37612
26121,37387
26126,37332
26148,37260
26183,37194
26230,37137
26288,37089
26354,37054
26425,37033
26500,37025
26574,37033
" /> 
<polyline style="fill-rule:evenodd;"
points="25574,37033
25645,37054
25711,37089
25769,37137
25816,37194
25851,37260
25873,37332
25878,37387
25878,37612
25873,37667
25851,37739
25816,37805
25769,37862
25711,37910
25645,37945
25620,37952
25611,37956
25603,37961
25596,37968
25591,37976
25587,37985
25585,37995
25585,38004
25587,38014
25591,38023
25596,38031
25603,38038
25611,38043
25620,38047
25645,38054
25711,38089
25769,38137
25816,38194
25851,38260
25873,38332
25878,38387
25878,38612
25873,38667
25851,38739
25816,38805
25769,38862
25711,38910
25645,38945
25574,38966
25500,38974
25425,38966
25354,38945
25288,38910
25230,38862
25183,38805
25148,38739
25126,38667
25121,38612
25121,38387
25126,38332
25148,38260
25183,38194
25230,38137
25288,38089
25354,38054
25379,38047
25388,38043
25396,38038
25403,38031
25408,38023
25412,38014
25414,38004
25414,37995
25412,37985
25408,37976
25403,37968
25396,37961
25388,37956
25379,37952
25354,37945
25288,37910
25230,37862
25183,37805
25148,37739
25126,37667
25121,37612
25121,37387
25126,37332
25148,37260
25183,37194
25230,37137
25288,37089
25354,37054
25425,37033
25500,37025
25574,37033
" /> 
<polyline style="fill-rule:evenodd;"
points="24574,37033
24645,37054
24711,37089
24769,37137
24816,37194
24851,37260
24873,37332
24878,37387
24878,37612
24873,37667
24851,37739
24816,37805
24769,37862
24711,37910
24645,37945
24620,37952
24611,37956
24603,37961
24596,37968
24591,37976
24587,37985
24585,37995
24585,38004
24587,38014
24591,38023
24596,38031
24603,38038
24611,38043
24620,38047
24645,38054
24711,38089
24769,38137
24816,38194
24851,38260
24873,38332
24878,38387
24878,38612
24873,38667
24851,38739
24816,38805
24769,38862
24711,38910
24645,38945
24574,38966
24500,38974
24425,38966
24354,38945
24288,38910
24230,38862
24183,38805
24148,38739
24126,38667
24121,38612
24121,38387
24126,38332
24148,38260
24183,38194
24230,38137
24288,38089
24354,38054
24379,38047
24388,38043
24396,38038
24403,38031
24408,38023
24412,38014
24414,38004
24414,37995
24412,37985
24408,37976
24403,37968
24396,37961
24388,37956
24379,37952
24354,37945
24288,37910
24230,37862
24183,37805
24148,37739
24126,37667
24121,37612
24121,37387
24126,37332
24148,37260
24183,37194
24230,37137
24288,37089
24354,37054
24425,37033
24500,37025
24574,37033
" /> 
<polyline style="fill-rule:evenodd;"
points="23574,37033
23645,37054
23711,37089
23769,37137
23816,37194
23851,37260
23873,37332
23878,37387
23878,37612
23873,37667
23851,37739
23816,37805
23769,37862
23711,37910
23645,37945
23620,37952
23611,37956
23603,37961
23596,37968
23591,37976
23587,37985
23585,37995
23585,38004
23587,38014
23591,38023
23596,38031
23603,38038
23611,38043
23620,38047
23645,38054
23711,38089
23769,38137
23816,38194
23851,38260
23873,38332
23878,38387
23878,38612
23873,38667
23851,38739
23816,38805
23769,38862
23711,38910
23645,38945
23574,38966
23500,38974
23425,38966
23354,38945
23288,38910
23230,38862
23183,38805
23148,38739
23126,38667
23121,38612
23121,38387
23126,38332
23148,38260
23183,38194
23230,38137
23288,38089
23354,38054
23379,38047
23388,38043
23396,38038
23403,38031
23408,38023
23412,38014
23414,38004
23414,37995
23412,37985
23408,37976
23403,37968
23396,37961
23388,37956
23379,37952
23354,37945
23288,37910
23230,37862
23183,37805
23148,37739
23126,37667
23121,37612
23121,37387
23126,37332
23148,37260
23183,37194
23230,37137
23288,37089
23354,37054
23425,37033
23500,37025
23574,37033
" /> 
<polyline style="fill-rule:evenodd;"
points="22574,37033
22645,37054
22711,37089
22769,37137
22816,37194
22851,37260
22873,37332
22878,37387
22878,37612
22873,37667
22851,37739
22816,37805
22769,37862
22711,37910
22645,37945
22620,37952
22611,37956
22603,37961
22596,37968
22591,37976
22587,37985
22585,37995
22585,38004
22587,38014
22591,38023
22596,38031
22603,38038
22611,38043
22620,38047
22645,38054
22711,38089
22769,38137
22816,38194
22851,38260
22873,38332
22878,38387
22878,38612
22873,38667
22851,38739
22816,38805
22769,38862
22711,38910
22645,38945
22574,38966
22500,38974
22425,38966
22354,38945
22288,38910
22230,38862
22183,38805
22148,38739
22126,38667
22121,38612
22121,38387
22126,38332
22148,38260
22183,38194
22230,38137
22288,38089
22354,38054
22379,38047
22388,38043
22396,38038
22403,38031
22408,38023
22412,38014
22414,38004
22414,37995
22412,37985
22408,37976
22403,37968
22396,37961
22388,37956
22379,37952
22354,37945
22288,37910
22230,37862
22183,37805
22148,37739
22126,37667
22121,37612
22121,37387
22126,37332
22148,37260
22183,37194
22230,37137
22288,37089
22354,37054
22425,37033
22500,37025
22574,37033
" /> 
<polyline style="fill-rule:evenodd;"
points="30878,37972
30688,37972
30678,37973
30669,37976
30660,37980
30653,37986
30647,37994
30642,38002
30639,38012
30639,38021
30639,38031
30642,38040
30647,38048
30653,38056
30665,38065
30711,38089
30769,38137
30816,38194
30851,38260
30873,38332
30878,38387
30878,38612
30873,38667
30851,38739
30816,38805
30769,38862
30711,38910
30645,38945
30574,38966
30500,38974
30425,38966
30354,38945
30288,38910
30230,38862
30183,38805
30148,38739
30126,38667
30121,38612
30121,38387
30126,38332
30148,38260
30183,38194
30230,38137
30288,38089
30334,38065
30343,38059
30349,38052
30355,38044
30358,38035
30360,38026
30360,38016
30358,38007
30355,37998
30349,37990
30343,37983
30334,37978
30326,37974
30311,37972
30121,37972
30121,37027
30878,37027
30878,37972
" /> 
<polyline style="fill-rule:evenodd;"
points="18574,37033
18645,37054
18711,37089
18769,37137
18816,37194
18851,37260
18873,37332
18878,37387
18878,37612
18873,37667
18851,37739
18816,37805
18769,37862
18711,37910
18645,37945
18620,37952
18611,37956
18603,37961
18596,37968
18591,37976
18587,37985
18585,37995
18585,38004
18587,38014
18591,38023
18596,38031
18603,38038
18611,38043
18620,38047
18645,38054
18711,38089
18769,38137
18816,38194
18851,38260
18873,38332
18878,38387
18878,38612
18873,38667
18851,38739
18816,38805
18769,38862
18711,38910
18645,38945
18574,38966
18500,38974
18425,38966
18354,38945
18288,38910
18230,38862
18183,38805
18148,38739
18126,38667
18121,38612
18121,38387
18126,38332
18148,38260
18183,38194
18230,38137
18288,38089
18354,38054
18379,38047
18388,38043
18396,38038
18403,38031
18408,38023
18412,38014
18414,38004
18414,37995
18412,37985
18408,37976
18403,37968
18396,37961
18388,37956
18379,37952
18354,37945
18288,37910
18230,37862
18183,37805
18148,37739
18126,37667
18121,37612
18121,37387
18126,37332
18148,37260
18183,37194
18230,37137
18288,37089
18354,37054
18425,37033
18500,37025
18574,37033
" /> 
<polyline style="fill-rule:evenodd;"
points="21574,37033
21645,37054
21711,37089
21769,37137
21816,37194
21851,37260
21873,37332
21878,37387
21878,37612
21873,37667
21851,37739
21816,37805
21769,37862
21711,37910
21645,37945
21620,37952
21611,37956
21603,37961
21596,37968
21591,37976
21587,37985
21585,37995
21585,38004
21587,38014
21591,38023
21596,38031
21603,38038
21611,38043
21620,38047
21645,38054
21711,38089
21769,38137
21816,38194
21851,38260
21873,38332
21878,38387
21878,38612
21873,38667
21851,38739
21816,38805
21769,38862
21711,38910
21645,38945
21574,38966
21500,38974
21425,38966
21354,38945
21288,38910
21230,38862
21183,38805
21148,38739
21126,38667
21121,38612
21121,38387
21126,38332
21148,38260
21183,38194
21230,38137
21288,38089
21354,38054
21379,38047
21388,38043
21396,38038
21403,38031
21408,38023
21412,38014
21414,38004
21414,37995
21412,37985
21408,37976
21403,37968
21396,37961
21388,37956
21379,37952
21354,37945
21288,37910
21230,37862
21183,37805
21148,37739
21126,37667
21121,37612
21121,37387
21126,37332
21148,37260
21183,37194
21230,37137
21288,37089
21354,37054
21425,37033
21500,37025
21574,37033
" /> 
<polyline style="fill-rule:evenodd;"
points="16574,37033
16645,37054
16711,37089
16769,37137
16816,37194
16851,37260
16873,37332
16878,37387
16878,37612
16873,37667
16851,37739
16816,37805
16769,37862
16711,37910
16645,37945
16620,37952
16611,37956
16603,37961
16596,37968
16591,37976
16587,37985
16585,37995
16585,38004
16587,38014
16591,38023
16596,38031
16603,38038
16611,38043
16620,38047
16645,38054
16711,38089
16769,38137
16816,38194
16851,38260
16873,38332
16878,38387
16878,38612
16873,38667
16851,38739
16816,38805
16769,38862
16711,38910
16645,38945
16574,38966
16500,38974
16425,38966
16354,38945
16288,38910
16230,38862
16183,38805
16148,38739
16126,38667
16121,38612
16121,38387
16126,38332
16148,38260
16183,38194
16230,38137
16288,38089
16354,38054
16379,38047
16388,38043
16396,38038
16403,38031
16408,38023
16412,38014
16414,38004
16414,37995
16412,37985
16408,37976
16403,37968
16396,37961
16388,37956
16379,37952
16354,37945
16288,37910
16230,37862
16183,37805
16148,37739
16126,37667
16121,37612
16121,37387
16126,37332
16148,37260
16183,37194
16230,37137
16288,37089
16354,37054
16425,37033
16500,37025
16574,37033
" /> 
<polyline style="fill-rule:evenodd;"
points="11574,37033
11645,37054
11711,37089
11769,37137
11816,37194
11851,37260
11873,37332
11878,37387
11878,37612
11873,37667
11851,37739
11816,37805
11769,37862
11711,37910
11645,37945
11620,37952
11611,37956
11603,37961
11596,37968
11591,37976
11587,37985
11585,37995
11585,38004
11587,38014
11591,38023
11596,38031
11603,38038
11611,38043
11620,38047
11645,38054
11711,38089
11769,38137
11816,38194
11851,38260
11873,38332
11878,38387
11878,38612
11873,38667
11851,38739
11816,38805
11769,38862
11711,38910
11645,38945
11574,38966
11500,38974
11425,38966
11354,38945
11288,38910
11230,38862
11183,38805
11148,38739
11126,38667
11121,38612
11121,38387
11126,38332
11148,38260
11183,38194
11230,38137
11288,38089
11354,38054
11379,38047
11388,38043
11396,38038
11403,38031
11408,38023
11412,38014
11414,38004
11414,37995
11412,37985
11408,37976
11403,37968
11396,37961
11388,37956
11379,37952
11354,37945
11288,37910
11230,37862
11183,37805
11148,37739
11126,37667
11121,37612
11121,37387
11126,37332
11148,37260
11183,37194
11230,37137
11288,37089
11354,37054
11425,37033
11500,37025
11574,37033
" /> 
<polyline style="fill-rule:evenodd;"
points="12574,37033
12645,37054
12711,37089
12769,37137
12816,37194
12851,37260
12873,37332
12878,37387
12878,37612
12873,37667
12851,37739
12816,37805
12769,37862
12711,37910
12645,37945
12620,37952
12611,37956
12603,37961
12596,37968
12591,37976
12587,37985
12585,37995
12585,38004
12587,38014
12591,38023
12596,38031
12603,38038
12611,38043
12620,38047
12645,38054
12711,38089
12769,38137
12816,38194
12851,38260
12873,38332
12878,38387
12878,38612
12873,38667
12851,38739
12816,38805
12769,38862
12711,38910
12645,38945
12574,38966
12500,38974
12425,38966
12354,38945
12288,38910
12230,38862
12183,38805
12148,38739
12126,38667
12121,38612
12121,38387
12126,38332
12148,38260
12183,38194
12230,38137
12288,38089
12354,38054
12379,38047
12388,38043
12396,38038
12403,38031
12408,38023
12412,38014
12414,38004
12414,37995
12412,37985
12408,37976
12403,37968
12396,37961
12388,37956
12379,37952
12354,37945
12288,37910
12230,37862
12183,37805
12148,37739
12126,37667
12121,37612
12121,37387
12126,37332
12148,37260
12183,37194
12230,37137
12288,37089
12354,37054
12425,37033
12500,37025
12574,37033
" /> 
<polyline style="fill-rule:evenodd;"
points="13574,37033
13645,37054
13711,37089
13769,37137
13816,37194
13851,37260
13873,37332
13878,37387
13878,37612
13873,37667
13851,37739
13816,37805
13769,37862
13711,37910
13645,37945
13620,37952
13611,37956
13603,37961
13596,37968
13591,37976
13587,37985
13585,37995
13585,38004
13587,38014
13591,38023
13596,38031
13603,38038
13611,38043
13620,38047
13645,38054
13711,38089
13769,38137
13816,38194
13851,38260
13873,38332
13878,38387
13878,38612
13873,38667
13851,38739
13816,38805
13769,38862
13711,38910
13645,38945
13574,38966
13500,38974
13425,38966
13354,38945
13288,38910
13230,38862
13183,38805
13148,38739
13126,38667
13121,38612
13121,38387
13126,38332
13148,38260
13183,38194
13230,38137
13288,38089
13354,38054
13379,38047
13388,38043
13396,38038
13403,38031
13408,38023
13412,38014
13414,38004
13414,37995
13412,37985
13408,37976
13403,37968
13396,37961
13388,37956
13379,37952
13354,37945
13288,37910
13230,37862
13183,37805
13148,37739
13126,37667
13121,37612
13121,37387
13126,37332
13148,37260
13183,37194
13230,37137
13288,37089
13354,37054
13425,37033
13500,37025
13574,37033
" /> 
<polyline style="fill-rule:evenodd;"
points="14574,37033
14645,37054
14711,37089
14769,37137
14816,37194
14851,37260
14873,37332
14878,37387
14878,37612
14873,37667
14851,37739
14816,37805
14769,37862
14711,37910
14645,37945
14620,37952
14611,37956
14603,37961
14596,37968
14591,37976
14587,37985
14585,37995
14585,38004
14587,38014
14591,38023
14596,38031
14603,38038
14611,38043
14620,38047
14645,38054
14711,38089
14769,38137
14816,38194
14851,38260
14873,38332
14878,38387
14878,38612
14873,38667
14851,38739
14816,38805
14769,38862
14711,38910
14645,38945
14574,38966
14500,38974
14425,38966
14354,38945
14288,38910
14230,38862
14183,38805
14148,38739
14126,38667
14121,38612
14121,38387
14126,38332
14148,38260
14183,38194
14230,38137
14288,38089
14354,38054
14379,38047
14388,38043
14396,38038
14403,38031
14408,38023
14412,38014
14414,38004
14414,37995
14412,37985
14408,37976
14403,37968
14396,37961
14388,37956
14379,37952
14354,37945
14288,37910
14230,37862
14183,37805
14148,37739
14126,37667
14121,37612
14121,37387
14126,37332
14148,37260
14183,37194
14230,37137
14288,37089
14354,37054
14425,37033
14500,37025
14574,37033
" /> 
<polyline style="fill-rule:evenodd;"
points="15574,37033
15645,37054
15711,37089
15769,37137
15816,37194
15851,37260
15873,37332
15878,37387
15878,37612
15873,37667
15851,37739
15816,37805
15769,37862
15711,37910
15645,37945
15620,37952
15611,37956
15603,37961
15596,37968
15591,37976
15587,37985
15585,37995
15585,38004
15587,38014
15591,38023
15596,38031
15603,38038
15611,38043
15620,38047
15645,38054
15711,38089
15769,38137
15816,38194
15851,38260
15873,38332
15878,38387
15878,38612
15873,38667
15851,38739
15816,38805
15769,38862
15711,38910
15645,38945
15574,38966
15500,38974
15425,38966
15354,38945
15288,38910
15230,38862
15183,38805
15148,38739
15126,38667
15121,38612
15121,38387
15126,38332
15148,38260
15183,38194
15230,38137
15288,38089
15354,38054
15379,38047
15388,38043
15396,38038
15403,38031
15408,38023
15412,38014
15414,38004
15414,37995
15412,37985
15408,37976
15403,37968
15396,37961
15388,37956
15379,37952
15354,37945
15288,37910
15230,37862
15183,37805
15148,37739
15126,37667
15121,37612
15121,37387
15126,37332
15148,37260
15183,37194
15230,37137
15288,37089
15354,37054
15425,37033
15500,37025
15574,37033
" /> 
<polyline style="fill-rule:evenodd;"
points="17574,37033
17645,37054
17711,37089
17769,37137
17816,37194
17851,37260
17873,37332
17878,37387
17878,37612
17873,37667
17851,37739
17816,37805
17769,37862
17711,37910
17645,37945
17620,37952
17611,37956
17603,37961
17596,37968
17591,37976
17587,37985
17585,37995
17585,38004
17587,38014
17591,38023
17596,38031
17603,38038
17611,38043
17620,38047
17645,38054
17711,38089
17769,38137
17816,38194
17851,38260
17873,38332
17878,38387
17878,38612
17873,38667
17851,38739
17816,38805
17769,38862
17711,38910
17645,38945
17574,38966
17500,38974
17425,38966
17354,38945
17288,38910
17230,38862
17183,38805
17148,38739
17126,38667
17121,38612
17121,38387
17126,38332
17148,38260
17183,38194
17230,38137
17288,38089
17354,38054
17379,38047
17388,38043
17396,38038
17403,38031
17408,38023
17412,38014
17414,38004
17414,37995
17412,37985
17408,37976
17403,37968
17396,37961
17388,37956
17379,37952
17354,37945
17288,37910
17230,37862
17183,37805
17148,37739
17126,37667
17121,37612
17121,37387
17126,37332
17148,37260
17183,37194
17230,37137
17288,37089
17354,37054
17425,37033
17500,37025
17574,37033
" /> 
<polyline style="fill-rule:evenodd;"
points="19574,37033
19645,37054
19711,37089
19769,37137
19816,37194
19851,37260
19873,37332
19878,37387
19878,37612
19873,37667
19851,37739
19816,37805
19769,37862
19711,37910
19645,37945
19620,37952
19611,37956
19603,37961
19596,37968
19591,37976
19587,37985
19585,37995
19585,38004
19587,38014
19591,38023
19596,38031
19603,38038
19611,38043
19620,38047
19645,38054
19711,38089
19769,38137
19816,38194
19851,38260
19873,38332
19878,38387
19878,38612
19873,38667
19851,38739
19816,38805
19769,38862
19711,38910
19645,38945
19574,38966
19500,38974
19425,38966
19354,38945
19288,38910
19230,38862
19183,38805
19148,38739
19126,38667
19121,38612
19121,38387
19126,38332
19148,38260
19183,38194
19230,38137
19288,38089
19354,38054
19379,38047
19388,38043
19396,38038
19403,38031
19408,38023
19412,38014
19414,38004
19414,37995
19412,37985
19408,37976
19403,37968
19396,37961
19388,37956
19379,37952
19354,37945
19288,37910
19230,37862
19183,37805
19148,37739
19126,37667
19121,37612
19121,37387
19126,37332
19148,37260
19183,37194
19230,37137
19288,37089
19354,37054
19425,37033
19500,37025
19574,37033
" /> 
<polyline style="fill-rule:evenodd;"
points="9919,38169
8580,38169
8580,36830
9919,36830
9919,38169
" /> 
<polyline style="fill-rule:evenodd;"
points="14550,35589
14581,35592
14632,35608
14658,35616
14730,35654
14793,35706
14845,35769
14883,35841
14883,35841
14907,35918
14915,36000
14907,36081
14891,36132
14883,36158
14845,36230
14793,36293
14730,36345
14658,36383
14632,36391
14581,36407
14550,36410
14520,36413
14479,36413
14449,36410
14418,36407
14367,36391
14341,36383
14269,36345
14206,36293
14154,36230
14116,36158
14108,36132
14092,36081
14084,36000
14092,35918
14116,35841
14116,35841
14154,35769
14206,35706
14269,35654
14341,35616
14367,35608
14418,35592
14449,35589
14479,35586
14520,35586
14550,35589
" /> 
<polyline style="fill-rule:evenodd;"
points="45050,35589
45081,35592
45132,35608
45158,35616
45230,35654
45293,35706
45345,35769
45383,35841
45383,35841
45407,35918
45415,36000
45407,36081
45391,36132
45383,36158
45345,36230
45293,36293
45230,36345
45158,36383
45132,36391
45081,36407
45050,36410
45020,36413
44979,36413
44949,36410
44918,36407
44867,36391
44841,36383
44769,36345
44706,36293
44654,36230
44616,36158
44608,36132
44592,36081
44584,36000
44592,35918
44616,35841
44616,35841
44654,35769
44706,35706
44769,35654
44841,35616
44867,35608
44918,35592
44949,35589
44979,35586
45020,35586
45050,35589
" /> 
<polyline style="fill-rule:evenodd;"
points="18913,36413
18086,36413
18086,35586
18913,35586
18913,36413
" /> 
<polyline style="fill-rule:evenodd;"
points="11550,35589
11581,35592
11632,35608
11658,35616
11730,35654
11793,35706
11845,35769
11883,35841
11883,35841
11907,35918
11915,36000
11907,36081
11891,36132
11883,36158
11845,36230
11793,36293
11730,36345
11658,36383
11632,36391
11581,36407
11550,36410
11520,36413
11479,36413
11449,36410
11418,36407
11367,36391
11341,36383
11269,36345
11206,36293
11154,36230
11116,36158
11108,36132
11092,36081
11084,36000
11092,35918
11116,35841
11116,35841
11154,35769
11206,35706
11269,35654
11341,35616
11367,35608
11418,35592
11449,35589
11479,35586
11520,35586
11550,35589
" /> 
<polyline style="fill-rule:evenodd;"
points="12550,35589
12581,35592
12632,35608
12658,35616
12730,35654
12793,35706
12845,35769
12883,35841
12883,35841
12907,35918
12915,36000
12907,36081
12891,36132
12883,36158
12845,36230
12793,36293
12730,36345
12658,36383
12632,36391
12581,36407
12550,36410
12520,36413
12479,36413
12449,36410
12418,36407
12367,36391
12341,36383
12269,36345
12206,36293
12154,36230
12116,36158
12108,36132
12092,36081
12084,36000
12092,35918
12116,35841
12116,35841
12154,35769
12206,35706
12269,35654
12341,35616
12367,35608
12418,35592
12449,35589
12479,35586
12520,35586
12550,35589
" /> 
<polyline style="fill-rule:evenodd;"
points="13550,35589
13581,35592
13632,35608
13658,35616
13730,35654
13793,35706
13845,35769
13883,35841
13883,35841
13907,35918
13915,36000
13907,36081
13891,36132
13883,36158
13845,36230
13793,36293
13730,36345
13658,36383
13632,36391
13581,36407
13550,36410
13520,36413
13479,36413
13449,36410
13418,36407
13367,36391
13341,36383
13269,36345
13206,36293
13154,36230
13116,36158
13108,36132
13092,36081
13084,36000
13092,35918
13116,35841
13116,35841
13154,35769
13206,35706
13269,35654
13341,35616
13367,35608
13418,35592
13449,35589
13479,35586
13520,35586
13550,35589
" /> 
<polyline style="fill-rule:evenodd;"
points="15550,35589
15581,35592
15632,35608
15658,35616
15730,35654
15793,35706
15845,35769
15883,35841
15883,35841
15907,35918
15915,36000
15907,36081
15891,36132
15883,36158
15845,36230
15793,36293
15730,36345
15658,36383
15632,36391
15581,36407
15550,36410
15520,36413
15479,36413
15449,36410
15418,36407
15367,36391
15341,36383
15269,36345
15206,36293
15154,36230
15116,36158
15108,36132
15092,36081
15084,36000
15092,35918
15116,35841
15116,35841
15154,35769
15206,35706
15269,35654
15341,35616
15367,35608
15418,35592
15449,35589
15479,35586
15520,35586
15550,35589
" /> 
<polyline style="fill-rule:evenodd;"
points="17550,35589
17581,35592
17632,35608
17658,35616
17730,35654
17793,35706
17845,35769
17883,35841
17883,35841
17907,35918
17915,36000
17907,36081
17891,36132
17883,36158
17845,36230
17793,36293
17730,36345
17658,36383
17632,36391
17581,36407
17550,36410
17520,36413
17479,36413
17449,36410
17418,36407
17367,36391
17341,36383
17269,36345
17206,36293
17154,36230
17116,36158
17108,36132
17092,36081
17084,36000
17092,35918
17116,35841
17116,35841
17154,35769
17206,35706
17269,35654
17341,35616
17367,35608
17418,35592
17449,35589
17479,35586
17520,35586
17550,35589
" /> 
<polyline style="fill-rule:evenodd;"
points="16550,35589
16581,35592
16632,35608
16658,35616
16730,35654
16793,35706
16845,35769
16883,35841
16883,35841
16907,35918
16915,36000
16907,36081
16891,36132
16883,36158
16845,36230
16793,36293
16730,36345
16658,36383
16632,36391
16581,36407
16550,36410
16520,36413
16479,36413
16449,36410
16418,36407
16367,36391
16341,36383
16269,36345
16206,36293
16154,36230
16116,36158
16108,36132
16092,36081
16084,36000
16092,35918
16116,35841
16116,35841
16154,35769
16206,35706
16269,35654
16341,35616
16367,35608
16418,35592
16449,35589
16479,35586
16520,35586
16550,35589
" /> 
<polyline style="fill-rule:evenodd;"
points="20550,35589
20581,35592
20632,35608
20658,35616
20730,35654
20793,35706
20845,35769
20883,35841
20883,35841
20907,35918
20915,36000
20907,36081
20891,36132
20883,36158
20845,36230
20793,36293
20730,36345
20658,36383
20632,36391
20581,36407
20550,36410
20520,36413
20479,36413
20449,36410
20418,36407
20367,36391
20341,36383
20269,36345
20206,36293
20154,36230
20116,36158
20108,36132
20092,36081
20084,36000
20092,35918
20116,35841
20116,35841
20154,35769
20206,35706
20269,35654
20341,35616
20367,35608
20418,35592
20449,35589
20479,35586
20520,35586
20550,35589
" /> 
<polyline style="fill-rule:evenodd;"
points="21550,35589
21581,35592
21632,35608
21658,35616
21730,35654
21793,35706
21845,35769
21883,35841
21883,35841
21907,35918
21915,36000
21907,36081
21891,36132
21883,36158
21845,36230
21793,36293
21730,36345
21658,36383
21632,36391
21581,36407
21550,36410
21520,36413
21479,36413
21449,36410
21418,36407
21367,36391
21341,36383
21269,36345
21206,36293
21154,36230
21116,36158
21108,36132
21092,36081
21084,36000
21092,35918
21116,35841
21116,35841
21154,35769
21206,35706
21269,35654
21341,35616
21367,35608
21418,35592
21449,35589
21479,35586
21520,35586
21550,35589
" /> 
<polyline style="fill-rule:evenodd;"
points="22550,35589
22581,35592
22632,35608
22658,35616
22730,35654
22793,35706
22845,35769
22883,35841
22883,35841
22907,35918
22915,36000
22907,36081
22891,36132
22883,36158
22845,36230
22793,36293
22730,36345
22658,36383
22632,36391
22581,36407
22550,36410
22520,36413
22479,36413
22449,36410
22418,36407
22367,36391
22341,36383
22269,36345
22206,36293
22154,36230
22116,36158
22108,36132
22092,36081
22084,36000
22092,35918
22116,35841
22116,35841
22154,35769
22206,35706
22269,35654
22341,35616
22367,35608
22418,35592
22449,35589
22479,35586
22520,35586
22550,35589
" /> 
<polyline style="fill-rule:evenodd;"
points="23913,36413
23086,36413
23086,35586
23913,35586
23913,36413
" /> 
<polyline style="fill-rule:evenodd;"
points="33550,35589
33581,35592
33632,35608
33658,35616
33730,35654
33793,35706
33845,35769
33883,35841
33883,35841
33907,35918
33915,36000
33907,36081
33891,36132
33883,36158
33845,36230
33793,36293
33730,36345
33658,36383
33632,36391
33581,36407
33550,36410
33520,36413
33479,36413
33449,36410
33418,36407
33367,36391
33341,36383
33269,36345
33206,36293
33154,36230
33116,36158
33108,36132
33092,36081
33084,36000
33092,35918
33116,35841
33116,35841
33154,35769
33206,35706
33269,35654
33341,35616
33367,35608
33418,35592
33449,35589
33479,35586
33520,35586
33550,35589
" /> 
<polyline style="fill-rule:evenodd;"
points="19550,35589
19581,35592
19632,35608
19658,35616
19730,35654
19793,35706
19845,35769
19883,35841
19883,35841
19907,35918
19915,36000
19907,36081
19891,36132
19883,36158
19845,36230
19793,36293
19730,36345
19658,36383
19632,36391
19581,36407
19550,36410
19520,36413
19479,36413
19449,36410
19418,36407
19367,36391
19341,36383
19269,36345
19206,36293
19154,36230
19116,36158
19108,36132
19092,36081
19084,36000
19092,35918
19116,35841
19116,35841
19154,35769
19206,35706
19269,35654
19341,35616
19367,35608
19418,35592
19449,35589
19479,35586
19520,35586
19550,35589
" /> 
<polyline style="fill-rule:evenodd;"
points="33550,34589
33581,34592
33632,34608
33658,34616
33730,34654
33793,34706
33845,34769
33883,34841
33887,34854
33907,34918
33915,35000
33907,35081
33891,35132
33883,35158
33845,35230
33793,35293
33730,35345
33658,35383
33632,35391
33581,35407
33550,35410
33520,35413
33479,35413
33449,35410
33418,35407
33367,35391
33341,35383
33269,35345
33206,35293
33154,35230
33116,35158
33108,35132
33092,35081
33084,35000
33092,34918
33112,34854
33116,34841
33154,34769
33206,34706
33269,34654
33341,34616
33367,34608
33418,34592
33449,34589
33479,34586
33520,34586
33550,34589
" /> 
<polyline style="fill-rule:evenodd;"
points="45050,34589
45081,34592
45132,34608
45158,34616
45230,34654
45293,34706
45345,34769
45383,34841
45387,34854
45407,34918
45415,35000
45407,35081
45391,35132
45383,35158
45345,35230
45293,35293
45230,35345
45158,35383
45132,35391
45081,35407
45050,35410
45020,35413
44979,35413
44949,35410
44918,35407
44867,35391
44841,35383
44769,35345
44706,35293
44654,35230
44616,35158
44608,35132
44592,35081
44584,35000
44592,34918
44612,34854
44616,34841
44654,34769
44706,34706
44769,34654
44841,34616
44867,34608
44918,34592
44949,34589
44979,34586
45020,34586
45050,34589
" /> 
<polyline style="fill-rule:evenodd;"
points="9616,33465
9644,33468
9680,33479
9698,33485
9747,33511
9791,33547
9827,33590
9853,33640
9859,33658
9869,33694
9875,33750
9869,33805
9859,33841
9853,33859
9827,33909
9791,33952
9780,33961
9773,33968
9768,33976
9764,33985
9762,33995
9762,34004
9764,34014
9768,34023
9773,34031
9780,34038
9791,34047
9827,34090
9853,34140
9853,34140
9869,34194
9875,34250
9869,34305
9859,34341
9853,34359
9836,34392
9832,34401
9830,34410
9830,34420
9832,34429
9836,34438
9841,34446
9848,34453
9856,34458
9865,34462
9874,34464
9874,35035
9125,35035
9125,34464
9129,34463
9139,34460
9147,34456
9155,34450
9161,34442
9165,34434
9168,34424
9169,34415
9168,34405
9165,34396
9163,34392
9146,34359
9140,34341
9130,34305
9124,34250
9130,34194
9146,34140
9146,34140
9172,34090
9208,34047
9219,34038
9226,34031
9231,34023
9235,34014
9237,34004
9237,33995
9235,33985
9231,33976
9226,33968
9219,33961
9208,33952
9172,33909
9146,33859
9140,33841
9130,33805
9124,33750
9130,33694
9140,33658
9146,33640
9172,33590
9208,33547
9252,33511
9301,33485
9319,33479
9355,33468
9383,33465
9397,33464
9602,33464
9616,33465
" /> 
<polyline style="fill-rule:evenodd;"
points="27603,34159
27667,34185
27725,34224
27775,34274
27814,34332
27840,34396
27854,34465
27854,34534
27840,34603
27814,34667
27775,34725
27725,34775
27667,34814
27603,34840
27534,34854
27465,34854
27396,34840
27332,34814
27274,34775
27224,34725
27185,34667
27159,34603
27145,34534
27145,34465
27159,34396
27185,34332
27224,34274
27274,34224
27332,34185
27396,34159
27465,34145
27534,34145
27603,34159
" /> 
<polyline style="fill-rule:evenodd;"
points="30569,34150
30636,34171
30697,34203
30751,34248
30796,34302
30828,34363
30849,34430
30856,34500
30849,34569
30828,34636
30796,34697
30751,34751
30697,34796
30636,34828
30569,34849
30517,34854
30482,34854
30430,34849
30363,34828
30302,34796
30248,34751
30203,34697
30171,34636
30150,34569
30143,34500
30150,34430
30171,34363
30203,34302
30248,34248
30302,34203
30363,34171
30430,34150
30482,34145
30517,34145
30569,34150
" /> 
<polyline style="fill-rule:evenodd;"
points="45050,33589
45081,33592
45132,33608
45158,33616
45230,33654
45293,33706
45345,33769
45383,33841
45383,33841
45407,33918
45415,34000
45407,34081
45404,34090
45383,34158
45345,34230
45293,34293
45230,34345
45158,34383
45132,34391
45081,34407
45050,34410
45020,34413
44979,34413
44949,34410
44918,34407
44867,34391
44841,34383
44769,34345
44706,34293
44654,34230
44616,34158
44595,34090
44592,34081
44584,34000
44592,33918
44616,33841
44616,33841
44654,33769
44706,33706
44769,33654
44841,33616
44867,33608
44918,33592
44949,33589
44979,33586
45020,33586
45050,33589
" /> 
<polyline style="fill-rule:evenodd;"
points="33550,33589
33581,33592
33632,33608
33658,33616
33730,33654
33793,33706
33845,33769
33883,33841
33883,33841
33907,33918
33915,34000
33907,34081
33904,34090
33883,34158
33845,34230
33793,34293
33730,34345
33658,34383
33632,34391
33581,34407
33550,34410
33520,34413
33479,34413
33449,34410
33418,34407
33367,34391
33341,34383
33269,34345
33206,34293
33154,34230
33116,34158
33095,34090
33092,34081
33084,34000
33092,33918
33116,33841
33116,33841
33154,33769
33206,33706
33269,33654
33341,33616
33367,33608
33418,33592
33449,33589
33479,33586
33520,33586
33550,33589
" /> 
<polyline style="fill-rule:evenodd;"
points="33550,32589
33581,32592
33632,32608
33658,32616
33730,32654
33793,32706
33845,32769
33883,32841
33883,32841
33907,32918
33915,33000
33907,33081
33891,33132
33883,33158
33845,33230
33793,33293
33730,33345
33658,33383
33632,33391
33581,33407
33550,33410
33520,33413
33479,33413
33449,33410
33418,33407
33367,33391
33341,33383
33269,33345
33206,33293
33154,33230
33116,33158
33108,33132
33092,33081
33084,33000
33092,32918
33116,32841
33116,32841
33154,32769
33206,32706
33269,32654
33341,32616
33367,32608
33418,32592
33449,32589
33479,32586
33520,32586
33550,32589
" /> 
<polyline style="fill-rule:evenodd;"
points="19050,32589
19081,32592
19132,32608
19158,32616
19230,32654
19293,32706
19345,32769
19383,32841
19383,32841
19407,32918
19415,33000
19407,33081
19391,33132
19383,33158
19345,33230
19293,33293
19230,33345
19158,33383
19132,33391
19081,33407
19050,33410
19020,33413
18979,33413
18949,33410
18918,33407
18867,33391
18841,33383
18769,33345
18706,33293
18654,33230
18616,33158
18608,33132
18592,33081
18584,33000
18592,32918
18616,32841
18616,32841
18654,32769
18706,32706
18769,32654
18841,32616
18867,32608
18918,32592
18949,32589
18979,32586
19020,32586
19050,32589
" /> 
<polyline style="fill-rule:evenodd;"
points="45050,32589
45081,32592
45132,32608
45158,32616
45230,32654
45293,32706
45345,32769
45383,32841
45383,32841
45407,32918
45415,33000
45407,33081
45391,33132
45383,33158
45345,33230
45293,33293
45230,33345
45158,33383
45132,33391
45081,33407
45050,33410
45020,33413
44979,33413
44949,33410
44918,33407
44867,33391
44841,33383
44769,33345
44706,33293
44654,33230
44616,33158
44608,33132
44592,33081
44584,33000
44592,32918
44616,32841
44616,32841
44654,32769
44706,32706
44769,32654
44841,32616
44867,32608
44918,32592
44949,32589
44979,32586
45020,32586
45050,32589
" /> 
<polyline style="fill-rule:evenodd;"
points="20413,33413
19586,33413
19586,32586
20413,32586
20413,33413
" /> 
<polyline style="fill-rule:evenodd;"
points="27757,31792
27824,31799
27932,31832
28031,31885
28118,31956
28189,32043
28242,32142
28275,32250
28286,32362
28275,32474
28242,32581
28189,32680
28118,32767
28031,32839
27932,32892
27824,32924
27757,32931
27740,32933
27684,32933
27667,32931
27600,32924
27493,32892
27393,32839
27306,32767
27235,32680
27182,32581
27149,32474
27138,32362
27149,32250
27182,32142
27235,32043
27306,31956
27393,31885
27493,31832
27600,31799
27667,31792
27684,31791
27740,31791
27757,31792
" /> 
<polyline style="fill-rule:evenodd;"
points="22954,31792
23021,31799
23128,31832
23228,31885
23315,31956
23386,32043
23439,32142
23472,32250
23483,32362
23472,32474
23439,32581
23386,32680
23315,32767
23228,32839
23128,32892
23021,32924
22954,32931
22937,32933
22881,32933
22864,32931
22797,32924
22689,32892
22590,32839
22503,32767
22432,32680
22379,32581
22346,32474
22335,32362
22346,32250
22379,32142
22432,32043
22503,31956
22590,31885
22689,31832
22797,31799
22864,31792
22881,31791
22937,31791
22954,31792
" /> 
<polyline style="fill-rule:evenodd;"
points="30761,32511
29738,32511
29738,31488
30761,31488
30761,32511
" /> 
<polyline style="fill-rule:evenodd;"
points="20050,31589
20081,31592
20132,31608
20158,31616
20230,31654
20293,31706
20345,31769
20383,31841
20383,31841
20407,31918
20415,32000
20407,32081
20391,32132
20383,32158
20345,32230
20293,32293
20230,32345
20158,32383
20132,32391
20081,32407
20050,32410
20020,32413
19979,32413
19949,32410
19918,32407
19867,32391
19841,32383
19769,32345
19706,32293
19654,32230
19616,32158
19608,32132
19592,32081
19584,32000
19592,31918
19616,31841
19616,31841
19654,31769
19706,31706
19769,31654
19841,31616
19867,31608
19918,31592
19949,31589
19979,31586
20020,31586
20050,31589
" /> 
<polyline style="fill-rule:evenodd;"
points="33550,31589
33581,31592
33632,31608
33658,31616
33730,31654
33793,31706
33845,31769
33883,31841
33883,31841
33907,31918
33915,32000
33907,32081
33891,32132
33883,32158
33845,32230
33793,32293
33730,32345
33658,32383
33632,32391
33581,32407
33550,32410
33520,32413
33479,32413
33449,32410
33418,32407
33367,32391
33341,32383
33269,32345
33206,32293
33154,32230
33116,32158
33108,32132
33092,32081
33084,32000
33092,31918
33116,31841
33116,31841
33154,31769
33206,31706
33269,31654
33341,31616
33367,31608
33418,31592
33449,31589
33479,31586
33520,31586
33550,31589
" /> 
<polyline style="fill-rule:evenodd;"
points="19050,31589
19081,31592
19132,31608
19158,31616
19230,31654
19293,31706
19345,31769
19383,31841
19383,31841
19407,31918
19415,32000
19407,32081
19391,32132
19383,32158
19345,32230
19293,32293
19230,32345
19158,32383
19132,32391
19081,32407
19050,32410
19020,32413
18979,32413
18949,32410
18918,32407
18867,32391
18841,32383
18769,32345
18706,32293
18654,32230
18616,32158
18608,32132
18592,32081
18584,32000
18592,31918
18616,31841
18616,31841
18654,31769
18706,31706
18769,31654
18841,31616
18867,31608
18918,31592
18949,31589
18979,31586
19020,31586
19050,31589
" /> 
<polyline style="fill-rule:evenodd;"
points="45050,31589
45081,31592
45132,31608
45158,31616
45230,31654
45293,31706
45345,31769
45383,31841
45383,31841
45407,31918
45415,32000
45407,32081
45391,32132
45383,32158
45345,32230
45293,32293
45230,32345
45158,32383
45132,32391
45081,32407
45050,32410
45020,32413
44979,32413
44949,32410
44918,32407
44867,32391
44841,32383
44769,32345
44706,32293
44654,32230
44616,32158
44608,32132
44592,32081
44584,32000
44592,31918
44616,31841
44616,31841
44654,31769
44706,31706
44769,31654
44841,31616
44867,31608
44918,31592
44949,31589
44979,31586
45020,31586
45050,31589
" /> 
<polyline style="fill-rule:evenodd;"
points="45050,30589
45081,30592
45132,30608
45158,30616
45230,30654
45293,30706
45345,30769
45383,30841
45383,30841
45407,30918
45415,31000
45407,31081
45391,31132
45383,31158
45345,31230
45293,31293
45230,31345
45158,31383
45132,31391
45081,31407
45050,31410
45020,31413
44979,31413
44949,31410
44918,31407
44867,31391
44841,31383
44769,31345
44706,31293
44654,31230
44616,31158
44608,31132
44592,31081
44584,31000
44592,30918
44616,30841
44616,30841
44654,30769
44706,30706
44769,30654
44841,30616
44867,30608
44918,30592
44949,30589
44979,30586
45020,30586
45050,30589
" /> 
<polyline style="fill-rule:evenodd;"
points="33550,30589
33581,30592
33632,30608
33658,30616
33730,30654
33793,30706
33845,30769
33883,30841
33883,30841
33907,30918
33915,31000
33907,31081
33891,31132
33883,31158
33845,31230
33793,31293
33730,31345
33658,31383
33632,31391
33581,31407
33550,31410
33520,31413
33479,31413
33449,31410
33418,31407
33367,31391
33341,31383
33269,31345
33206,31293
33154,31230
33116,31158
33108,31132
33092,31081
33084,31000
33092,30918
33116,30841
33116,30841
33154,30769
33206,30706
33269,30654
33341,30616
33367,30608
33418,30592
33449,30589
33479,30586
33520,30586
33550,30589
" /> 
<polyline style="fill-rule:evenodd;"
points="20050,30589
20081,30592
20132,30608
20158,30616
20230,30654
20293,30706
20345,30769
20383,30841
20383,30841
20407,30918
20415,31000
20407,31081
20391,31132
20383,31158
20345,31230
20293,31293
20230,31345
20158,31383
20132,31391
20081,31407
20050,31410
20020,31413
19979,31413
19949,31410
19918,31407
19867,31391
19841,31383
19769,31345
19706,31293
19654,31230
19616,31158
19608,31132
19592,31081
19584,31000
19592,30918
19616,30841
19616,30841
19654,30769
19706,30706
19769,30654
19841,30616
19867,30608
19918,30592
19949,30589
19979,30586
20020,30586
20050,30589
" /> 
<polyline style="fill-rule:evenodd;"
points="19050,30589
19081,30592
19132,30608
19158,30616
19230,30654
19293,30706
19345,30769
19383,30841
19383,30841
19407,30918
19415,31000
19407,31081
19391,31132
19383,31158
19345,31230
19293,31293
19230,31345
19158,31383
19132,31391
19081,31407
19050,31410
19020,31413
18979,31413
18949,31410
18918,31407
18867,31391
18841,31383
18769,31345
18706,31293
18654,31230
18616,31158
18608,31132
18592,31081
18584,31000
18592,30918
18616,30841
18616,30841
18654,30769
18706,30706
18769,30654
18841,30616
18867,30608
18918,30592
18949,30589
18979,30586
19020,30586
19050,30589
" /> 
<polyline style="fill-rule:evenodd;"
points="29070,30570
27929,30570
27929,29429
29070,29429
29070,30570
" /> 
<polyline style="fill-rule:evenodd;"
points="33550,29589
33581,29592
33632,29608
33658,29616
33730,29654
33793,29706
33845,29769
33883,29841
33883,29841
33907,29918
33915,30000
33907,30081
33891,30132
33883,30158
33845,30230
33793,30293
33730,30345
33658,30383
33632,30391
33581,30407
33550,30410
33520,30413
33479,30413
33449,30410
33418,30407
33367,30391
33341,30383
33269,30345
33206,30293
33154,30230
33116,30158
33108,30132
33092,30081
33084,30000
33092,29918
33116,29841
33116,29841
33154,29769
33206,29706
33269,29654
33341,29616
33367,29608
33418,29592
33449,29589
33479,29586
33520,29586
33550,29589
" /> 
<polyline style="fill-rule:evenodd;"
points="45050,29589
45081,29592
45132,29608
45158,29616
45230,29654
45293,29706
45345,29769
45383,29841
45383,29841
45407,29918
45415,30000
45407,30081
45391,30132
45383,30158
45345,30230
45293,30293
45230,30345
45158,30383
45132,30391
45081,30407
45050,30410
45020,30413
44979,30413
44949,30410
44918,30407
44867,30391
44841,30383
44769,30345
44706,30293
44654,30230
44616,30158
44608,30132
44592,30081
44584,30000
44592,29918
44616,29841
44616,29841
44654,29769
44706,29706
44769,29654
44841,29616
44867,29608
44918,29592
44949,29589
44979,29586
45020,29586
45050,29589
" /> 
<polyline style="fill-rule:evenodd;"
points="20050,29589
20081,29592
20132,29608
20158,29616
20230,29654
20293,29706
20345,29769
20383,29841
20383,29841
20407,29918
20415,30000
20407,30081
20391,30132
20383,30158
20345,30230
20293,30293
20230,30345
20158,30383
20132,30391
20081,30407
20050,30410
20020,30413
19979,30413
19949,30410
19918,30407
19867,30391
19841,30383
19769,30345
19706,30293
19654,30230
19616,30158
19608,30132
19592,30081
19584,30000
19592,29918
19616,29841
19616,29841
19654,29769
19706,29706
19769,29654
19841,29616
19867,29608
19918,29592
19949,29589
19979,29586
20020,29586
20050,29589
" /> 
<polyline style="fill-rule:evenodd;"
points="19050,29589
19081,29592
19132,29608
19158,29616
19230,29654
19293,29706
19345,29769
19383,29841
19383,29841
19407,29918
19415,30000
19407,30081
19391,30132
19383,30158
19345,30230
19293,30293
19230,30345
19158,30383
19132,30391
19081,30407
19050,30410
19020,30413
18979,30413
18949,30410
18918,30407
18867,30391
18841,30383
18769,30345
18706,30293
18654,30230
18616,30158
18608,30132
18592,30081
18584,30000
18592,29918
18616,29841
18616,29841
18654,29769
18706,29706
18769,29654
18841,29616
18867,29608
18918,29592
18949,29589
18979,29586
19020,29586
19050,29589
" /> 
<polyline style="fill-rule:evenodd;"
points="19050,28589
19081,28592
19132,28608
19158,28616
19230,28654
19293,28706
19345,28769
19383,28841
19383,28841
19407,28918
19415,29000
19407,29081
19391,29132
19383,29158
19345,29230
19293,29293
19230,29345
19158,29383
19132,29391
19081,29407
19050,29410
19020,29413
18979,29413
18949,29410
18918,29407
18867,29391
18841,29383
18769,29345
18706,29293
18654,29230
18616,29158
18608,29132
18592,29081
18584,29000
18592,28918
18616,28841
18616,28841
18654,28769
18706,28706
18769,28654
18841,28616
18867,28608
18918,28592
18949,28589
18979,28586
19020,28586
19050,28589
" /> 
<polyline style="fill-rule:evenodd;"
points="20050,28589
20081,28592
20132,28608
20158,28616
20230,28654
20293,28706
20345,28769
20383,28841
20383,28841
20407,28918
20415,29000
20407,29081
20391,29132
20383,29158
20345,29230
20293,29293
20230,29345
20158,29383
20132,29391
20081,29407
20050,29410
20020,29413
19979,29413
19949,29410
19918,29407
19867,29391
19841,29383
19769,29345
19706,29293
19654,29230
19616,29158
19608,29132
19592,29081
19584,29000
19592,28918
19616,28841
19616,28841
19654,28769
19706,28706
19769,28654
19841,28616
19867,28608
19918,28592
19949,28589
19979,28586
20020,28586
20050,28589
" /> 
<polyline style="fill-rule:evenodd;"
points="45050,28589
45081,28592
45132,28608
45158,28616
45230,28654
45293,28706
45345,28769
45383,28841
45383,28841
45407,28918
45415,29000
45407,29081
45391,29132
45383,29158
45345,29230
45293,29293
45230,29345
45158,29383
45132,29391
45081,29407
45050,29410
45020,29413
44979,29413
44949,29410
44918,29407
44867,29391
44841,29383
44769,29345
44706,29293
44654,29230
44616,29158
44608,29132
44592,29081
44584,29000
44592,28918
44616,28841
44616,28841
44654,28769
44706,28706
44769,28654
44841,28616
44867,28608
44918,28592
44949,28589
44979,28586
45020,28586
45050,28589
" /> 
<polyline style="fill-rule:evenodd;"
points="33550,28589
33581,28592
33632,28608
33658,28616
33730,28654
33793,28706
33845,28769
33883,28841
33883,28841
33907,28918
33915,29000
33907,29081
33891,29132
33883,29158
33845,29230
33793,29293
33730,29345
33658,29383
33632,29391
33581,29407
33550,29410
33520,29413
33479,29413
33449,29410
33418,29407
33367,29391
33341,29383
33269,29345
33206,29293
33154,29230
33116,29158
33108,29132
33092,29081
33084,29000
33092,28918
33116,28841
33116,28841
33154,28769
33206,28706
33269,28654
33341,28616
33367,28608
33418,28592
33449,28589
33479,28586
33520,28586
33550,28589
" /> 
<polyline style="fill-rule:evenodd;"
points="30350,27495
30446,27524
30535,27572
30613,27636
30677,27714
30725,27803
30754,27899
30764,28000
30754,28100
30725,28196
30677,28285
30613,28363
30535,28427
30446,28475
30350,28504
30275,28511
30224,28511
30149,28504
30053,28475
29964,28427
29886,28363
29822,28285
29774,28196
29745,28100
29735,28000
29745,27899
29774,27803
29822,27714
29886,27636
29964,27572
30053,27524
30149,27495
30224,27488
30275,27488
30350,27495
" /> 
<polyline style="fill-rule:evenodd;"
points="45413,28413
44586,28413
44586,27586
45413,27586
45413,28413
" /> 
<polyline style="fill-rule:evenodd;"
points="20050,27589
20081,27592
20132,27608
20158,27616
20230,27654
20293,27706
20345,27769
20383,27841
20383,27841
20407,27918
20415,28000
20407,28081
20401,28100
20383,28158
20345,28230
20293,28293
20230,28345
20158,28383
20132,28391
20081,28407
20050,28410
20020,28413
19979,28413
19949,28410
19918,28407
19867,28391
19841,28383
19769,28345
19706,28293
19654,28230
19616,28158
19598,28100
19592,28081
19584,28000
19592,27918
19616,27841
19616,27841
19654,27769
19706,27706
19769,27654
19841,27616
19867,27608
19918,27592
19949,27589
19979,27586
20020,27586
20050,27589
" /> 
<polyline style="fill-rule:evenodd;"
points="19050,27589
19081,27592
19132,27608
19158,27616
19230,27654
19293,27706
19345,27769
19383,27841
19383,27841
19407,27918
19415,28000
19407,28081
19401,28100
19383,28158
19345,28230
19293,28293
19230,28345
19158,28383
19132,28391
19081,28407
19050,28410
19020,28413
18979,28413
18949,28410
18918,28407
18867,28391
18841,28383
18769,28345
18706,28293
18654,28230
18616,28158
18598,28100
18592,28081
18584,28000
18592,27918
18616,27841
18616,27841
18654,27769
18706,27706
18769,27654
18841,27616
18867,27608
18918,27592
18949,27589
18979,27586
19020,27586
19050,27589
" /> 
<polyline style="fill-rule:evenodd;"
points="33913,28413
33086,28413
33086,27586
33913,27586
33913,28413
" /> 
<polyline style="fill-rule:evenodd;"
points="27757,27068
27824,27075
27932,27107
28031,27160
28118,27232
28189,27319
28242,27418
28275,27525
28286,27637
28275,27749
28242,27857
28189,27956
28118,28043
28031,28114
27932,28167
27824,28200
27757,28207
27740,28208
27684,28208
27667,28207
27600,28200
27493,28167
27393,28114
27306,28043
27235,27956
27182,27857
27149,27749
27138,27637
27149,27525
27182,27418
27235,27319
27306,27232
27393,27160
27493,27107
27600,27075
27667,27068
27684,27066
27740,27066
27757,27068
" /> 
<polyline style="fill-rule:evenodd;"
points="22954,27068
23021,27075
23128,27107
23228,27160
23315,27232
23386,27319
23439,27418
23472,27525
23483,27637
23472,27749
23439,27857
23386,27956
23315,28043
23228,28114
23128,28167
23021,28200
22954,28207
22937,28208
22881,28208
22864,28207
22797,28200
22689,28167
22590,28114
22503,28043
22432,27956
22379,27857
22346,27749
22335,27637
22346,27525
22379,27418
22432,27319
22503,27232
22590,27160
22689,27107
22797,27075
22864,27068
22881,27066
22937,27066
22954,27068
" /> 
<polyline style="fill-rule:evenodd;"
points="19050,26589
19081,26592
19132,26608
19158,26616
19230,26654
19293,26706
19345,26769
19383,26841
19383,26841
19407,26918
19415,27000
19407,27081
19391,27132
19383,27158
19345,27230
19293,27293
19230,27345
19158,27383
19132,27391
19081,27407
19050,27410
19020,27413
18979,27413
18949,27410
18918,27407
18867,27391
18841,27383
18769,27345
18706,27293
18654,27230
18616,27158
18608,27132
18592,27081
18584,27000
18592,26918
18616,26841
18616,26841
18654,26769
18706,26706
18769,26654
18841,26616
18867,26608
18918,26592
18949,26589
18979,26586
19020,26586
19050,26589
" /> 
<polyline style="fill-rule:evenodd;"
points="20050,26589
20081,26592
20132,26608
20158,26616
20230,26654
20293,26706
20345,26769
20383,26841
20383,26841
20407,26918
20415,27000
20407,27081
20391,27132
20383,27158
20345,27230
20293,27293
20230,27345
20158,27383
20132,27391
20081,27407
20050,27410
20020,27413
19979,27413
19949,27410
19918,27407
19867,27391
19841,27383
19769,27345
19706,27293
19654,27230
19616,27158
19608,27132
19592,27081
19584,27000
19592,26918
19616,26841
19616,26841
19654,26769
19706,26706
19769,26654
19841,26616
19867,26608
19918,26592
19949,26589
19979,26586
20020,26586
20050,26589
" /> 
<polyline style="fill-rule:evenodd;"
points="9603,19909
9667,19935
9725,19974
9775,20024
9814,20082
9840,20146
9854,20215
9854,20284
9840,20353
9814,20417
9775,20475
9725,20525
9667,20564
9603,20590
9534,20604
9465,20604
9396,20590
9332,20564
9274,20525
9224,20475
9185,20417
9159,20353
9145,20284
9145,20215
9159,20146
9185,20082
9224,20024
9274,19974
9332,19935
9396,19909
9465,19895
9534,19895
9603,19909
" /> 
<polyline style="fill-rule:evenodd;"
points="9569,16900
9636,16921
9697,16953
9751,16998
9796,17052
9828,17113
9849,17180
9856,17250
9849,17319
9828,17386
9796,17447
9751,17501
9697,17546
9636,17578
9569,17599
9517,17604
9482,17604
9430,17599
9363,17578
9302,17546
9248,17501
9203,17447
9171,17386
9150,17319
9143,17250
9150,17180
9171,17113
9203,17052
9248,16998
9302,16953
9363,16921
9430,16900
9482,16895
9517,16895
9569,16900
" /> 
<polyline style="fill-rule:evenodd;"
points="23603,13909
23667,13935
23725,13974
23775,14024
23814,14082
23840,14146
23854,14215
23854,14284
23840,14353
23814,14417
23775,14475
23725,14525
23667,14564
23603,14590
23534,14604
23465,14604
23396,14590
23332,14564
23274,14525
23224,14475
23185,14417
23159,14353
23145,14284
23145,14215
23159,14146
23185,14082
23224,14024
23274,13974
23332,13935
23396,13909
23465,13895
23534,13895
23603,13909
" /> 
<polyline style="fill-rule:evenodd;"
points="26569,13900
26636,13921
26697,13953
26751,13998
26796,14052
26828,14113
26849,14180
26856,14250
26849,14319
26828,14386
26796,14447
26751,14501
26697,14546
26636,14578
26569,14599
26517,14604
26482,14604
26430,14599
26363,14578
26302,14546
26248,14501
26203,14447
26171,14386
26150,14319
26143,14250
26150,14180
26171,14113
26203,14052
26248,13998
26302,13953
26363,13921
26430,13900
26482,13895
26517,13895
26569,13900
" /> 
<polyline style="fill-rule:evenodd;"
points="24584,12415
24666,12440
24666,12440
24741,12480
24807,12534
24861,12600
24902,12675
24926,12757
24933,12821
24933,13178
24926,13242
24902,13324
24861,13399
24807,13465
24741,13519
24666,13559
24666,13559
24584,13584
24500,13592
24415,13584
24333,13559
24333,13559
24258,13519
24192,13465
24138,13399
24116,13359
24097,13324
24073,13242
24066,13178
24066,12821
24073,12757
24097,12675
24097,12675
24138,12600
24192,12534
24258,12480
24333,12440
24333,12440
24415,12415
24500,12407
24584,12415
" /> 
<polyline style="fill-rule:evenodd;"
points="23584,12415
23666,12440
23666,12440
23741,12480
23807,12534
23861,12600
23902,12675
23926,12757
23933,12821
23933,13178
23926,13242
23902,13324
23861,13399
23807,13465
23741,13519
23666,13559
23666,13559
23584,13584
23500,13592
23415,13584
23333,13559
23333,13559
23258,13519
23192,13465
23138,13399
23116,13359
23097,13324
23073,13242
23066,13178
23066,12821
23073,12757
23097,12675
23097,12675
23138,12600
23192,12534
23258,12480
23333,12440
23333,12440
23415,12415
23500,12407
23584,12415
" /> 
<polyline style="fill-rule:evenodd;"
points="21584,12415
21666,12440
21666,12440
21741,12480
21807,12534
21861,12600
21902,12675
21926,12757
21933,12821
21933,13178
21926,13242
21902,13324
21861,13399
21807,13465
21741,13519
21666,13559
21666,13559
21584,13584
21500,13592
21415,13584
21333,13559
21333,13559
21258,13519
21192,13465
21138,13399
21116,13359
21097,13324
21073,13242
21066,13178
21066,12821
21073,12757
21097,12675
21097,12675
21138,12600
21192,12534
21258,12480
21333,12440
21333,12440
21415,12415
21500,12407
21584,12415
" /> 
<polyline style="fill-rule:evenodd;"
points="22584,12415
22666,12440
22666,12440
22741,12480
22807,12534
22861,12600
22902,12675
22926,12757
22933,12821
22933,13178
22926,13242
22902,13324
22861,13399
22807,13465
22741,13519
22666,13559
22666,13559
22584,13584
22500,13592
22415,13584
22333,13559
22333,13559
22258,13519
22192,13465
22138,13399
22116,13359
22097,13324
22073,13242
22066,13178
22066,12821
22073,12757
22097,12675
22097,12675
22138,12600
22192,12534
22258,12480
22333,12440
22333,12440
22415,12415
22500,12407
22584,12415
" /> 
<polyline style="fill-rule:evenodd;"
points="20584,12415
20666,12440
20666,12440
20741,12480
20807,12534
20861,12600
20902,12675
20926,12757
20933,12821
20933,13178
20926,13242
20902,13324
20861,13399
20807,13465
20741,13519
20666,13559
20666,13559
20584,13584
20500,13592
20415,13584
20333,13559
20333,13559
20258,13519
20192,13465
20138,13399
20116,13359
20097,13324
20073,13242
20066,13178
20066,12821
20073,12757
20097,12675
20097,12675
20138,12600
20192,12534
20258,12480
20333,12440
20333,12440
20415,12415
20500,12407
20584,12415
" /> 
<polyline style="fill-rule:evenodd;"
points="19584,12415
19666,12440
19666,12440
19741,12480
19807,12534
19861,12600
19902,12675
19926,12757
19933,12821
19933,13178
19926,13242
19902,13324
19861,13399
19807,13465
19741,13519
19666,13559
19666,13559
19584,13584
19500,13592
19415,13584
19333,13559
19333,13559
19258,13519
19192,13465
19138,13399
19116,13359
19097,13324
19073,13242
19066,13178
19066,12821
19073,12757
19097,12675
19097,12675
19138,12600
19192,12534
19258,12480
19333,12440
19333,12440
19415,12415
19500,12407
19584,12415
" /> 
<polyline style="fill-rule:evenodd;"
points="18584,12415
18666,12440
18666,12440
18741,12480
18807,12534
18861,12600
18902,12675
18926,12757
18933,12821
18933,13178
18926,13242
18902,13324
18861,13399
18807,13465
18741,13519
18666,13559
18666,13559
18584,13584
18500,13592
18415,13584
18333,13559
18333,13559
18258,13519
18192,13465
18138,13399
18116,13359
18097,13324
18073,13242
18066,13178
18066,12821
18073,12757
18097,12675
18097,12675
18138,12600
18192,12534
18258,12480
18333,12440
18333,12440
18415,12415
18500,12407
18584,12415
" /> 
<polyline style="fill-rule:evenodd;"
points="16584,12415
16666,12440
16666,12440
16741,12480
16807,12534
16861,12600
16902,12675
16926,12757
16933,12821
16933,13178
16926,13242
16902,13324
16861,13399
16807,13465
16741,13519
16666,13559
16666,13559
16584,13584
16500,13592
16415,13584
16333,13559
16333,13559
16258,13519
16192,13465
16138,13399
16116,13359
16097,13324
16073,13242
16066,13178
16066,12821
16073,12757
16097,12675
16097,12675
16138,12600
16192,12534
16258,12480
16333,12440
16333,12440
16415,12415
16500,12407
16584,12415
" /> 
<polyline style="fill-rule:evenodd;"
points="17584,12415
17666,12440
17666,12440
17741,12480
17807,12534
17861,12600
17902,12675
17926,12757
17933,12821
17933,13178
17926,13242
17902,13324
17861,13399
17807,13465
17741,13519
17666,13559
17666,13559
17584,13584
17500,13592
17415,13584
17333,13559
17333,13559
17258,13519
17192,13465
17138,13399
17116,13359
17097,13324
17073,13242
17066,13178
17066,12821
17073,12757
17097,12675
17097,12675
17138,12600
17192,12534
17258,12480
17333,12440
17333,12440
17415,12415
17500,12407
17584,12415
" /> 
<polyline style="fill-rule:evenodd;"
points="12584,12415
12666,12440
12666,12440
12741,12480
12807,12534
12861,12600
12902,12675
12926,12757
12933,12821
12933,13178
12926,13242
12902,13324
12861,13399
12807,13465
12741,13519
12666,13559
12666,13559
12584,13584
12500,13592
12415,13584
12333,13559
12333,13559
12258,13519
12192,13465
12138,13399
12116,13359
12097,13324
12073,13242
12066,13178
12066,12821
12073,12757
12097,12675
12097,12675
12138,12600
12192,12534
12258,12480
12333,12440
12333,12440
12415,12415
12500,12407
12584,12415
" /> 
<polyline style="fill-rule:evenodd;"
points="10584,12415
10666,12440
10666,12440
10741,12480
10807,12534
10861,12600
10902,12675
10926,12757
10933,12821
10933,13178
10926,13242
10902,13324
10861,13399
10807,13465
10741,13519
10666,13559
10666,13559
10584,13584
10500,13592
10415,13584
10333,13559
10333,13559
10258,13519
10192,13465
10138,13399
10116,13359
10097,13324
10073,13242
10066,13178
10066,12821
10073,12757
10097,12675
10097,12675
10138,12600
10192,12534
10258,12480
10333,12440
10333,12440
10415,12415
10500,12407
10584,12415
" /> 
<polyline style="fill-rule:evenodd;"
points="11584,12415
11666,12440
11666,12440
11741,12480
11807,12534
11861,12600
11902,12675
11926,12757
11933,12821
11933,13178
11926,13242
11902,13324
11861,13399
11807,13465
11741,13519
11666,13559
11666,13559
11584,13584
11500,13592
11415,13584
11333,13559
11333,13559
11258,13519
11192,13465
11138,13399
11116,13359
11097,13324
11073,13242
11066,13178
11066,12821
11073,12757
11097,12675
11097,12675
11138,12600
11192,12534
11258,12480
11333,12440
11333,12440
11415,12415
11500,12407
11584,12415
" /> 
<polyline style="fill-rule:evenodd;"
points="13584,12415
13666,12440
13666,12440
13741,12480
13807,12534
13861,12600
13902,12675
13926,12757
13933,12821
13933,13178
13926,13242
13902,13324
13861,13399
13807,13465
13741,13519
13666,13559
13666,13559
13584,13584
13500,13592
13415,13584
13333,13559
13333,13559
13258,13519
13192,13465
13138,13399
13116,13359
13097,13324
13073,13242
13066,13178
13066,12821
13073,12757
13097,12675
13097,12675
13138,12600
13192,12534
13258,12480
13333,12440
13333,12440
13415,12415
13500,12407
13584,12415
" /> 
<polyline style="fill-rule:evenodd;"
points="14584,12415
14666,12440
14666,12440
14741,12480
14807,12534
14861,12600
14902,12675
14926,12757
14933,12821
14933,13178
14926,13242
14902,13324
14861,13399
14807,13465
14741,13519
14666,13559
14666,13559
14584,13584
14500,13592
14415,13584
14333,13559
14333,13559
14258,13519
14192,13465
14138,13399
14116,13359
14097,13324
14073,13242
14066,13178
14066,12821
14073,12757
14097,12675
14097,12675
14138,12600
14192,12534
14258,12480
14333,12440
14333,12440
14415,12415
14500,12407
14584,12415
" /> 
<polyline style="fill-rule:evenodd;"
points="15584,12415
15666,12440
15666,12440
15741,12480
15807,12534
15861,12600
15902,12675
15926,12757
15933,12821
15933,13178
15926,13242
15902,13324
15861,13399
15807,13465
15741,13519
15666,13559
15666,13559
15584,13584
15500,13592
15415,13584
15333,13559
15333,13559
15258,13519
15192,13465
15138,13399
15116,13359
15097,13324
15073,13242
15066,13178
15066,12821
15073,12757
15097,12675
15097,12675
15138,12600
15192,12534
15258,12480
15333,12440
15333,12440
15415,12415
15500,12407
15584,12415
" /> 
<polyline style="fill-rule:evenodd;"
points="9933,13590
9066,13590
9066,12409
9933,12409
9933,13590
" /> 
<polyline style="fill-rule:evenodd;"
points="30878,9972
30688,9972
30678,9973
30669,9976
30660,9980
30653,9986
30647,9994
30642,10002
30639,10012
30639,10021
30639,10031
30642,10040
30647,10048
30653,10056
30665,10065
30711,10089
30769,10137
30816,10194
30851,10260
30873,10332
30878,10387
30878,10612
30873,10667
30851,10739
30816,10805
30769,10862
30711,10910
30645,10945
30574,10966
30500,10974
30425,10966
30354,10945
30288,10910
30230,10862
30183,10805
30148,10739
30126,10667
30121,10612
30121,10387
30126,10332
30148,10260
30183,10194
30230,10137
30288,10089
30334,10065
30343,10059
30349,10052
30355,10044
30358,10035
30360,10026
30360,10016
30358,10007
30355,9998
30349,9990
30343,9983
30334,9978
30326,9974
30311,9972
30121,9972
30121,9027
30878,9027
30878,9972
" /> 
<polyline style="fill-rule:evenodd;"
points="29574,9033
29645,9054
29711,9089
29769,9137
29816,9194
29851,9260
29873,9332
29878,9387
29878,9612
29873,9667
29851,9739
29816,9805
29769,9862
29711,9910
29645,9945
29620,9952
29611,9956
29603,9961
29596,9968
29591,9976
29587,9985
29585,9995
29585,10004
29587,10014
29591,10023
29596,10031
29603,10038
29611,10043
29620,10047
29645,10054
29711,10089
29769,10137
29816,10194
29851,10260
29873,10332
29878,10387
29878,10612
29873,10667
29851,10739
29816,10805
29769,10862
29711,10910
29645,10945
29574,10966
29500,10974
29425,10966
29354,10945
29288,10910
29230,10862
29183,10805
29148,10739
29126,10667
29121,10612
29121,10387
29126,10332
29148,10260
29183,10194
29230,10137
29288,10089
29354,10054
29379,10047
29388,10043
29396,10038
29403,10031
29408,10023
29412,10014
29414,10004
29414,9995
29412,9985
29408,9976
29403,9968
29396,9961
29388,9956
29379,9952
29354,9945
29288,9910
29230,9862
29183,9805
29148,9739
29126,9667
29121,9612
29121,9387
29126,9332
29148,9260
29183,9194
29230,9137
29288,9089
29354,9054
29425,9033
29500,9025
29574,9033
" /> 
<polyline style="fill-rule:evenodd;"
points="28574,9033
28645,9054
28711,9089
28769,9137
28816,9194
28851,9260
28873,9332
28878,9387
28878,9612
28873,9667
28851,9739
28816,9805
28769,9862
28711,9910
28645,9945
28620,9952
28611,9956
28603,9961
28596,9968
28591,9976
28587,9985
28585,9995
28585,10004
28587,10014
28591,10023
28596,10031
28603,10038
28611,10043
28620,10047
28645,10054
28711,10089
28769,10137
28816,10194
28851,10260
28873,10332
28878,10387
28878,10612
28873,10667
28851,10739
28816,10805
28769,10862
28711,10910
28645,10945
28574,10966
28500,10974
28425,10966
28354,10945
28288,10910
28230,10862
28183,10805
28148,10739
28126,10667
28121,10612
28121,10387
28126,10332
28148,10260
28183,10194
28230,10137
28288,10089
28354,10054
28379,10047
28388,10043
28396,10038
28403,10031
28408,10023
28412,10014
28414,10004
28414,9995
28412,9985
28408,9976
28403,9968
28396,9961
28388,9956
28379,9952
28354,9945
28288,9910
28230,9862
28183,9805
28148,9739
28126,9667
28121,9612
28121,9387
28126,9332
28148,9260
28183,9194
28230,9137
28288,9089
28354,9054
28425,9033
28500,9025
28574,9033
" /> 
<polyline style="fill-rule:evenodd;"
points="27574,9033
27645,9054
27711,9089
27769,9137
27816,9194
27851,9260
27873,9332
27878,9387
27878,9612
27873,9667
27851,9739
27816,9805
27769,9862
27711,9910
27645,9945
27620,9952
27611,9956
27603,9961
27596,9968
27591,9976
27587,9985
27585,9995
27585,10004
27587,10014
27591,10023
27596,10031
27603,10038
27611,10043
27620,10047
27645,10054
27711,10089
27769,10137
27816,10194
27851,10260
27873,10332
27878,10387
27878,10612
27873,10667
27851,10739
27816,10805
27769,10862
27711,10910
27645,10945
27574,10966
27500,10974
27425,10966
27354,10945
27288,10910
27230,10862
27183,10805
27148,10739
27126,10667
27121,10612
27121,10387
27126,10332
27148,10260
27183,10194
27230,10137
27288,10089
27354,10054
27379,10047
27388,10043
27396,10038
27403,10031
27408,10023
27412,10014
27414,10004
27414,9995
27412,9985
27408,9976
27403,9968
27396,9961
27388,9956
27379,9952
27354,9945
27288,9910
27230,9862
27183,9805
27148,9739
27126,9667
27121,9612
27121,9387
27126,9332
27148,9260
27183,9194
27230,9137
27288,9089
27354,9054
27425,9033
27500,9025
27574,9033
" /> 
<polyline style="fill-rule:evenodd;"
points="11574,9033
11645,9054
11711,9089
11769,9137
11816,9194
11851,9260
11873,9332
11878,9387
11878,9612
11873,9667
11851,9739
11816,9805
11769,9862
11711,9910
11645,9945
11620,9952
11611,9956
11603,9961
11596,9968
11591,9976
11587,9985
11585,9995
11585,10004
11587,10014
11591,10023
11596,10031
11603,10038
11611,10043
11620,10047
11645,10054
11711,10089
11769,10137
11816,10194
11851,10260
11873,10332
11878,10387
11878,10612
11873,10667
11851,10739
11816,10805
11769,10862
11711,10910
11645,10945
11574,10966
11500,10974
11425,10966
11354,10945
11288,10910
11230,10862
11183,10805
11148,10739
11126,10667
11121,10612
11121,10387
11126,10332
11148,10260
11183,10194
11230,10137
11288,10089
11354,10054
11379,10047
11388,10043
11396,10038
11403,10031
11408,10023
11412,10014
11414,10004
11414,9995
11412,9985
11408,9976
11403,9968
11396,9961
11388,9956
11379,9952
11354,9945
11288,9910
11230,9862
11183,9805
11148,9739
11126,9667
11121,9612
11121,9387
11126,9332
11148,9260
11183,9194
11230,9137
11288,9089
11354,9054
11425,9033
11500,9025
11574,9033
" /> 
<polyline style="fill-rule:evenodd;"
points="12574,9033
12645,9054
12711,9089
12769,9137
12816,9194
12851,9260
12873,9332
12878,9387
12878,9612
12873,9667
12851,9739
12816,9805
12769,9862
12711,9910
12645,9945
12620,9952
12611,9956
12603,9961
12596,9968
12591,9976
12587,9985
12585,9995
12585,10004
12587,10014
12591,10023
12596,10031
12603,10038
12611,10043
12620,10047
12645,10054
12711,10089
12769,10137
12816,10194
12851,10260
12873,10332
12878,10387
12878,10612
12873,10667
12851,10739
12816,10805
12769,10862
12711,10910
12645,10945
12574,10966
12500,10974
12425,10966
12354,10945
12288,10910
12230,10862
12183,10805
12148,10739
12126,10667
12121,10612
12121,10387
12126,10332
12148,10260
12183,10194
12230,10137
12288,10089
12354,10054
12379,10047
12388,10043
12396,10038
12403,10031
12408,10023
12412,10014
12414,10004
12414,9995
12412,9985
12408,9976
12403,9968
12396,9961
12388,9956
12379,9952
12354,9945
12288,9910
12230,9862
12183,9805
12148,9739
12126,9667
12121,9612
12121,9387
12126,9332
12148,9260
12183,9194
12230,9137
12288,9089
12354,9054
12425,9033
12500,9025
12574,9033
" /> 
<polyline style="fill-rule:evenodd;"
points="13574,9033
13645,9054
13711,9089
13769,9137
13816,9194
13851,9260
13873,9332
13878,9387
13878,9612
13873,9667
13851,9739
13816,9805
13769,9862
13711,9910
13645,9945
13620,9952
13611,9956
13603,9961
13596,9968
13591,9976
13587,9985
13585,9995
13585,10004
13587,10014
13591,10023
13596,10031
13603,10038
13611,10043
13620,10047
13645,10054
13711,10089
13769,10137
13816,10194
13851,10260
13873,10332
13878,10387
13878,10612
13873,10667
13851,10739
13816,10805
13769,10862
13711,10910
13645,10945
13574,10966
13500,10974
13425,10966
13354,10945
13288,10910
13230,10862
13183,10805
13148,10739
13126,10667
13121,10612
13121,10387
13126,10332
13148,10260
13183,10194
13230,10137
13288,10089
13354,10054
13379,10047
13388,10043
13396,10038
13403,10031
13408,10023
13412,10014
13414,10004
13414,9995
13412,9985
13408,9976
13403,9968
13396,9961
13388,9956
13379,9952
13354,9945
13288,9910
13230,9862
13183,9805
13148,9739
13126,9667
13121,9612
13121,9387
13126,9332
13148,9260
13183,9194
13230,9137
13288,9089
13354,9054
13425,9033
13500,9025
13574,9033
" /> 
<polyline style="fill-rule:evenodd;"
points="14574,9033
14645,9054
14711,9089
14769,9137
14816,9194
14851,9260
14873,9332
14878,9387
14878,9612
14873,9667
14851,9739
14816,9805
14769,9862
14711,9910
14645,9945
14620,9952
14611,9956
14603,9961
14596,9968
14591,9976
14587,9985
14585,9995
14585,10004
14587,10014
14591,10023
14596,10031
14603,10038
14611,10043
14620,10047
14645,10054
14711,10089
14769,10137
14816,10194
14851,10260
14873,10332
14878,10387
14878,10612
14873,10667
14851,10739
14816,10805
14769,10862
14711,10910
14645,10945
14574,10966
14500,10974
14425,10966
14354,10945
14288,10910
14230,10862
14183,10805
14148,10739
14126,10667
14121,10612
14121,10387
14126,10332
14148,10260
14183,10194
14230,10137
14288,10089
14354,10054
14379,10047
14388,10043
14396,10038
14403,10031
14408,10023
14412,10014
14414,10004
14414,9995
14412,9985
14408,9976
14403,9968
14396,9961
14388,9956
14379,9952
14354,9945
14288,9910
14230,9862
14183,9805
14148,9739
14126,9667
14121,9612
14121,9387
14126,9332
14148,9260
14183,9194
14230,9137
14288,9089
14354,9054
14425,9033
14500,9025
14574,9033
" /> 
<polyline style="fill-rule:evenodd;"
points="15574,9033
15645,9054
15711,9089
15769,9137
15816,9194
15851,9260
15873,9332
15878,9387
15878,9612
15873,9667
15851,9739
15816,9805
15769,9862
15711,9910
15645,9945
15620,9952
15611,9956
15603,9961
15596,9968
15591,9976
15587,9985
15585,9995
15585,10004
15587,10014
15591,10023
15596,10031
15603,10038
15611,10043
15620,10047
15645,10054
15711,10089
15769,10137
15816,10194
15851,10260
15873,10332
15878,10387
15878,10612
15873,10667
15851,10739
15816,10805
15769,10862
15711,10910
15645,10945
15574,10966
15500,10974
15425,10966
15354,10945
15288,10910
15230,10862
15183,10805
15148,10739
15126,10667
15121,10612
15121,10387
15126,10332
15148,10260
15183,10194
15230,10137
15288,10089
15354,10054
15379,10047
15388,10043
15396,10038
15403,10031
15408,10023
15412,10014
15414,10004
15414,9995
15412,9985
15408,9976
15403,9968
15396,9961
15388,9956
15379,9952
15354,9945
15288,9910
15230,9862
15183,9805
15148,9739
15126,9667
15121,9612
15121,9387
15126,9332
15148,9260
15183,9194
15230,9137
15288,9089
15354,9054
15425,9033
15500,9025
15574,9033
" /> 
<polyline style="fill-rule:evenodd;"
points="16574,9033
16645,9054
16711,9089
16769,9137
16816,9194
16851,9260
16873,9332
16878,9387
16878,9612
16873,9667
16851,9739
16816,9805
16769,9862
16711,9910
16645,9945
16620,9952
16611,9956
16603,9961
16596,9968
16591,9976
16587,9985
16585,9995
16585,10004
16587,10014
16591,10023
16596,10031
16603,10038
16611,10043
16620,10047
16645,10054
16711,10089
16769,10137
16816,10194
16851,10260
16873,10332
16878,10387
16878,10612
16873,10667
16851,10739
16816,10805
16769,10862
16711,10910
16645,10945
16574,10966
16500,10974
16425,10966
16354,10945
16288,10910
16230,10862
16183,10805
16148,10739
16126,10667
16121,10612
16121,10387
16126,10332
16148,10260
16183,10194
16230,10137
16288,10089
16354,10054
16379,10047
16388,10043
16396,10038
16403,10031
16408,10023
16412,10014
16414,10004
16414,9995
16412,9985
16408,9976
16403,9968
16396,9961
16388,9956
16379,9952
16354,9945
16288,9910
16230,9862
16183,9805
16148,9739
16126,9667
16121,9612
16121,9387
16126,9332
16148,9260
16183,9194
16230,9137
16288,9089
16354,9054
16425,9033
16500,9025
16574,9033
" /> 
<polyline style="fill-rule:evenodd;"
points="18574,9033
18645,9054
18711,9089
18769,9137
18816,9194
18851,9260
18873,9332
18878,9387
18878,9612
18873,9667
18851,9739
18816,9805
18769,9862
18711,9910
18645,9945
18620,9952
18611,9956
18603,9961
18596,9968
18591,9976
18587,9985
18585,9995
18585,10004
18587,10014
18591,10023
18596,10031
18603,10038
18611,10043
18620,10047
18645,10054
18711,10089
18769,10137
18816,10194
18851,10260
18873,10332
18878,10387
18878,10612
18873,10667
18851,10739
18816,10805
18769,10862
18711,10910
18645,10945
18574,10966
18500,10974
18425,10966
18354,10945
18288,10910
18230,10862
18183,10805
18148,10739
18126,10667
18121,10612
18121,10387
18126,10332
18148,10260
18183,10194
18230,10137
18288,10089
18354,10054
18379,10047
18388,10043
18396,10038
18403,10031
18408,10023
18412,10014
18414,10004
18414,9995
18412,9985
18408,9976
18403,9968
18396,9961
18388,9956
18379,9952
18354,9945
18288,9910
18230,9862
18183,9805
18148,9739
18126,9667
18121,9612
18121,9387
18126,9332
18148,9260
18183,9194
18230,9137
18288,9089
18354,9054
18425,9033
18500,9025
18574,9033
" /> 
<polyline style="fill-rule:evenodd;"
points="26574,9033
26645,9054
26711,9089
26769,9137
26816,9194
26851,9260
26873,9332
26878,9387
26878,9612
26873,9667
26851,9739
26816,9805
26769,9862
26711,9910
26645,9945
26620,9952
26611,9956
26603,9961
26596,9968
26591,9976
26587,9985
26585,9995
26585,10004
26587,10014
26591,10023
26596,10031
26603,10038
26611,10043
26620,10047
26645,10054
26711,10089
26769,10137
26816,10194
26851,10260
26873,10332
26878,10387
26878,10612
26873,10667
26851,10739
26816,10805
26769,10862
26711,10910
26645,10945
26574,10966
26500,10974
26425,10966
26354,10945
26288,10910
26230,10862
26183,10805
26148,10739
26126,10667
26121,10612
26121,10387
26126,10332
26148,10260
26183,10194
26230,10137
26288,10089
26354,10054
26379,10047
26388,10043
26396,10038
26403,10031
26408,10023
26412,10014
26414,10004
26414,9995
26412,9985
26408,9976
26403,9968
26396,9961
26388,9956
26379,9952
26354,9945
26288,9910
26230,9862
26183,9805
26148,9739
26126,9667
26121,9612
26121,9387
26126,9332
26148,9260
26183,9194
26230,9137
26288,9089
26354,9054
26425,9033
26500,9025
26574,9033
" /> 
<polyline style="fill-rule:evenodd;"
points="25574,9033
25645,9054
25711,9089
25769,9137
25816,9194
25851,9260
25873,9332
25878,9387
25878,9612
25873,9667
25851,9739
25816,9805
25769,9862
25711,9910
25645,9945
25620,9952
25611,9956
25603,9961
25596,9968
25591,9976
25587,9985
25585,9995
25585,10004
25587,10014
25591,10023
25596,10031
25603,10038
25611,10043
25620,10047
25645,10054
25711,10089
25769,10137
25816,10194
25851,10260
25873,10332
25878,10387
25878,10612
25873,10667
25851,10739
25816,10805
25769,10862
25711,10910
25645,10945
25574,10966
25500,10974
25425,10966
25354,10945
25288,10910
25230,10862
25183,10805
25148,10739
25126,10667
25121,10612
25121,10387
25126,10332
25148,10260
25183,10194
25230,10137
25288,10089
25354,10054
25379,10047
25388,10043
25396,10038
25403,10031
25408,10023
25412,10014
25414,10004
25414,9995
25412,9985
25408,9976
25403,9968
25396,9961
25388,9956
25379,9952
25354,9945
25288,9910
25230,9862
25183,9805
25148,9739
25126,9667
25121,9612
25121,9387
25126,9332
25148,9260
25183,9194
25230,9137
25288,9089
25354,9054
25425,9033
25500,9025
25574,9033
" /> 
<polyline style="fill-rule:evenodd;"
points="24574,9033
24645,9054
24711,9089
24769,9137
24816,9194
24851,9260
24873,9332
24878,9387
24878,9612
24873,9667
24851,9739
24816,9805
24769,9862
24711,9910
24645,9945
24620,9952
24611,9956
24603,9961
24596,9968
24591,9976
24587,9985
24585,9995
24585,10004
24587,10014
24591,10023
24596,10031
24603,10038
24611,10043
24620,10047
24645,10054
24711,10089
24769,10137
24816,10194
24851,10260
24873,10332
24878,10387
24878,10612
24873,10667
24851,10739
24816,10805
24769,10862
24711,10910
24645,10945
24574,10966
24500,10974
24425,10966
24354,10945
24288,10910
24230,10862
24183,10805
24148,10739
24126,10667
24121,10612
24121,10387
24126,10332
24148,10260
24183,10194
24230,10137
24288,10089
24354,10054
24379,10047
24388,10043
24396,10038
24403,10031
24408,10023
24412,10014
24414,10004
24414,9995
24412,9985
24408,9976
24403,9968
24396,9961
24388,9956
24379,9952
24354,9945
24288,9910
24230,9862
24183,9805
24148,9739
24126,9667
24121,9612
24121,9387
24126,9332
24148,9260
24183,9194
24230,9137
24288,9089
24354,9054
24425,9033
24500,9025
24574,9033
" /> 
<polyline style="fill-rule:evenodd;"
points="23574,9033
23645,9054
23711,9089
23769,9137
23816,9194
23851,9260
23873,9332
23878,9387
23878,9612
23873,9667
23851,9739
23816,9805
23769,9862
23711,9910
23645,9945
23620,9952
23611,9956
23603,9961
23596,9968
23591,9976
23587,9985
23585,9995
23585,10004
23587,10014
23591,10023
23596,10031
23603,10038
23611,10043
23620,10047
23645,10054
23711,10089
23769,10137
23816,10194
23851,10260
23873,10332
23878,10387
23878,10612
23873,10667
23851,10739
23816,10805
23769,10862
23711,10910
23645,10945
23574,10966
23500,10974
23425,10966
23354,10945
23288,10910
23230,10862
23183,10805
23148,10739
23126,10667
23121,10612
23121,10387
23126,10332
23148,10260
23183,10194
23230,10137
23288,10089
23354,10054
23379,10047
23388,10043
23396,10038
23403,10031
23408,10023
23412,10014
23414,10004
23414,9995
23412,9985
23408,9976
23403,9968
23396,9961
23388,9956
23379,9952
23354,9945
23288,9910
23230,9862
23183,9805
23148,9739
23126,9667
23121,9612
23121,9387
23126,9332
23148,9260
23183,9194
23230,9137
23288,9089
23354,9054
23425,9033
23500,9025
23574,9033
" /> 
<polyline style="fill-rule:evenodd;"
points="22574,9033
22645,9054
22711,9089
22769,9137
22816,9194
22851,9260
22873,9332
22878,9387
22878,9612
22873,9667
22851,9739
22816,9805
22769,9862
22711,9910
22645,9945
22620,9952
22611,9956
22603,9961
22596,9968
22591,9976
22587,9985
22585,9995
22585,10004
22587,10014
22591,10023
22596,10031
22603,10038
22611,10043
22620,10047
22645,10054
22711,10089
22769,10137
22816,10194
22851,10260
22873,10332
22878,10387
22878,10612
22873,10667
22851,10739
22816,10805
22769,10862
22711,10910
22645,10945
22574,10966
22500,10974
22425,10966
22354,10945
22288,10910
22230,10862
22183,10805
22148,10739
22126,10667
22121,10612
22121,10387
22126,10332
22148,10260
22183,10194
22230,10137
22288,10089
22354,10054
22379,10047
22388,10043
22396,10038
22403,10031
22408,10023
22412,10014
22414,10004
22414,9995
22412,9985
22408,9976
22403,9968
22396,9961
22388,9956
22379,9952
22354,9945
22288,9910
22230,9862
22183,9805
22148,9739
22126,9667
22121,9612
22121,9387
22126,9332
22148,9260
22183,9194
22230,9137
22288,9089
22354,9054
22425,9033
22500,9025
22574,9033
" /> 
<polyline style="fill-rule:evenodd;"
points="21574,9033
21645,9054
21711,9089
21769,9137
21816,9194
21851,9260
21873,9332
21878,9387
21878,9612
21873,9667
21851,9739
21816,9805
21769,9862
21711,9910
21645,9945
21620,9952
21611,9956
21603,9961
21596,9968
21591,9976
21587,9985
21585,9995
21585,10004
21587,10014
21591,10023
21596,10031
21603,10038
21611,10043
21620,10047
21645,10054
21711,10089
21769,10137
21816,10194
21851,10260
21873,10332
21878,10387
21878,10612
21873,10667
21851,10739
21816,10805
21769,10862
21711,10910
21645,10945
21574,10966
21500,10974
21425,10966
21354,10945
21288,10910
21230,10862
21183,10805
21148,10739
21126,10667
21121,10612
21121,10387
21126,10332
21148,10260
21183,10194
21230,10137
21288,10089
21354,10054
21379,10047
21388,10043
21396,10038
21403,10031
21408,10023
21412,10014
21414,10004
21414,9995
21412,9985
21408,9976
21403,9968
21396,9961
21388,9956
21379,9952
21354,9945
21288,9910
21230,9862
21183,9805
21148,9739
21126,9667
21121,9612
21121,9387
21126,9332
21148,9260
21183,9194
21230,9137
21288,9089
21354,9054
21425,9033
21500,9025
21574,9033
" /> 
<polyline style="fill-rule:evenodd;"
points="20574,9033
20645,9054
20711,9089
20769,9137
20816,9194
20851,9260
20873,9332
20878,9387
20878,9612
20873,9667
20851,9739
20816,9805
20769,9862
20711,9910
20645,9945
20620,9952
20611,9956
20603,9961
20596,9968
20591,9976
20587,9985
20585,9995
20585,10004
20587,10014
20591,10023
20596,10031
20603,10038
20611,10043
20620,10047
20645,10054
20711,10089
20769,10137
20816,10194
20851,10260
20873,10332
20878,10387
20878,10612
20873,10667
20851,10739
20816,10805
20769,10862
20711,10910
20645,10945
20574,10966
20500,10974
20425,10966
20354,10945
20288,10910
20230,10862
20183,10805
20148,10739
20126,10667
20121,10612
20121,10387
20126,10332
20148,10260
20183,10194
20230,10137
20288,10089
20354,10054
20379,10047
20388,10043
20396,10038
20403,10031
20408,10023
20412,10014
20414,10004
20414,9995
20412,9985
20408,9976
20403,9968
20396,9961
20388,9956
20379,9952
20354,9945
20288,9910
20230,9862
20183,9805
20148,9739
20126,9667
20121,9612
20121,9387
20126,9332
20148,9260
20183,9194
20230,9137
20288,9089
20354,9054
20425,9033
20500,9025
20574,9033
" /> 
<polyline style="fill-rule:evenodd;"
points="19574,9033
19645,9054
19711,9089
19769,9137
19816,9194
19851,9260
19873,9332
19878,9387
19878,9612
19873,9667
19851,9739
19816,9805
19769,9862
19711,9910
19645,9945
19620,9952
19611,9956
19603,9961
19596,9968
19591,9976
19587,9985
19585,9995
19585,10004
19587,10014
19591,10023
19596,10031
19603,10038
19611,10043
19620,10047
19645,10054
19711,10089
19769,10137
19816,10194
19851,10260
19873,10332
19878,10387
19878,10612
19873,10667
19851,10739
19816,10805
19769,10862
19711,10910
19645,10945
19574,10966
19500,10974
19425,10966
19354,10945
19288,10910
19230,10862
19183,10805
19148,10739
19126,10667
19121,10612
19121,10387
19126,10332
19148,10260
19183,10194
19230,10137
19288,10089
19354,10054
19379,10047
19388,10043
19396,10038
19403,10031
19408,10023
19412,10014
19414,10004
19414,9995
19412,9985
19408,9976
19403,9968
19396,9961
19388,9956
19379,9952
19354,9945
19288,9910
19230,9862
19183,9805
19148,9739
19126,9667
19121,9612
19121,9387
19126,9332
19148,9260
19183,9194
19230,9137
19288,9089
19354,9054
19425,9033
19500,9025
19574,9033
" /> 
<polyline style="fill-rule:evenodd;"
points="17574,9033
17645,9054
17711,9089
17769,9137
17816,9194
17851,9260
17873,9332
17878,9387
17878,9612
17873,9667
17851,9739
17816,9805
17769,9862
17711,9910
17645,9945
17620,9952
17611,9956
17603,9961
17596,9968
17591,9976
17587,9985
17585,9995
17585,10004
17587,10014
17591,10023
17596,10031
17603,10038
17611,10043
17620,10047
17645,10054
17711,10089
17769,10137
17816,10194
17851,10260
17873,10332
17878,10387
17878,10612
17873,10667
17851,10739
17816,10805
17769,10862
17711,10910
17645,10945
17574,10966
17500,10974
17425,10966
17354,10945
17288,10910
17230,10862
17183,10805
17148,10739
17126,10667
17121,10612
17121,10387
17126,10332
17148,10260
17183,10194
17230,10137
17288,10089
17354,10054
17379,10047
17388,10043
17396,10038
17403,10031
17408,10023
17412,10014
17414,10004
17414,9995
17412,9985
17408,9976
17403,9968
17396,9961
17388,9956
17379,9952
17354,9945
17288,9910
17230,9862
17183,9805
17148,9739
17126,9667
17121,9612
17121,9387
17126,9332
17148,9260
17183,9194
17230,9137
17288,9089
17354,9054
17425,9033
17500,9025
17574,9033
" /> 
<polyline style="fill-rule:evenodd;"
points="9605,9901
9671,9929
9730,9968
9781,10019
9820,10078
9848,10144
9862,10214
9862,10285
9848,10355
9820,10421
9781,10480
9730,10531
9671,10570
9605,10598
9535,10612
9464,10612
9394,10598
9328,10570
9269,10531
9218,10480
9179,10421
9151,10355
9137,10285
9137,10214
9151,10144
9179,10078
9218,10019
9269,9968
9328,9929
9394,9901
9464,9887
9535,9887
9605,9901
" /> 
<polyline style="fill-rule:evenodd;"
points="9605,8901
9671,8929
9730,8968
9781,9019
9820,9078
9848,9144
9862,9214
9862,9285
9848,9355
9820,9421
9781,9480
9730,9531
9671,9570
9605,9598
9535,9612
9464,9612
9394,9598
9328,9570
9269,9531
9218,9480
9179,9421
9151,9355
9137,9285
9137,9214
9151,9144
9179,9078
9218,9019
9269,8968
9328,8929
9394,8901
9464,8887
9535,8887
9605,8901
" /> 
<polyline style="fill-rule:evenodd;"
points="9605,7901
9671,7929
9730,7968
9781,8019
9820,8078
9848,8144
9862,8214
9862,8285
9848,8355
9820,8421
9781,8480
9730,8531
9671,8570
9605,8598
9535,8612
9464,8612
9394,8598
9328,8570
9269,8531
9218,8480
9179,8421
9151,8355
9137,8285
9137,8214
9151,8144
9179,8078
9218,8019
9269,7968
9328,7929
9394,7901
9464,7887
9535,7887
9605,7901
" /> 
<polyline style="fill-rule:evenodd;"
points="12550,7589
12581,7592
12632,7608
12658,7616
12730,7654
12793,7706
12845,7769
12883,7841
12883,7841
12907,7918
12915,8000
12907,8081
12891,8132
12883,8158
12845,8230
12793,8293
12730,8345
12658,8383
12632,8391
12581,8407
12550,8410
12520,8413
12479,8413
12449,8410
12418,8407
12367,8391
12341,8383
12269,8345
12206,8293
12154,8230
12116,8158
12108,8132
12092,8081
12084,8000
12092,7918
12116,7841
12116,7841
12154,7769
12206,7706
12269,7654
12341,7616
12367,7608
12418,7592
12449,7589
12479,7586
12520,7586
12550,7589
" /> 
<polyline style="fill-rule:evenodd;"
points="16913,8413
16086,8413
16086,7586
16913,7586
16913,8413
" /> 
<polyline style="fill-rule:evenodd;"
points="15550,7589
15581,7592
15632,7608
15658,7616
15730,7654
15793,7706
15845,7769
15883,7841
15883,7841
15907,7918
15915,8000
15907,8081
15891,8132
15883,8158
15845,8230
15793,8293
15730,8345
15658,8383
15632,8391
15581,8407
15550,8410
15520,8413
15479,8413
15449,8410
15418,8407
15367,8391
15341,8383
15269,8345
15206,8293
15154,8230
15116,8158
15108,8132
15092,8081
15084,8000
15092,7918
15116,7841
15116,7841
15154,7769
15206,7706
15269,7654
15341,7616
15367,7608
15418,7592
15449,7589
15479,7586
15520,7586
15550,7589
" /> 
<polyline style="fill-rule:evenodd;"
points="14550,7589
14581,7592
14632,7608
14658,7616
14730,7654
14793,7706
14845,7769
14883,7841
14883,7841
14907,7918
14915,8000
14907,8081
14891,8132
14883,8158
14845,8230
14793,8293
14730,8345
14658,8383
14632,8391
14581,8407
14550,8410
14520,8413
14479,8413
14449,8410
14418,8407
14367,8391
14341,8383
14269,8345
14206,8293
14154,8230
14116,8158
14108,8132
14092,8081
14084,8000
14092,7918
14116,7841
14116,7841
14154,7769
14206,7706
14269,7654
14341,7616
14367,7608
14418,7592
14449,7589
14479,7586
14520,7586
14550,7589
" /> 
<polyline style="fill-rule:evenodd;"
points="13550,7589
13581,7592
13632,7608
13658,7616
13730,7654
13793,7706
13845,7769
13883,7841
13883,7841
13907,7918
13915,8000
13907,8081
13891,8132
13883,8158
13845,8230
13793,8293
13730,8345
13658,8383
13632,8391
13581,8407
13550,8410
13520,8413
13479,8413
13449,8410
13418,8407
13367,8391
13341,8383
13269,8345
13206,8293
13154,8230
13116,8158
13108,8132
13092,8081
13084,8000
13092,7918
13116,7841
13116,7841
13154,7769
13206,7706
13269,7654
13341,7616
13367,7608
13418,7592
13449,7589
13479,7586
13520,7586
13550,7589
" /> 
<polyline style="fill-rule:evenodd;"
points="11550,7589
11581,7592
11632,7608
11658,7616
11730,7654
11793,7706
11845,7769
11883,7841
11883,7841
11907,7918
11915,8000
11907,8081
11891,8132
11883,8158
11845,8230
11793,8293
11730,8345
11658,8383
11632,8391
11581,8407
11550,8410
11520,8413
11479,8413
11449,8410
11418,8407
11367,8391
11341,8383
11269,8345
11206,8293
11154,8230
11116,8158
11108,8132
11092,8081
11084,8000
11092,7918
11116,7841
11116,7841
11154,7769
11206,7706
11269,7654
11341,7616
11367,7608
11418,7592
11449,7589
11479,7586
11520,7586
11550,7589
" /> 
</g> 
</svg>
