<?xml version="1.0" standalone="no"?>
 <!DOCTYPE svg PUBLIC "-//W3C//DTD SVG 1.1//EN" 
 "http://www.w3.org/Graphics/SVG/1.1/DTD/svg11.dtd"> 
<svg xmlns="http://www.w3.org/2000/svg" version="1.1" 
    width="29.7002cm" height="21.0007cm" viewBox="0 0 116930 82680 ">
<title>SVG Picture created as poncho_grande-B.SilkS.svg date 2018/11/22 20:51:28 </title>
  <desc>Picture generated by PCBNEW </desc>
<g style="fill:#000000; fill-opacity:1;stroke:#000000; stroke-opacity:1;
stroke-linecap:round; stroke-linejoin:round; "
 transform="translate(0 0) scale(1 1)">
</g>
<g style="fill:#000000; fill-opacity:0.0; 
stroke:#000000; stroke-width:-0.000393701; stroke-opacity:1; 
stroke-linecap:round; stroke-linejoin:round;">
</g>
<g style="fill:#000000; fill-opacity:0.0; 
stroke:#000000; stroke-width:59.0551; stroke-opacity:1; 
stroke-linecap:round; stroke-linejoin:round;">
<path d="M32500 6850
L47500 6850
" />
<path d="M47500 6850
L47500 40650
" />
<path d="M32500 6850
L8150 6850
" />
<path d="M32500 40650
L47500 40650
" />
<path d="M8150 40650
L32500 40650
" />
<path d="M8150 40650
L8150 6850
" />
</g>
<g style="fill:#000000; fill-opacity:0.0; 
stroke:#000000; stroke-width:47.2441; stroke-opacity:1; 
stroke-linecap:round; stroke-linejoin:round;">
<path d="M8198 28610
L8336 28811
" />
<path d="M8277 27622
L8277 27519
" />
<path d="M8198 27700
L8277 27622
" />
<path d="M8198 31401
L8277 31318
" />
<path d="M8336 31318
L8277 31318
" />
<path d="M8336 31318
L8336 28811
" />
<path d="M10151 32539
L9442 32539
" />
<path d="M12513 32539
L10663 32539
" />
<path d="M8198 32133
L8277 32212
" />
<path d="M8198 32133
L8198 31401
" />
<path d="M8198 27700
L8198 28610
" />
<path d="M14604 32539
L13183 32539
" />
<path d="M14604 32362
L14604 32539
" />
<path d="M14604 27039
L9088 27039
" />
<path d="M14604 27795
L14604 27039
" />
</g> 
</svg>
