EESchema Schematic File Version 4
LIBS:poncho_grande-cache
EELAYER 26 0
EELAYER END
$Descr A4 11693 8268
encoding utf-8
Sheet 2 3
Title "Poncho RFID para la Edu-CIAA"
Date "2018-11-19"
Rev "1.0"
Comp "Proyecto CIAA - COMPUTADORA INDUSTRIAL ABIERTA ARGENTINA"
Comment1 "https://gitlab.com/envido32/educiaa-poncho-rfid"
Comment2 "Autores y Licencia del template (Diego Brengi - UNLaM)"
Comment3 "Autor del poncho (Manuel Cajide Maidana - UTN FRA)"
Comment4 "CÓDIGO PONCHO: Prototipo"
$EndDescr
Text HLabel 2650 3600 1    60   BiDi ~ 0
KB_F2
Text HLabel 1050 2150 0    60   BiDi ~ 0
GPIO_5
Text HLabel 1050 2250 0    60   BiDi ~ 0
GPIO_3
Text HLabel 1050 2650 0    60   BiDi ~ 0
LCD_D4
Text HLabel 1050 2550 0    60   BiDi ~ 0
LCD_RS
Text HLabel 1050 2450 0    60   BiDi ~ 0
LCD_D3
Text HLabel 1050 2350 0    60   BiDi ~ 0
LCD_D2
Text HLabel 1300 5300 0    60   BiDi ~ 0
KB_C1
Text HLabel 1300 4950 0    60   BiDi ~ 0
CAN_TD
Text HLabel 1300 4600 0    60   BiDi ~ 0
CAN_RD
Text HLabel 1300 4250 0    60   BiDi ~ 0
RS_TXD
Text HLabel 2350 3600 1    60   BiDi ~ 0
KB_F3
Text HLabel 2050 3600 1    60   BiDi ~ 0
KB_F0
$Comp
L power:+5V #PWR?
U 1 1 560DBF3B
P 1050 1050
AR Path="/560DBF3B" Ref="#PWR?"  Part="1" 
AR Path="/560A0C1A/560DBF3B" Ref="#PWR03"  Part="1" 
F 0 "#PWR03" H 1050 1140 20  0001 C CNN
F 1 "+5V" H 1050 1140 30  0000 C CNN
F 2 "" H 1050 1050 60  0000 C CNN
F 3 "" H 1050 1050 60  0000 C CNN
	1    1050 1050
	1    0    0    -1  
$EndComp
$Comp
L power:GND #PWR?
U 1 1 560DE525
P 3100 1700
AR Path="/560DE525" Ref="#PWR?"  Part="1" 
AR Path="/560A0C1A/560DE525" Ref="#PWR04"  Part="1" 
F 0 "#PWR04" H 3100 1700 30  0001 C CNN
F 1 "GND" H 3100 1630 30  0001 C CNN
F 2 "" H 3100 1700 60  0000 C CNN
F 3 "" H 3100 1700 60  0000 C CNN
	1    3100 1700
	1    0    0    -1  
$EndComp
$Comp
L Custom:LCD16X2 DS?
U 1 1 56F31510
P 2350 1100
AR Path="/56F31510" Ref="DS?"  Part="1" 
AR Path="/560A0C1A/56F31510" Ref="DS1"  Part="1" 
F 0 "DS1" H 1550 1500 40  0000 C CNN
F 1 "LCD16X2" H 3050 1500 40  0000 C CNN
F 2 "Display:WC1602A" H 2350 1050 35  0000 C CIN
F 3 "" H 2350 1100 60  0000 C CNN
	1    2350 1100
	1    0    0    -1  
$EndComp
$Comp
L power:+5V #PWR?
U 1 1 56F319A7
P 3650 1000
AR Path="/56F319A7" Ref="#PWR?"  Part="1" 
AR Path="/560A0C1A/56F319A7" Ref="#PWR010"  Part="1" 
F 0 "#PWR010" H 3650 1090 20  0001 C CNN
F 1 "+5V" H 3650 1090 30  0000 C CNN
F 2 "" H 3650 1000 60  0000 C CNN
F 3 "" H 3650 1000 60  0000 C CNN
	1    3650 1000
	1    0    0    -1  
$EndComp
$Comp
L power:GND #PWR?
U 1 1 56F33F91
P 1050 1950
AR Path="/56F33F91" Ref="#PWR?"  Part="1" 
AR Path="/560A0C1A/56F33F91" Ref="#PWR011"  Part="1" 
F 0 "#PWR011" H 1050 1950 30  0001 C CNN
F 1 "GND" H 1050 1880 30  0001 C CNN
F 2 "" H 1050 1950 60  0000 C CNN
F 3 "" H 1050 1950 60  0000 C CNN
	1    1050 1950
	1    0    0    -1  
$EndComp
Wire Wire Line
	3650 1850 3000 1850
Wire Wire Line
	3000 1850 3000 1600
Wire Wire Line
	1050 1150 1400 1150
Wire Wire Line
	1400 1150 1400 1700
Wire Wire Line
	1400 1700 1700 1700
Wire Wire Line
	1700 1700 1700 1600
Wire Wire Line
	1200 1500 1300 1500
Wire Wire Line
	1300 1500 1300 1800
Wire Wire Line
	1300 1800 1800 1800
Wire Wire Line
	1800 1800 1800 1600
Wire Wire Line
	1600 1600 1600 1900
Wire Wire Line
	1050 1900 1600 1900
Connection ~ 1050 1900
Wire Wire Line
	2000 1900 2000 1600
Connection ~ 1600 1900
Wire Wire Line
	2200 1900 2200 1600
Connection ~ 2000 1900
Wire Wire Line
	2300 1900 2300 1600
Connection ~ 2200 1900
Wire Wire Line
	2400 1900 2400 1600
Connection ~ 2300 1900
Wire Wire Line
	2500 1900 2500 1600
Connection ~ 2400 1900
$Comp
L power:+3.3V #PWR?
U 1 1 56F4CFF1
P 9350 1550
AR Path="/56F4CFF1" Ref="#PWR?"  Part="1" 
AR Path="/560A0C1A/56F4CFF1" Ref="#PWR019"  Part="1" 
F 0 "#PWR019" H 9400 1580 20  0001 C CNN
F 1 "+3.3V" H 9350 1640 30  0000 C CNN
F 2 "" H 9350 1550 60  0000 C CNN
F 3 "" H 9350 1550 60  0000 C CNN
	1    9350 1550
	1    0    0    -1  
$EndComp
$Comp
L power:+5V #PWR?
U 1 1 56F4CFF9
P 9200 1550
AR Path="/56F4CFF9" Ref="#PWR?"  Part="1" 
AR Path="/560A0C1A/56F4CFF9" Ref="#PWR020"  Part="1" 
F 0 "#PWR020" H 9200 1640 20  0001 C CNN
F 1 "+5V" H 9200 1640 30  0000 C CNN
F 2 "" H 9200 1550 60  0000 C CNN
F 3 "" H 9200 1550 60  0000 C CNN
	1    9200 1550
	1    0    0    -1  
$EndComp
$Comp
L power:GND #PWR?
U 1 1 56F4D988
P 8650 2600
AR Path="/56F4D988" Ref="#PWR?"  Part="1" 
AR Path="/560A0C1A/56F4D988" Ref="#PWR021"  Part="1" 
F 0 "#PWR021" H 8650 2600 30  0001 C CNN
F 1 "GND" H 8650 2530 30  0001 C CNN
F 2 "" H 8650 2600 60  0000 C CNN
F 3 "" H 8650 2600 60  0000 C CNN
	1    8650 2600
	1    0    0    -1  
$EndComp
Wire Wire Line
	1300 4250 1400 4250
Wire Wire Line
	1300 4600 1400 4600
Wire Wire Line
	1300 4950 1400 4950
Wire Wire Line
	1300 5300 1400 5300
Wire Wire Line
	2050 3600 2050 3650
Wire Wire Line
	1050 1900 1050 1950
Wire Wire Line
	1600 1900 2000 1900
Wire Wire Line
	2000 1900 2200 1900
Wire Wire Line
	2200 1900 2300 1900
Wire Wire Line
	2300 1900 2400 1900
Wire Wire Line
	2400 1900 2500 1900
$Comp
L Connector_Generic:Conn_01x09 I2C3
U 1 1 5BE6322E
P 9650 2250
F 0 "I2C3" H 9600 2800 50  0000 L CNN
F 1 "Conn_01x09" H 9400 1700 50  0000 L CNN
F 2 "Connector_PinHeader_2.54mm:PinHeader_1x09_P2.54mm_Vertical" H 9650 2250 50  0001 C CNN
F 3 "~" H 9650 2250 50  0001 C CNN
	1    9650 2250
	1    0    0    -1  
$EndComp
$Comp
L Device:R_POT Con1
U 1 1 5BE52E25
P 1050 1500
F 0 "Con1" H 980 1546 50  0000 R CNN
F 1 "10K" H 980 1455 50  0000 R CNN
F 2 "Potentiometer_THT:Potentiometer_Bourns_3296W_Vertical" H 1050 1500 50  0001 C CNN
F 3 "" H 1050 1500 50  0001 C CNN
	1    1050 1500
	1    0    0    -1  
$EndComp
Wire Wire Line
	1050 1050 1050 1150
Wire Wire Line
	1050 1650 1050 1900
Text HLabel 1350 7000 0    60   BiDi ~ 0
SPI_SCK
Text HLabel 1350 7200 0    60   BiDi ~ 0
SPI_MISO
Text HLabel 1350 6800 0    60   BiDi ~ 0
SPI_MOSI
NoConn ~ 1550 6600
NoConn ~ 1550 7300
Wire Wire Line
	1550 7100 800  7100
Wire Wire Line
	1550 6900 800  6900
Text HLabel 1350 6700 0    60   BiDi ~ 0
GPIO_0
$Comp
L power:GND #PWR0101
U 1 1 5BE87487
P 800 7400
F 0 "#PWR0101" H 800 7150 50  0001 C CNN
F 1 "GND" H 805 7227 50  0000 C CNN
F 2 "" H 800 7400 50  0001 C CNN
F 3 "" H 800 7400 50  0001 C CNN
	1    800  7400
	1    0    0    -1  
$EndComp
$Comp
L power:+3.3V #PWR0102
U 1 1 5BE87685
P 800 6400
F 0 "#PWR0102" H 800 6250 50  0001 C CNN
F 1 "+3.3V" H 815 6573 50  0000 C CNN
F 2 "" H 800 6400 50  0001 C CNN
F 3 "" H 800 6400 50  0001 C CNN
	1    800  6400
	1    0    0    -1  
$EndComp
$Comp
L power:GND #PWR0103
U 1 1 5BE878E8
P 3250 7550
F 0 "#PWR0103" H 3250 7300 50  0001 C CNN
F 1 "GND" H 3255 7377 50  0000 C CNN
F 2 "" H 3250 7550 50  0001 C CNN
F 3 "" H 3250 7550 50  0001 C CNN
	1    3250 7550
	1    0    0    -1  
$EndComp
$Comp
L Connector_Generic:Conn_02x07_Odd_Even SPI1
U 1 1 5BE87D04
P 4550 7050
F 0 "SPI1" H 4600 7567 50  0000 C CNN
F 1 "Conn_02x07" H 4600 7476 50  0000 C CNN
F 2 "Connector_PinHeader_2.54mm:PinHeader_2x07_P2.54mm_Horizontal" H 4550 7050 50  0001 C CNN
F 3 "~" H 4550 7050 50  0001 C CNN
	1    4550 7050
	1    0    0    1   
$EndComp
Text HLabel 4200 6750 0    60   BiDi ~ 0
GPIO_0
Text HLabel 4200 6850 0    60   BiDi ~ 0
SPI_MOSI
Text HLabel 4200 7150 0    60   BiDi ~ 0
SPI_SCK
Text HLabel 4200 7350 0    60   BiDi ~ 0
SPI_MISO
$Comp
L power:+3.3V #PWR0104
U 1 1 5BEABA61
P 3550 6550
F 0 "#PWR0104" H 3550 6400 50  0001 C CNN
F 1 "+3.3V" H 3565 6723 50  0000 C CNN
F 2 "" H 3550 6550 50  0001 C CNN
F 3 "" H 3550 6550 50  0001 C CNN
	1    3550 6550
	1    0    0    -1  
$EndComp
$Comp
L power:GND #PWR0105
U 1 1 5BEABA7C
P 3650 7550
F 0 "#PWR0105" H 3650 7300 50  0001 C CNN
F 1 "GND" H 3655 7377 50  0000 C CNN
F 2 "" H 3650 7550 50  0001 C CNN
F 3 "" H 3650 7550 50  0001 C CNN
	1    3650 7550
	1    0    0    -1  
$EndComp
Connection ~ 1050 1150
Wire Wire Line
	1050 1150 1050 1350
Wire Wire Line
	800  7100 800  7400
Wire Wire Line
	1550 7000 1350 7000
Wire Wire Line
	1350 7200 1550 7200
Wire Wire Line
	3650 6950 3650 7550
Wire Wire Line
	3550 7050 3550 6550
Wire Wire Line
	3550 7250 3550 7050
Connection ~ 3550 7050
$Comp
L Custom:Keypad_-_4x4 KP-P1
U 1 1 5BE6E38D
P 2350 4750
F 0 "KP-P1" H 2250 3650 60  0000 L CNN
F 1 "Keypad_-_4x4" H 2100 3800 60  0000 L CNN
F 2 "Connector_PinHeader_2.54mm:PinHeader_1x08_P2.54mm_Vertical" H 750 3950 60  0000 L CNN
F 3 "" H 2600 4750 60  0000 C CNN
	1    2350 4750
	1    0    0    -1  
$EndComp
Wire Wire Line
	2650 3650 2650 3600
Wire Wire Line
	2350 3650 2350 3600
Wire Wire Line
	2950 3650 2950 3600
Text HLabel 2950 3600 1    60   BiDi ~ 0
KB_C0
Wire Wire Line
	4950 1500 5150 1500
Wire Wire Line
	1050 2150 1900 2150
Wire Wire Line
	1900 1600 1900 2150
Wire Wire Line
	1050 2250 2100 2250
Wire Wire Line
	2100 1600 2100 2250
Wire Wire Line
	1050 2350 2600 2350
Wire Wire Line
	2600 1600 2600 2350
Wire Wire Line
	1050 2450 2700 2450
Wire Wire Line
	2700 1600 2700 2450
Wire Wire Line
	1050 2550 2800 2550
Wire Wire Line
	2800 1600 2800 2550
Wire Wire Line
	1050 2650 2900 2650
Wire Wire Line
	2900 1600 2900 2650
Wire Wire Line
	3100 1700 3100 1600
Wire Wire Line
	5150 1200 4950 1200
$Comp
L Connector_Generic:Conn_01x06 GPIO1
U 1 1 5BF5AE0A
P 5350 1400
F 0 "GPIO1" H 5250 1700 50  0000 L CNN
F 1 "Conn_01x06" H 5150 1000 50  0000 L CNN
F 2 "Connector_PinHeader_2.54mm:PinHeader_1x06_P2.54mm_Vertical" H 5350 1400 50  0001 C CNN
F 3 "~" H 5350 1400 50  0001 C CNN
	1    5350 1400
	1    0    0    -1  
$EndComp
Text HLabel 4950 1400 0    60   BiDi ~ 0
GPIO_4
Text HLabel 4950 1500 0    60   BiDi ~ 0
GPIO_6
Text HLabel 4950 1600 0    60   BiDi ~ 0
GPIO_8
Text HLabel 4950 1300 0    60   BiDi ~ 0
GPIO_2
Wire Wire Line
	4950 1400 5150 1400
Wire Wire Line
	4950 1300 5150 1300
Wire Wire Line
	4950 1600 5150 1600
Wire Wire Line
	4950 1700 5150 1700
$Comp
L Transistor_BJT:BC547 Q1
U 1 1 5BEA994B
P 4600 4150
F 0 "Q1" H 4791 4196 50  0000 L CNN
F 1 "BC547" H 4791 4105 50  0000 L CNN
F 2 "Package_TO_SOT_THT:TO-92_Inline" H 4800 4075 50  0001 L CIN
F 3 "http://www.fairchildsemi.com/ds/BC/BC547.pdf" H 4600 4150 50  0001 L CNN
	1    4600 4150
	1    0    0    -1  
$EndComp
Text HLabel 3950 4150 0    60   BiDi ~ 0
GPIO_7
$Comp
L Device:R_Small_US R6
U 1 1 5BEAAEA5
P 4150 4150
F 0 "R6" V 3945 4150 50  0000 C CNN
F 1 "1K" V 4036 4150 50  0000 C CNN
F 2 "Resistor_THT:R_Axial_DIN0204_L3.6mm_D1.6mm_P7.62mm_Horizontal" H 4150 4150 50  0001 C CNN
F 3 "~" H 4150 4150 50  0001 C CNN
	1    4150 4150
	0    1    1    0   
$EndComp
$Comp
L Device:R_Small_US R7
U 1 1 5BEAAFC5
P 4700 2800
F 0 "R7" V 4495 2800 50  0000 C CNN
F 1 "220" V 4586 2800 50  0000 C CNN
F 2 "Resistor_THT:R_Axial_DIN0204_L3.6mm_D1.6mm_P7.62mm_Horizontal" H 4700 2800 50  0001 C CNN
F 3 "~" H 4700 2800 50  0001 C CNN
	1    4700 2800
	-1   0    0    1   
$EndComp
$Comp
L Diode:1N4001 D1
U 1 1 5BEAB349
P 4200 3450
F 0 "D1" V 4154 3529 50  0000 L CNN
F 1 "1N4001" V 4245 3529 50  0000 L CNN
F 2 "Diode_THT:D_DO-41_SOD81_P10.16mm_Horizontal" H 4200 3275 50  0001 C CNN
F 3 "http://www.vishay.com/docs/88503/1n4001.pdf" H 4200 3450 50  0001 C CNN
	1    4200 3450
	0    1    1    0   
$EndComp
Wire Wire Line
	5200 3150 5200 3100
Wire Wire Line
	5200 3100 5550 3100
Wire Wire Line
	5550 3800 5100 3800
Wire Wire Line
	5100 3800 5100 3750
NoConn ~ 5000 3150
Wire Wire Line
	4700 3750 4700 3800
Wire Wire Line
	4700 3800 4200 3800
Wire Wire Line
	4700 4500 4700 4350
Wire Wire Line
	3950 4150 4050 4150
Wire Wire Line
	4250 4150 4400 4150
Wire Wire Line
	4700 3100 4700 3150
Wire Wire Line
	4700 3100 4700 2900
Wire Wire Line
	4700 3800 4700 3950
Connection ~ 4700 3100
Connection ~ 4700 3800
Wire Wire Line
	4200 3300 4200 3100
Wire Wire Line
	4200 3100 4700 3100
Wire Wire Line
	4200 3600 4200 3800
$Comp
L power:+5V #PWR?
U 1 1 5C00A676
P 4700 2550
AR Path="/5C00A676" Ref="#PWR?"  Part="1" 
AR Path="/560A0C1A/5C00A676" Ref="#PWR01"  Part="1" 
F 0 "#PWR01" H 4700 2640 20  0001 C CNN
F 1 "+5V" H 4700 2640 30  0000 C CNN
F 2 "" H 4700 2550 60  0000 C CNN
F 3 "" H 4700 2550 60  0000 C CNN
	1    4700 2550
	1    0    0    -1  
$EndComp
Wire Wire Line
	4700 2700 4700 2550
$Comp
L power:GND #PWR?
U 1 1 5C01AFB8
P 4700 4500
AR Path="/5C01AFB8" Ref="#PWR?"  Part="1" 
AR Path="/560A0C1A/5C01AFB8" Ref="#PWR02"  Part="1" 
F 0 "#PWR02" H 4700 4500 30  0001 C CNN
F 1 "GND" H 4700 4430 30  0001 C CNN
F 2 "" H 4700 4500 60  0000 C CNN
F 3 "" H 4700 4500 60  0000 C CNN
	1    4700 4500
	1    0    0    -1  
$EndComp
$Comp
L Relay:G5LE-1 K1
U 1 1 5C07FCB0
P 4900 3450
F 0 "K1" H 4850 3600 50  0000 L CNN
F 1 "Relay" H 4800 3300 50  0000 L CNN
F 2 "Relay_THT:Relay_SPDT_Omron-G5LE-1" H 5350 3400 50  0001 L CNN
F 3 "http://www.omron.com/ecb/products/pdf/en-g5le.pdf" H 4900 3050 50  0001 C CNN
	1    4900 3450
	1    0    0    -1  
$EndComp
$Comp
L Connector_Generic:Conn_01x02 J1
U 1 1 5C083CF1
P 5750 3500
F 0 "J1" H 5700 3650 50  0000 L CNN
F 1 "Conn_01x02" H 5600 3300 50  0000 L CNN
F 2 "TerminalBlock:TerminalBlock_bornier-2_P5.08mm" H 5750 3500 50  0001 C CNN
F 3 "~" H 5750 3500 50  0001 C CNN
	1    5750 3500
	1    0    0    1   
$EndComp
$Comp
L Connector:Micro_SD_Card J2
U 1 1 5C08505D
P 2450 6900
F 0 "J2" H 2400 7617 50  0000 C CNN
F 1 "Micro_SD_Card" H 2400 7526 50  0000 C CNN
F 2 "Connector_Card:microSD_HC_Hirose_DM3AT-SF-PEJM5" H 3600 7200 50  0001 C CNN
F 3 "http://katalog.we-online.de/em/datasheet/693072010801.pdf" H 2450 6900 50  0001 C CNN
	1    2450 6900
	1    0    0    -1  
$EndComp
Wire Wire Line
	3250 7550 3250 7500
Wire Wire Line
	1350 6700 1550 6700
Wire Wire Line
	1550 6800 1350 6800
Wire Wire Line
	800  6400 800  6900
$Comp
L Device:R_Small_US R2
U 1 1 5C137BCF
P 3650 1350
F 0 "R2" H 3550 1350 50  0000 C CNN
F 1 "100" H 3550 1450 50  0000 C CNN
F 2 "Resistor_THT:R_Axial_DIN0204_L3.6mm_D1.6mm_P7.62mm_Horizontal" H 3650 1350 50  0001 C CNN
F 3 "~" H 3650 1350 50  0001 C CNN
	1    3650 1350
	-1   0    0    1   
$EndComp
Wire Wire Line
	3650 1000 3650 1250
Wire Wire Line
	3650 1450 3650 1850
Text HLabel 4950 1200 0    60   BiDi ~ 0
GPIO_0
Text HLabel 4950 1700 0    60   BiDi ~ 0
GPIO_7
Wire Wire Line
	5550 3500 5550 3800
Wire Wire Line
	4200 7350 4350 7350
Wire Wire Line
	3550 7250 4350 7250
Wire Wire Line
	3550 7050 4350 7050
Wire Wire Line
	3650 6950 4350 6950
Wire Wire Line
	4350 7150 4200 7150
Wire Wire Line
	4350 6850 4200 6850
Wire Wire Line
	4200 6750 4350 6750
Connection ~ 4350 6750
Wire Wire Line
	4350 6750 4850 6750
Wire Wire Line
	4850 6850 4350 6850
Connection ~ 4350 6850
Wire Wire Line
	4850 6950 4350 6950
Connection ~ 4350 6950
Wire Wire Line
	4850 7050 4350 7050
Connection ~ 4350 7050
Wire Wire Line
	4850 7150 4350 7150
Connection ~ 4350 7150
Wire Wire Line
	4850 7250 4350 7250
Connection ~ 4350 7250
Wire Wire Line
	4850 7350 4350 7350
Connection ~ 4350 7350
Wire Wire Line
	5550 3100 5550 3400
Wire Wire Line
	9200 1550 9200 1950
Wire Wire Line
	9200 1950 9450 1950
Wire Wire Line
	9350 1550 9350 1850
Wire Wire Line
	9350 1850 9450 1850
Wire Wire Line
	9250 2450 9450 2450
Text HLabel 9250 2450 0    60   BiDi ~ 0
GPIO_2
Wire Wire Line
	9250 2350 9450 2350
Text HLabel 9250 2350 0    60   BiDi ~ 0
LCD_EN
Text HLabel 10600 1950 2    60   BiDi ~ 0
I2C_SCL
Text HLabel 10600 1850 2    60   BiDi ~ 0
I2C_SDA
NoConn ~ 9450 2050
NoConn ~ 9450 2150
Wire Wire Line
	9450 2250 8650 2250
Wire Wire Line
	8650 2250 8650 2600
NoConn ~ 9450 2550
NoConn ~ 9450 2650
$Comp
L Connector_Generic:Conn_01x09 I2C2
U 1 1 5BFABD84
P 10150 2250
F 0 "I2C2" H 10100 2800 50  0000 L CNN
F 1 "Conn_01x09" H 9900 1700 50  0000 L CNN
F 2 "Connector_PinHeader_2.54mm:PinHeader_1x09_P2.54mm_Vertical" H 10150 2250 50  0001 C CNN
F 3 "~" H 10150 2250 50  0001 C CNN
	1    10150 2250
	-1   0    0    -1  
$EndComp
Wire Wire Line
	10600 1850 10350 1850
Wire Wire Line
	10600 1950 10350 1950
NoConn ~ 10350 2050
NoConn ~ 10350 2150
NoConn ~ 10350 2250
NoConn ~ 10350 2350
NoConn ~ 10350 2450
NoConn ~ 10350 2550
NoConn ~ 10350 2650
$Comp
L power:+3.3V #PWR?
U 1 1 5BFCC7D8
P 6750 4350
AR Path="/5BFCC7D8" Ref="#PWR?"  Part="1" 
AR Path="/560A0C1A/5BFCC7D8" Ref="#PWR06"  Part="1" 
F 0 "#PWR06" H 6800 4380 20  0001 C CNN
F 1 "+3.3V" H 6750 4440 30  0000 C CNN
F 2 "" H 6750 4350 60  0000 C CNN
F 3 "" H 6750 4350 60  0000 C CNN
	1    6750 4350
	1    0    0    -1  
$EndComp
$Comp
L power:+5V #PWR?
U 1 1 5BFCC7DE
P 6900 4350
AR Path="/5BFCC7DE" Ref="#PWR?"  Part="1" 
AR Path="/560A0C1A/5BFCC7DE" Ref="#PWR07"  Part="1" 
F 0 "#PWR07" H 6900 4440 20  0001 C CNN
F 1 "+5V" H 6900 4440 30  0000 C CNN
F 2 "" H 6900 4350 60  0000 C CNN
F 3 "" H 6900 4350 60  0000 C CNN
	1    6900 4350
	1    0    0    -1  
$EndComp
$Comp
L power:GND #PWR?
U 1 1 5BFCC7E4
P 6650 5150
AR Path="/5BFCC7E4" Ref="#PWR?"  Part="1" 
AR Path="/560A0C1A/5BFCC7E4" Ref="#PWR05"  Part="1" 
F 0 "#PWR05" H 6650 5150 30  0001 C CNN
F 1 "GND" H 6650 5080 30  0001 C CNN
F 2 "" H 6650 5150 60  0000 C CNN
F 3 "" H 6650 5150 60  0000 C CNN
	1    6650 5150
	1    0    0    -1  
$EndComp
$Comp
L Connector_Generic:Conn_01x05 I2C1
U 1 1 5BFCC7EA
P 7200 4850
F 0 "I2C1" H 7100 5250 50  0000 L CNN
F 1 "Conn_01x05" H 7000 4500 50  0000 L CNN
F 2 "Connector_PinHeader_2.54mm:PinHeader_1x05_P2.54mm_Vertical" H 7200 4850 50  0001 C CNN
F 3 "~" H 7200 4850 50  0001 C CNN
	1    7200 4850
	1    0    0    -1  
$EndComp
Wire Wire Line
	6750 4350 6750 4750
Wire Wire Line
	6750 4750 7000 4750
Wire Wire Line
	6900 4350 6900 4650
Wire Wire Line
	6900 4650 7000 4650
Wire Wire Line
	7000 5050 6650 5050
Text HLabel 6850 4950 0    60   BiDi ~ 0
I2C_SCL
Text HLabel 6850 4850 0    60   BiDi ~ 0
I2C_SDA
Wire Wire Line
	6650 5150 6650 5050
Wire Wire Line
	6850 4850 7000 4850
Wire Wire Line
	7000 4950 6850 4950
$EndSCHEMATC
